<?xml version="1.0" encoding="UTF-8" standalone="no"?>
<!-- Created with Inkscape (http://www.inkscape.org/) -->

<svg
   xmlns:dc="http://purl.org/dc/elements/1.1/"
   xmlns:cc="http://creativecommons.org/ns#"
   xmlns:rdf="http://www.w3.org/1999/02/22-rdf-syntax-ns#"
   xmlns:svg="http://www.w3.org/2000/svg"
   xmlns="http://www.w3.org/2000/svg"
   xmlns:sodipodi="http://sodipodi.sourceforge.net/DTD/sodipodi-0.dtd"
   xmlns:inkscape="http://www.inkscape.org/namespaces/inkscape"
   width="25"
   height="25"
   viewBox="0 0 6.6145832 6.6145835"
   version="1.1"
   id="svg848"
   inkscape:version="0.92.2 2405546, 2018-03-11"
   sodipodi:docname="home.svg">
  <defs
     id="defs842" />
  <sodipodi:namedview
     id="base"
     pagecolor="#ffffff"
     bordercolor="#666666"
     borderopacity="1.0"
     inkscape:pageopacity="0.0"
     inkscape:pageshadow="2"
     inkscape:zoom="2"
     inkscape:cx="35.547104"
     inkscape:cy="-15.566435"
     inkscape:document-units="mm"
     inkscape:current-layer="layer1"
     showgrid="true"
     inkscape:window-width="1600"
     inkscape:window-height="836"
     inkscape:window-x="0"
     inkscape:window-y="27"
     inkscape:window-maximized="1"
     units="px"
     inkscape:snap-global="false"
     inkscape:measure-start="0,0"
     inkscape:measure-end="0,0"
     showguides="true">
    <inkscape:grid
       type="xygrid"
       id="grid1412" />
  </sodipodi:namedview>
  <metadata
     id="metadata845">
    <rdf:RDF>
      <cc:Work
         rdf:about="">
        <dc:format>image/svg+xml</dc:format>
        <dc:type
           rdf:resource="http://purl.org/dc/dcmitype/StillImage" />
        <dc:title></dc:title>
      </cc:Work>
    </rdf:RDF>
  </metadata>
  <g
     inkscape:label="Layer 1"
     inkscape:groupmode="layer"
     id="layer1"
     transform="translate(0,-290.3854)">
    <path
       style="color:#000000;font-style:normal;font-variant:normal;font-weight:normal;font-stretch:normal;font-size:medium;line-height:normal;font-family:sans-serif;font-variant-ligatures:normal;font-variant-position:normal;font-variant-caps:normal;font-variant-numeric:normal;font-variant-alternates:normal;font-feature-settings:normal;text-indent:0;text-align:start;text-decoration:none;text-decoration-line:none;text-decoration-style:solid;text-decoration-color:#000000;letter-spacing:normal;word-spacing:normal;text-transform:none;writing-mode:lr-tb;direction:ltr;text-orientation:mixed;dominant-baseline:auto;baseline-shift:baseline;text-anchor:start;white-space:normal;shape-padding:0;clip-rule:nonzero;display:inline;overflow:visible;visibility:visible;opacity:1;isolation:auto;mix-blend-mode:normal;color-interpolation:sRGB;color-interpolation-filters:linearRGB;solid-color:#000000;solid-opacity:1;vector-effect:none;fill:#4d4d4d;fill-opacity:1;fill-rule:nonzero;stroke:none;stroke-width:0.421;stroke-linecap:round;stroke-linejoin:miter;stroke-miterlimit:4;stroke-dasharray:none;stroke-dashoffset:0;stroke-opacity:1;color-rendering:auto;image-rendering:auto;shape-rendering:auto;text-rendering:auto;enable-background:accumulate"
       d="m -8.0144101,288.27229 c -1.1342938,0 -2.0910009,0.76906 -2.3817669,1.8123 h 0.4397666 c 0.2748138,-0.80955 1.037831,-1.39062 1.9420003,-1.39062 1.1363148,0 2.0531048,0.91627 2.0531048,2.05259 0,1.13631 -0.91679,2.05311 -2.0531048,2.05311 -0.9046205,0 -1.6680556,-0.58199 -1.942517,-1.39217 h -0.4397669 c 0.290353,1.04341 1.2475426,1.81178 2.3822839,1.81178 1.3638401,0 2.4747845,-1.10888 2.4747845,-2.47272 0,-1.36384 -1.1109444,-2.47427 -2.4747845,-2.47427 z m -2.4639319,2.26395 c -0.0059,0.0696 -0.01034,0.13923 -0.01034,0.21032 0,0.071 0.0044,0.14088 0.01034,0.21032 z"
       id="path2482"
       inkscape:connector-curvature="0" />
    <path
       style="opacity:1;fill:#ff47f3;fill-opacity:1;stroke:none;stroke-width:0.6310969;stroke-linecap:round;stroke-miterlimit:4;stroke-dasharray:none;stroke-dashoffset:0;stroke-opacity:1"
       d="m -8.1968278,294.54792 -0.3870566,0.38706 0.6976319,0.69763 H -10.88762 v 0.54777 h 2.9993003 l -0.6955647,0.69556 0.3870566,0.38706 1.0815878,-1.08159 v 0.002 l 0.2857706,-0.27698 -0.2847371,-0.27699 v 0.001 l -5.168e-4,0.27441 v -0.27234 h -0.00155 l 0.00207,-0.002 z"
       id="rect1418"
       inkscape:connector-curvature="0" />
    <circle
       r="2.2634654"
       cy="293.40652"
       cx="-13.730773"
       id="circle2484"
       style="opacity:1;fill:none;fill-opacity:1;stroke:#ff0101;stroke-width:0.421;stroke-linecap:round;stroke-miterlimit:4;stroke-dasharray:none;stroke-dashoffset:0;stroke-opacity:0.32786889" />
    <path
       style="opacity:1;fill:#f57f00;fill-opacity:1;stroke:none;stroke-width:1.12972069;stroke-linecap:round;stroke-miterlimit:4;stroke-dasharray:none;stroke-dashoffset:0;stroke-opacity:1"
       d="m -8.4624446,289.27533 -0.2955893,0.29558 0.9678995,0.9679 h -3.0545936 v 0.41858 h 3.0504595 l -0.9637654,0.96377 0.2955893,0.29559 1.2593545,-1.25936 h 0.0031 v 0.002 l 0.00155,-0.002 h 0.00155 v -0.002 l 0.2082559,-0.20774 -0.2082559,-0.20722 v -0.002 h -0.00207 z"
       id="rect3044"
       inkscape:connector-curvature="0" />
    <rect
       style="opacity:1;fill:#ff47f3;fill-opacity:1;stroke:none;stroke-width:1.12972069;stroke-linecap:round;stroke-miterlimit:4;stroke-dasharray:none;stroke-dashoffset:0;stroke-opacity:1"
       id="rect3044-9"
       width="0.41829485"
       height="3.6482289"
       x="287.52933"
       y="15.897594"
       ry="0"
       transform="rotate(90)" />
    <rect
       ry="0"
       y="190.28418"
       x="-214.97482"
       height="1.7890352"
       width="0.41829485"
       id="rect3061-0"
       style="opacity:1;fill:#ff47f3;fill-opacity:1;stroke:none;stroke-width:0.79111475;stroke-linecap:round;stroke-miterlimit:4;stroke-dasharray:none;stroke-dashoffset:0;stroke-opacity:1"
       transform="rotate(-45)"
       inkscape:transform-center-x="-1.6487189"
       inkscape:transform-center-y="0.98221554" />
    <rect
       inkscape:transform-center-y="0.98223219"
       inkscape:transform-center-x="1.6487144"
       transform="matrix(-0.70710678,-0.70710678,-0.70710678,0.70710678,0,0)"
       style="opacity:1;fill:#ff47f3;fill-opacity:1;stroke:none;stroke-width:0.79111475;stroke-linecap:round;stroke-miterlimit:4;stroke-dasharray:none;stroke-dashoffset:0;stroke-opacity:1"
       id="rect3063-8"
       width="0.41829485"
       height="1.7890352"
       x="-192.36421"
       y="214.84752"
       ry="0" />
    <path
       style="fill:#ff47f3;fill-opacity:1;stroke:none;stroke-width:0.26458332px;stroke-linecap:butt;stroke-linejoin:miter;stroke-opacity:1"
       d="m -15.901966,287.52771 0.203605,0.20464 -0.202571,0.21704 z"
       id="path3065-3"
       inkscape:connector-curvature="0"
       sodipodi:nodetypes="cccc" />
    <path
       inkscape:connector-curvature="0"
       id="path828"
       d="m -16.177736,289.27533 -0.295589,0.29558 0.967899,0.9679 h -3.054593 v 0.41858 h 3.050459 l -0.963765,0.96377 0.295589,0.29559 1.259355,-1.25936 h 0.0031 v 0.002 l 0.0015,-0.002 h 0.0015 v -0.002 l 0.208256,-0.20774 -0.208256,-0.20722 v -0.002 h -0.0021 z"
       style="opacity:1;fill:#ff47f3;fill-opacity:1;stroke:none;stroke-width:1.12972069;stroke-linecap:round;stroke-miterlimit:4;stroke-dasharray:none;stroke-dashoffset:0;stroke-opacity:1" />
    <path
       style="color:#000000;font-style:normal;font-variant:normal;font-weight:normal;font-stretch:normal;font-size:medium;line-height:normal;font-family:sans-serif;font-variant-ligatures:normal;font-variant-position:normal;font-variant-caps:normal;font-variant-numeric:normal;font-variant-alternates:normal;font-feature-settings:normal;text-indent:0;text-align:start;text-decoration:none;text-decoration-line:none;text-decoration-style:solid;text-decoration-color:#000000;letter-spacing:normal;word-spacing:normal;text-transform:none;writing-mode:lr-tb;direction:ltr;text-orientation:mixed;dominant-baseline:auto;baseline-shift:baseline;text-anchor:start;white-space:normal;shape-padding:0;clip-rule:nonzero;display:inline;overflow:visible;visibility:visible;opacity:1;isolation:auto;mix-blend-mode:normal;color-interpolation:sRGB;color-interpolation-filters:linearRGB;solid-color:#000000;solid-opacity:1;vector-effect:none;fill:#333333;fill-opacity:1;fill-rule:nonzero;stroke:none;stroke-width:0.421;stroke-linecap:round;stroke-linejoin:miter;stroke-miterlimit:4;stroke-dasharray:none;stroke-dashoffset:0;stroke-opacity:1;color-rendering:auto;image-rendering:auto;shape-rendering:auto;text-rendering:auto;enable-background:accumulate"
       d="m 3.3075529,291.30937 c -0.1145039,-3e-4 -0.1675881,0.0439 -0.2092893,0.0724 -0.041702,0.0286 -0.07183,0.0579 -0.07183,0.0579 L 0.57283626,293.6069 H 1.4079272 c -0.00337,0.0567 -0.00259,-0.023 -0.00259,5.3e-4 v 1.79283 c 0,0.26083 0.2161481,0.47698 0.4769736,0.47698 h 1.0288677 v -1.46033 h 0.7917027 v 1.46033 h 1.028868 c 0.2608249,0 0.4769733,-0.21615 0.4769733,-0.47698 v -1.73288 c 0,-0.0235 0.00154,-0.0379 -0.00183,-0.0605 h 0.834855 l -2.455664,-2.16731 0.0093,0.009 c 0,0 -0.030334,-0.0306 -0.072864,-0.061 -0.042523,-0.0304 -0.096953,-0.0777 -0.2149666,-0.078 z m -0.00156,0.44493 1.6226398,1.43196 -0.140044,-0.12402 v 0.59014 c 0,0.005 -5.212e-4,0.009 -5.212e-4,0.015 v 1.73289 c 0,0.0343 -0.022048,0.0563 -0.056327,0.0563 H 4.1235219 v -1.46033 H 2.4905268 v 1.46033 H 1.8823053 c -0.034275,0 -0.056328,-0.022 -0.056328,-0.0563 v -1.73289 c 0,-6.3e-4 5.028e-4,-9.2e-4 5.292e-4,-0.002 v -0.63415 l -0.1415928,0.1546 z"
       id="rect1999"
       inkscape:connector-curvature="0"
       sodipodi:nodetypes="cccccsssccccsssccccccccccsssccccsssccccc" />
    <rect
       style="opacity:1;fill:#41a2ff;fill-opacity:1;stroke:none;stroke-width:0.421;stroke-linecap:round;stroke-miterlimit:4;stroke-dasharray:none;stroke-dashoffset:0;stroke-opacity:0.32786889"
       id="rect2018"
       width="8.8399401"
       height="5.1917105"
       x="-4.723989"
       y="278.75885" />
    <rect
       style="opacity:1;fill:#ff73fc;fill-opacity:1;stroke:none;stroke-width:0.421;stroke-linecap:round;stroke-miterlimit:4;stroke-dasharray:none;stroke-dashoffset:0;stroke-opacity:0.32786889"
       id="rect2020"
       width="13.002663"
       height="5.6594324"
       x="6.1739259"
       y="278.57175" />
    <path
       style="fill:none;stroke:#000000;stroke-width:0.26458332px;stroke-linecap:butt;stroke-linejoin:miter;stroke-opacity:1"
       d="m 8.8399394,295.1291 0.1870887,0.53788 0.3975635,0.0701 0.4209494,-0.14031 0.1403165,-0.37418 -0.9120571,-2.29184 -0.023386,-0.39756 0.1637024,-0.25725 0.4443357,-0.0468 0.3975635,0.1637 0.07016,0.46773 v 0"
       id="path2078"
       inkscape:connector-curvature="0" />
    <path
       style="fill:none;stroke:#000000;stroke-width:0.26458332px;stroke-linecap:butt;stroke-linejoin:miter;stroke-opacity:1"
       d="M 8.8165534,293.609 H 9.8689273"
       id="path2080"
       inkscape:connector-curvature="0" />
    <path
       style="fill:none;stroke:#000000;stroke-width:0.26458332px;stroke-linecap:butt;stroke-linejoin:miter;stroke-opacity:1"
       d="m 11.295478,292.27599 -0.561266,0.70159 -0.280633,0.8419 0.210475,1.02898 0.561266,0.74836 v 0"
       id="path2082"
       inkscape:connector-curvature="0" />
    <path
       style="fill:none;stroke:#000000;stroke-width:0.26458332px;stroke-linecap:butt;stroke-linejoin:miter;stroke-opacity:1"
       d="m 11.505953,294.66137 1.005602,-1.1693 -0.04677,0.0234"
       id="path2084"
       inkscape:connector-curvature="0" />
    <path
       style="fill:none;stroke:#000000;stroke-width:0.26458332px;stroke-linecap:butt;stroke-linejoin:miter;stroke-opacity:1"
       d="m 11.482567,293.46868 1.005602,1.16931 v 0"
       id="path2086"
       inkscape:connector-curvature="0" />
    <path
       style="fill:none;stroke:#000000;stroke-width:0.26458332px;stroke-linecap:butt;stroke-linejoin:miter;stroke-opacity:1"
       d="m 12.932504,292.36954 0.631424,0.74835 0.233861,0.6782 -0.397563,1.02899 -0.444336,0.8419"
       id="path2088"
       inkscape:connector-curvature="0" />
    <path
       style="color:#000000;font-style:normal;font-variant:normal;font-weight:normal;font-stretch:normal;font-size:medium;line-height:normal;font-family:sans-serif;font-variant-ligatures:normal;font-variant-position:normal;font-variant-caps:normal;font-variant-numeric:normal;font-variant-alternates:normal;font-feature-settings:normal;text-indent:0;text-align:start;text-decoration:none;text-decoration-line:none;text-decoration-style:solid;text-decoration-color:#000000;letter-spacing:normal;word-spacing:normal;text-transform:none;writing-mode:lr-tb;direction:ltr;text-orientation:mixed;dominant-baseline:auto;baseline-shift:baseline;text-anchor:start;white-space:normal;shape-padding:0;clip-rule:nonzero;display:inline;overflow:visible;visibility:visible;opacity:1;isolation:auto;mix-blend-mode:normal;color-interpolation:sRGB;color-interpolation-filters:linearRGB;solid-color:#000000;solid-opacity:1;vector-effect:none;fill:#333333;fill-opacity:1;fill-rule:nonzero;stroke:none;stroke-width:0.30000001;stroke-linecap:round;stroke-linejoin:miter;stroke-miterlimit:4;stroke-dasharray:none;stroke-dashoffset:0;stroke-opacity:1;color-rendering:auto;image-rendering:auto;shape-rendering:auto;text-rendering:auto;enable-background:accumulate"
       d="m 17.695591,294.61059 -0.287321,0.14676 a 0.57880556,0.57880556 0 0 1 0.151929,0.38912 0.57880556,0.57880556 0 0 1 -0.578776,0.57878 0.57880556,0.57880556 0 0 1 -0.578776,-0.57878 0.57880556,0.57880556 0 0 1 0.02119,-0.15296 H 16.253819 16.10344 v 0.15038 c 0,0.36293 0.22596,0.69064 0.564823,0.82062 0.338863,0.12998 0.723632,0.0373 0.96635,-0.23255 0.242718,-0.26984 0.294203,-0.66325 0.129191,-0.9865 z"
       id="path2090"
       inkscape:connector-curvature="0" />
    <path
       transform="scale(-1,1)"
       d="m -25.846676,294.91638 a 0.72760415,0.72760415 0 0 1 -0.541359,0.70337 0.72760415,0.72760415 0 0 1 -0.818503,-0.34329 0.72760415,0.72760415 0 0 1 0.122335,-0.8791 l 0.509923,0.51902 z"
       sodipodi:end="3.9358364"
       sodipodi:start="0"
       sodipodi:ry="0.72760415"
       sodipodi:rx="0.72760415"
       sodipodi:cy="294.91638"
       sodipodi:cx="-26.57428"
       sodipodi:type="arc"
       id="path2092"
       style="opacity:1;fill:none;fill-opacity:1;stroke:#333333;stroke-width:0.30000001;stroke-linecap:round;stroke-miterlimit:4;stroke-dasharray:none;stroke-dashoffset:0;stroke-opacity:1" />
    <path
       transform="scale(-1,1)"
       d="m -16.272066,296.99997 a 0.72760415,0.72760415 0 0 1 -0.467023,0.67934 0.72760415,0.72760415 0 0 1 -0.801539,-0.19275 0.72760415,0.72760415 0 0 1 -0.107095,-0.8174 l 0.648053,0.33081 z"
       sodipodi:end="3.6135795"
       sodipodi:start="0"
       sodipodi:ry="0.72760415"
       sodipodi:rx="0.72760415"
       sodipodi:cy="296.99997"
       sodipodi:cx="-16.99967"
       sodipodi:type="arc"
       id="path2096"
       style="opacity:1;fill:none;fill-opacity:1;stroke:#333333;stroke-width:0.30000001;stroke-linecap:round;stroke-miterlimit:4;stroke-dasharray:none;stroke-dashoffset:0;stroke-opacity:1" />
    <circle
       r="0.57880557"
       cy="297.00223"
       cx="16.998758"
       id="circle2098"
       style="opacity:1;fill:#41a2ff;fill-opacity:1;stroke:none;stroke-width:0.35147929;stroke-linecap:round;stroke-miterlimit:4;stroke-dasharray:none;stroke-dashoffset:0;stroke-opacity:1" />
    <rect
       style="opacity:1;fill:#333333;fill-opacity:1;stroke:none;stroke-width:1.0040282;stroke-linecap:round;stroke-miterlimit:4;stroke-dasharray:none;stroke-dashoffset:0;stroke-opacity:1"
       id="rect2103"
       width="0.32452801"
       height="2.4758651"
       x="-118.45036"
       y="267.9971"
       ry="0"
       transform="rotate(-27.030877)" />
    <path
       id="path2120"
       d="m 16.284967,292.55562 0.287322,-0.14677 a 0.57880556,0.57880556 0 0 1 -0.151929,-0.38912 0.57880556,0.57880556 0 0 1 0.578776,-0.57877 0.57880556,0.57880556 0 0 1 0.578776,0.57877 0.57880556,0.57880556 0 0 1 -0.02119,0.15296 h 0.170018 0.150378 v -0.15037 c 1e-6,-0.36293 -0.22596,-0.69065 -0.564823,-0.82063 -0.338863,-0.12998 -0.723631,-0.0373 -0.966349,0.23255 -0.242718,0.26984 -0.294203,0.66325 -0.129191,0.9865 z"
       style="color:#000000;font-style:normal;font-variant:normal;font-weight:normal;font-stretch:normal;font-size:medium;line-height:normal;font-family:sans-serif;font-variant-ligatures:normal;font-variant-position:normal;font-variant-caps:normal;font-variant-numeric:normal;font-variant-alternates:normal;font-feature-settings:normal;text-indent:0;text-align:start;text-decoration:none;text-decoration-line:none;text-decoration-style:solid;text-decoration-color:#000000;letter-spacing:normal;word-spacing:normal;text-transform:none;writing-mode:lr-tb;direction:ltr;text-orientation:mixed;dominant-baseline:auto;baseline-shift:baseline;text-anchor:start;white-space:normal;shape-padding:0;clip-rule:nonzero;display:inline;overflow:visible;visibility:visible;opacity:1;isolation:auto;mix-blend-mode:normal;color-interpolation:sRGB;color-interpolation-filters:linearRGB;solid-color:#000000;solid-opacity:1;vector-effect:none;fill:#333333;fill-opacity:1;fill-rule:nonzero;stroke:none;stroke-width:0.30000001;stroke-linecap:round;stroke-linejoin:miter;stroke-miterlimit:4;stroke-dasharray:none;stroke-dashoffset:0;stroke-opacity:1;color-rendering:auto;image-rendering:auto;shape-rendering:auto;text-rendering:auto;enable-background:accumulate"
       inkscape:connector-curvature="0" />
    <rect
       style="opacity:1;fill:#333333;fill-opacity:1;stroke:none;stroke-width:0.30000001;stroke-linecap:round;stroke-miterlimit:4;stroke-dasharray:none;stroke-dashoffset:0;stroke-opacity:1"
       id="rect2126"
       width="1.5434815"
       height="0.32740518"
       x="16.171476"
       y="293.30499" />
    <path
       style="fill:none;stroke:#000000;stroke-width:0.35982704px;stroke-linecap:butt;stroke-linejoin:miter;stroke-opacity:1"
       d="m 19.316563,291.721 c 0,0 -0.771246,0.99227 -0.764632,1.77665 0.0064,0.75632 0.742143,1.82162 0.742143,1.82162"
       id="path2128"
       inkscape:connector-curvature="0"
       sodipodi:nodetypes="csc" />
  </g>
</svg>
