<?xml version="1.0" encoding="UTF-8" standalone="no"?>
<!-- Created with Inkscape (http://www.inkscape.org/) -->

<svg
   xmlns:dc="http://purl.org/dc/elements/1.1/"
   xmlns:cc="http://creativecommons.org/ns#"
   xmlns:rdf="http://www.w3.org/1999/02/22-rdf-syntax-ns#"
   xmlns:svg="http://www.w3.org/2000/svg"
   xmlns="http://www.w3.org/2000/svg"
   xmlns:xlink="http://www.w3.org/1999/xlink"
   xmlns:sodipodi="http://sodipodi.sourceforge.net/DTD/sodipodi-0.dtd"
   xmlns:inkscape="http://www.inkscape.org/namespaces/inkscape"
   width="400mm"
   height="400mm"
   viewBox="0 0 400 400"
   version="1.1"
   id="svg5632"
   inkscape:version="0.92.2 2405546, 2018-03-11"
   sodipodi:docname="lyn-pentagon.svg"
   inkscape:export-filename="/home/mon/Pictures/lyn-pentagon.png"
   inkscape:export-xdpi="96"
   inkscape:export-ydpi="96">
  <defs
     id="defs5626">
    <linearGradient
       id="linearGradient7597"
       inkscape:collect="always">
      <stop
         id="stop7593"
         offset="0"
         style="stop-color:#dc7800;stop-opacity:1" />
      <stop
         id="stop7595"
         offset="1"
         style="stop-color:#edba00;stop-opacity:1" />
    </linearGradient>
    <linearGradient
       id="linearGradient7591"
       inkscape:collect="always">
      <stop
         id="stop7587"
         offset="0"
         style="stop-color:#fb1212;stop-opacity:1" />
      <stop
         id="stop7589"
         offset="1"
         style="stop-color:#fa8900;stop-opacity:1" />
    </linearGradient>
    <linearGradient
       inkscape:collect="always"
       id="linearGradient6836">
      <stop
         style="stop-color:#00acba;stop-opacity:1"
         offset="0"
         id="stop6832" />
      <stop
         style="stop-color:#f808ff;stop-opacity:1"
         offset="1"
         id="stop6834" />
    </linearGradient>
    <linearGradient
       inkscape:collect="always"
       id="linearGradient6828">
      <stop
         style="stop-color:#00ffa1;stop-opacity:1"
         offset="0"
         id="stop6824" />
      <stop
         style="stop-color:#01be00;stop-opacity:1"
         offset="1"
         id="stop6826" />
    </linearGradient>
    <linearGradient
       inkscape:collect="always"
       id="linearGradient6820">
      <stop
         style="stop-color:#02fb00;stop-opacity:1"
         offset="0"
         id="stop6816" />
      <stop
         style="stop-color:#c3cf00;stop-opacity:1"
         offset="1"
         id="stop6818" />
    </linearGradient>
    <linearGradient
       inkscape:collect="always"
       id="linearGradient6812">
      <stop
         style="stop-color:#db8100;stop-opacity:1"
         offset="0"
         id="stop6808" />
      <stop
         style="stop-color:#f7ff0f;stop-opacity:1"
         offset="1"
         id="stop6810" />
    </linearGradient>
    <linearGradient
       inkscape:collect="always"
       id="linearGradient6804">
      <stop
         style="stop-color:#f3221d;stop-opacity:1"
         offset="0"
         id="stop6800" />
      <stop
         style="stop-color:#e47c00;stop-opacity:1"
         offset="1"
         id="stop6802" />
    </linearGradient>
    <linearGradient
       inkscape:collect="always"
       xlink:href="#linearGradient6804"
       id="linearGradient6806"
       x1="76.681919"
       y1="5.600211"
       x2="367.22833"
       y2="5.600211"
       gradientUnits="userSpaceOnUse" />
    <linearGradient
       inkscape:collect="always"
       xlink:href="#linearGradient6812"
       id="linearGradient6814"
       x1="222.46848"
       y1="-12.750401"
       x2="306.82541"
       y2="207.47969"
       gradientUnits="userSpaceOnUse" />
    <linearGradient
       inkscape:collect="always"
       xlink:href="#linearGradient6820"
       id="linearGradient6822"
       x1="112.45365"
       y1="152.54082"
       x2="338.73072"
       y2="154.14444"
       gradientUnits="userSpaceOnUse" />
    <linearGradient
       inkscape:collect="always"
       xlink:href="#linearGradient6828"
       id="linearGradient6830"
       x1="52.626667"
       y1="77.95591"
       x2="205.64973"
       y2="215.33244"
       gradientUnits="userSpaceOnUse" />
    <linearGradient
       inkscape:collect="always"
       xlink:href="#linearGradient6836"
       id="linearGradient6838"
       x1="58.498615"
       y1="125.59466"
       x2="121.93726"
       y2="-7.8892717"
       gradientUnits="userSpaceOnUse" />
    <linearGradient
       inkscape:collect="always"
       xlink:href="#linearGradient7591"
       id="linearGradient7577"
       gradientUnits="userSpaceOnUse"
       x1="76.681919"
       y1="5.600211"
       x2="367.22833"
       y2="5.600211"
       gradientTransform="translate(-511.77977)" />
    <linearGradient
       inkscape:collect="always"
       xlink:href="#linearGradient7597"
       id="linearGradient7579"
       gradientUnits="userSpaceOnUse"
       x1="222.46848"
       y1="-12.750401"
       x2="306.82541"
       y2="207.47969"
       gradientTransform="translate(-511.77977)" />
    <linearGradient
       inkscape:collect="always"
       xlink:href="#linearGradient6820"
       id="linearGradient7581"
       gradientUnits="userSpaceOnUse"
       x1="112.45365"
       y1="152.54082"
       x2="338.73072"
       y2="154.14444"
       gradientTransform="translate(-511.77977)" />
    <linearGradient
       inkscape:collect="always"
       xlink:href="#linearGradient6828"
       id="linearGradient7583"
       gradientUnits="userSpaceOnUse"
       x1="52.626667"
       y1="77.95591"
       x2="205.64973"
       y2="215.33244"
       gradientTransform="translate(-511.77977)" />
    <linearGradient
       inkscape:collect="always"
       xlink:href="#linearGradient6836"
       id="linearGradient7585"
       gradientUnits="userSpaceOnUse"
       x1="58.498615"
       y1="125.59466"
       x2="121.93726"
       y2="-7.8892717"
       gradientTransform="translate(-511.77977)" />
  </defs>
  <sodipodi:namedview
     id="base"
     pagecolor="#ffffff"
     bordercolor="#666666"
     borderopacity="1.0"
     inkscape:pageopacity="1"
     inkscape:pageshadow="2"
     inkscape:zoom="0.24748737"
     inkscape:cx="-673.91879"
     inkscape:cy="576.02328"
     inkscape:document-units="mm"
     inkscape:current-layer="layer1"
     showgrid="false"
     inkscape:window-width="1600"
     inkscape:window-height="836"
     inkscape:window-x="86"
     inkscape:window-y="1107"
     inkscape:window-maximized="1" />
  <metadata
     id="metadata5629">
    <rdf:RDF>
      <cc:Work
         rdf:about="">
        <dc:format>image/svg+xml</dc:format>
        <dc:type
           rdf:resource="http://purl.org/dc/dcmitype/StillImage" />
        <dc:title></dc:title>
      </cc:Work>
    </rdf:RDF>
  </metadata>
  <g
     inkscape:label="Layer 1"
     inkscape:groupmode="layer"
     id="layer1"
     transform="translate(0,103)">
    <image
       y="35.508816"
       x="438.66238"
       id="image6188"
       xlink:href="data:image/png;base64,iVBORw0KGgoAAAANSUhEUgAAAyAAAALfCAYAAACZw6YQAAAABmJLR0QA/wD/AP+gvaeTAAAgAElE QVR4nOzdZ3iU5fb24d8M6YUQeu9KUxAQQSmKtNC7GCAJhCJSEnoNiNJ7DyhSpAVERURAOtKrgJ0i RYr0QCokmZn3wwC6//vde9OSJ5O5zi/O8ZDMXBzqzLPmvu+1QERERERERERERERERERERERERERE RERERERERERERERERERERERERERERERERERERERERERERERERERERERERERERERERERERERERERE RERERERERERERERERERERERERERERERERERERERERERERERERERERERERERERERERERERERERERE RERERERERERERERERERERERERERERERERERERERERERERERERERERERERERERERERERERERERERE RERERERERERERERERERERERERERERERERERERERERERERERERERERERERERERERERERERERERERE RERERETEwZiMDiAikgGVATwePLYBd/7xZ9H/eHwXsKZVKBERkfRABYiIyPOTCYgAhj94/CRiAMuD x7FAyoPH8UDSg8cJwP0Hj+8BiQ8e33/wZzz42fgHj1MePBcPnjvmwWMr9uLnoX8WRXewF03/LVMc kPx4fy0REZF/pQJEROT5yAcsB940m82UKVUGMGGzWYmJjX30Q3fv/r0YEhMbg81m+7cncjD/LIoS sRdG8K8F0j+LomTsBQz856Lo/64a/bMo+ueq0T8LpIdFUVHgJ/4u2q7947VFRCQdUAEiIvLsGgGL gOw5sudgxqTZVH+j+hM9QWxsDNYHxUhcXBwWi32xIT4hgZQU+2JDQkICScn2x/fu3eN+kv1e//79 +9y7Z3+clJRE4j37fX9KcjLxCfZ77xSLhfh4+32/1Wol9kFRZLPZiIn9ezHkzt2/H8fGxWC1PswU i8Vi+bdM6ZgFmASMQKs1IiLpigoQEZGn5waMB3oDpjervcX0iTPJni27wbHSTkJiAskPiqLExESS kuyLIffv3+fe/QcFUlISiYn2oig5OYmERPtuMUuKhbhHRZGF2Lh/Fkgxj17jbszfRVFMzN+rRrFx sVitFu7du8cPx3/AYrXwD9eBVsDu5/13FhGRZ6MCRETk6bwMrAJKebh7MO6jCbRq1troTE5n5eoo ho4cTHJKMoUK5WPKlKFMnbqAfft+APsqyGhgFH9v1RIREYOpABEReXLhwDjAs2jhosyZNo+XSr9k dCancjfmLl16dmL/wX0ABAU1Z86cD/H19cZmszFz5mcMGDCO5OQUgCNAW+C0gZFFROQBFSAiIo8v C/Ap0BKgZdNWjBk5Dm8vb2NTOZnDRw/R4b1gYmJj8PPzZf78sbRu3eDff+7wjwQGhvPHH39iMhFn s9EdWJr2iUVE5J9UgIiIPJ7XgSigkJeXF2M+GKctV2nMarUyZuIo5i/+BJvNRpUq5YmKmk7hwvn/ 4+/ExMTRvfsIli9f+/DSaqAr/9plS0RE0pAKEBGR/86MvZPSMMDlpdIvMWfaPIoWLmpwLOdy7fo1 grq047fff8VsNjN8eE+GDeuBq6vLY/3+kiVr6NFjBHFxCQDnsW/J2p96iUVE5D9RASIi8p/lxr5l p7bJZKJjUCjDBgzHzc3N6FxOZfO2TfTo+z737t0jd+4cLF06hdq1qz7x85w8eZbAwHCOHfsV7EMV xwAfoWn0IiJp6kkn9YqIOIu6wCagbBa/LMyZOpfOIV3IlElvm2klOTmZfkP7Mn7KWFJSUggIqMGm TZ/x8sslnur5smf3JzT0HcxmM7t3HzbbbLa3gGrAVv6eGC8iIqlMKyAiIv/KFZgM9AJMr71amVmT 55A3T16DYzmX8xfOE9jxHS5dvoSrqwuTJg0hLCwEk+n5fGxt3bqX4OB+/PXXDYAbQEdg/XN5chER +a/MRgcQEUlHigC7gDCz2Wzq07Mfq5asVvGRxpavWkbNBjW4dPkSxYoVZM+ezwkP7/Dcig+A2rWr cvz4eurXfxMgB7AOmAG4P7cXERGR/y+tgIiI2DUGFgHZcuXMxczJs3mj8pOfM5CnF58QT7ewruzc vQOAwMDGzJs3msyZfVLtNR/ODBk4cDxJSckAPwOBD/4pIiKpQAWIiDg7d2AiD7Zcvf1mLaaOn062 rNkMjuVcfvrlR9p1akt09G28vT2JjBxFcHDzNHv9I0d+om3b3pw+fR4gERiCfUVERESeMxUgIuLM XgBWAhVcXV0ZNnA4oUGdnutWH/nvbDYbMyKnM232FKxWK+XKlWLlyhmULFkszbPExsbTo8cHLF26 5uGlL4EuQHSahxERycD0KSsizqo9MBfwKVSwMJHT5lL2pXJGZ3IqN2/eIKhLO37+1b7bKSwshAkT BuHhYewxjNWrN9Cly1Db3buxJuAC0A7Ya2goEZEMRAWIiDgbHyASCAJo2qgZ4z+cgI+Pr7GpnMz2 77fRLbwriYmJZM3qx4IFE2jWrI7RsR45f/4Sbdv2Zv/+Y/D3zJBRgMXQYCIiGYAKEBFxJq9g33JV wtPTi7Ejx9GqWWujMzmVlJRkBgzrzxdfrwagevVKLF8+jQIF8hic7N+lpFgYPXo2o0bNxmq1AuzA XrheNjaZiIhjUwEiIs7ABIQBEwD3UiVKETltHsWLvWBwLOfy58ULvNvhHS5eukimTGYiInoyfHjP dD/ccdu2fQQH9+PKlesAN4FOwDfGphIRcVyaAyIiGV1WYA0wHXAPDe7EutUbVHyksZVfRPFWQA0u XrpIvny52Lp1GSNHhqf74gOgVq03OH58PQ0b1gTIDqwFlgBehgYTEXFQWgERkYysGrACKOCX2Y9J Y6ZQv24DozM5lcTERLr26vxotkfjxrVYuHAC2bP7G5zsyT2cGTJo0ATu308C+BX7zJAfjU0mIuJY VICISEaUCRgODANcKpavyOypc8mfN7/BsZzLL7/9QtuObbgdfRt3dzcmTBhEWFiIw7c5/uGHXwgM DOfUqXMA94DBaGaIiMhjc+xPARGRf5cXWAbUNJvNhHfvQ1j3cFwyuRidy6lMnzPt0WyPl156kZUr Z1KmTMbZ9paYeI/Bgycyc+ZnDy+tAToDt41LJSLiGFSAiEhG0gBYDOTIkT0HMybNpvob1Q2O5Fzu 3L1Dh/eCOXrsCGCf7TF+/EA8PT0MTpY6vvzyO7p0GUJ0dAzARezzZXYZm0pEJH1TASIiGYEbMAno BZjerPYW0yfMIHv2HAbHci77D+4j9P0OxMXHkSWLL/Pnj6NVq/pGx0p1Fy5cpl27PuzdexTsc0JG o5khIiL/kQoQEXF0xbDP9njVxcWFiEEjCA3q5PDnDByJxWLhw3EfsHjZImw2G6+/Xp4VK6ZTuLDz nLl5ODNk9OjZWCxWgANAW+CcsclERNIffUKLiCMLBOYBmQvkL8icqZGUL1fB6ExO5eq1qwR2bMOZ P05jNpsZPrwnERE9cXFJ/+11U8OOHQcICurL5cvXAO4C3bAXyCIi8oAKEBFxRF7YC48ggEYBjZk4 ehK+vpmNTeVk1q3/ht6Dw0hKSiJPnpwsXTqFWrXeMDqW4W7ejCY0dBDr1m17eGkp8D4Qb1wqEZH0 QwWIiDial4FVQCk3Nzc+ihhNuzbtjc7kVJKSkggf0Itvv1sHQP36b7J48SRy5sxmcLL0w2azMX/+ Knr3HmVLTLxnAn7HvmJ33OBoIiKGUwEiIo4kHBgPeBQpVIQ50+bxcpmXjc7kVM6cPUOb4NZcv3EN NzdXJk4cnCFme6SWX345TWBgOD/9dBL+nhkyE7AZGkxExEDOuUlXRByNP7Ac6AO4tGjSkoXzFlMg XwGDYzmXeQsi6dqrM3FxsRQvXoj16xfQokU9FR//Rc6c2ejQoSWxsfEcPHjCBQgAygNbgERj04mI GEOfGiKS3r0ORAGFvLy8GPPBOFo1a210JqcSExNDx27BHDp6CIC2bZswd+4oMmf2MTiZY1mzZjOd Ow/m9u27ANeAEGCTsalERNKeChARSa/MwAhgGOBSplQZ5kybR7EixQyO5VwOHjlIh/eCiIuLw9vb k8jIUQQHNzc6lsO6ePEv2rXrw+7dh8G+DWsW0B9INjSYiEga0hYsEUmPcgNfAaEmk8kcGtyJudM/ JocGC6YZq9XKB2OGM2zkEJKSknjlldJs3vyZulw9Iz8/X4KDm2Mymdiz57DJZrNVBuoBO4Bog+OJ iKQJrYCISHpTD1gC5Mzil4Up46ZRt1Y9ozM5les3rhHY8V1OnT6JyWSiV69gJkwYhIeHu9HRMpQD B47Rtm1vzp27BBADdMd+1klEJEMzGx1AROQBV2AGsBHIWania2xau1XFRxrbsGk9b7xdhVOnT5It WxbWrJnHjBkjVHykgipVynPs2Le0adMQIDOwDHvxrcM1IpKhaQVERNKDItgPmlc2m82Ed+9DWPdw XDK5GJ3LaSQnJxPWv+ej2R41arzG8uXTyJ8/t8HJnMOSJWt4//0IEhLuAZzEPjPkmLGpRERShwoQ ETFaa2A+4JcrZy5mTp7NG5WrGp3JqZw7f47WQS25dv0qmTKZiYjoyfDhPcmUSccE09Jvv50hMLA3 J078BvZD6WOBjwCrocFERJ4zfbqIiFE8gYXAaMDj7TdrsWzBCkq8UMLgWM5lSdRndHwvmNi4GIoU yc/69Qto374ZZrN26Ka1HDmyPpgZEsehQz9mAt4CqgJbgThDw4mIPEdaARERI7wIrATKu7q6Mmzg cEKDOmmgXRpKSEwgtFsIew/sBeCddxryySdj8PPzNTiZAKxdu5VOnQZx69YdgOtAB+zno0REHJ4+ 7UUkrQUBkYBPoYKFmTM1knIvv2J0Jqdy4qcTtOsUyN27d/Dy8mDu3NGa7ZEOXbp0lfbt+/L99wfh 75khA4AkQ4OJiDwjrbGLSFrxwd7hZwng06RhU75bs0nFRxqy2WxMmj6RJu805O7dO7z8cgkOH16r 4iOdyp8/Nzt2LGf69OG4urqYgDBgL/CCwdFERJ6JVkBEJC2Ux97lqoSnhydjPxxPq2atjc7kVKLv RNMuNJCffvkRgLCwEMaPH4inp4fByeRxHDp0gsDAcM6evQgQC/QAlhqbSkTk6agAEZHU9PBb2wmA e8kXSzF3+jyKF9MXuGlp556dvNezMwmJCfj7+zF//lhatgwwOpY8oZiYOLp1iyAqat3DS6uBrsAd 41KJiDw5FSAiklqyYu9y1RQgNLgTQ/tH4O6ugXZpxWKxMHjEQFZ9uRKbzUbVqhVZvnwahQrlMzqa PIMlS9bQvftw4uMTAc4D7YB9hoYSEXkCKkBEJDVUB5YDBTL7ZmbSmCk0qNfQ6ExO5fKVy7Rq35xL ly9hNpsZPrwnERE9cXFR9/WM4Pff/yAwsDfHj/8KkAKMQTNDRMRB6JNIRJ6nTMAHwALAv2L5ikQt /pyK5V81OJZzWfH5Mtp3asudu3fImzcna9bMo2PHVprtkYFkz56Vjh1bERMTx6FDP5qxzwypjn1m SKyh4URE/getgIjI85IXWAbUNJvNhHfvQ1j3cFwyuRidy2kkJibS8f0Q9u7fA0CDBm+xePEkcuTI anAySU2bN+8mJGQAV6/eALgBhALfGptKROQ/UwEiIs9DA2AxkCNH9hzMmDSb6m9UNziSc/n5159o 2/Fdou9E4+bmysSJgwkLC9FwRydx7dpNOnQYwHff7YK/Z4YMBO4bGkxE5P9DW7BE5Fm4AVOBGYB3 jWpvsmJBFKVKlDI4lnOZNH0ivQeGkZiYSPHihdiwYSEtWtRT8eFEfHy8aNeuKf7+fmzfvt9ksVgr A82A3dgnqYuIpBv6dBKRp1UMWAm86uLiQsSgEYQGddJNbxq6G3OXdqGBnPjpOADt2zcjMvIjfH29 DU4mRjp8+Efatu3NmTMXABKBIdi/JBARSRd0pyAiTyMQmAdkzpM7D7Mmz6FypSpGZ3Iqe/bvplP3 jiQkJODj48WcOR9pork8EhMTR48eH7Bs2dcPL30JdAGijUslImKnAkREnoQ3MBcIAqjzdh2mjJuO fxZ/Y1M5EavVyqDhAx7N9ihfvjRRUTMoUaKo0dEkHVqyZA09eowgLi4B4E/sM0P2GJtKRJydChAR eVxlsW+5KuXm5sbQARHacpXG/rr6Fy3bNefipT8xmUz06hXMxImDcXd3MzqapGPnzl2kbds+HDhw DP6eGTIKsBgaTESclg6hi8jjCAdWAXmKFCrC0k9XEFCnvoqPNLTmmy9pE9Ka6DvRZMuWhaioGfTu 3VGDBeV/8vf3o0OHlpjNJnbvPmy22WxvATXQzBARMYjuHkTkv/EHPgVaALRo0pIxI8fh4+1jbCon kpycTLfwrmzetgmAunWrs2TJZHLlym5wMnFEW7fuJTi4H3/9dQPgJtAJ+MbYVCLibFSAiMh/8gaw Aijk5eXFmA/G0apZa6MzOZUzf5ymdVBLbt66iaurC5MmDdFsD3lm16/fomPHgWzYsPPhpaVANyDB sFAi4lS0di8i/5cZ+ABYCGQtU6oMKxatotrr1QyO5Vw+WfgxXXp1Ij4+niJFCrB+/QJatgxQ8SHP zNvbi7ZtmzycGYLFYi0HNMd+OP2awfFExAnok0xE/ik39m9Da5tMJjoGhTK0fwTu7u5G53Ia8Qnx BHVux+GjhwBo06YhH388Bj8/X4OTSUZ09OjPBAaGc/r0eYB7wGA0M0REUpkKEBF5qB6wBMiZxS8L k8dOpV7tAKMzOZXDPxwmpEt7YuNi8fLyYO7c0ZrtIakuNjae/v3H8sknKx9eWgN0Bm4bl0pEMjIV ICLiCkwGegGmShVfY/aUSPLmyWtwLOdhs9kYM3EUnyz6GJvNRtmyJYmKmkHp0sWNjiZOZPXqDXTt OpQ7d2IBLgLtgV3GphKRjEgFiIhzK4J9tsdrZrOZ8O59COsejksmF6NzOY1r16/Rsl1zLvx5HoCw sBAmTBiEh4e2vUnau3DhMm3b9mbfvh/APidkMjAcSDY0mIhkKDqELuK83gHWA8Vy5czFp3MW0qbl u5jNZqNzOY1vNqzlnaCW3L59C39/P5Yvn0bfvp1wcVEBKMbIkiUzISH/MjOkGlAX2A5EGxxPRDII rYCIOB9P4GMgCKBmjbeZNmEG2bJmMzaVE0lJSea9sL9ne1StWpEVK6ZTsKC2vUn6sX37foKC+nLl ynWAu9hb9a78778lIvK/qQARcS5lsE80L+Pq6sqwgcMJDeqk1q5p6I9zf9C6fQtu3LxBpkxmIiJ6 EhHRUxPNJV26ceM2oaGD+Pbb7Q8vLQXeB+KNSyUijk6feCLOoyvwFZC3UMHCLJm/jPp1G6j4SEML PvuUTt07EhcfR968Ofn664/p2LGVtr1JuuXt7UlgYGP8/f3YseMAFoulHNAC2AtcNTieiDgo3XmI ZHw+QCQPtlw1adiUCR9NxMdHcyXSSmJiIu06BT6a7dGwYU0WLZpIjhxZDU4m8vh++eU0774bxs8/ n4K/Z4bMBGyGBhMRh6MCRCRjK499z/aLHh6ejPtwPK2atTY6k1P54cRR2ndqR2xsDG5urkycOJiw sBCtPIlDSky8x+DBE5k587OHl74BQoFbxqUSEUejT0CRjMkEhAETAPeSL5YictpcXij+osGxnMvo iaP4ZOE8bDYbL7xQmKioGVSs+JLRsUSe2VdfbaJz58FER8cAXANCgE3GphIRR6ECRCTjyQYsBJoA hAZ3Yki/YXh4eBibyoncjr5N66CWnDp9EoCgoObMmfMhvr7eBicTeX7+/PMK7dr1Yc+eI2DfhjUL 6I9mhojI/6BD6CIZS3VgC1Aps29mZk6eTdeO72muRBrasn0Tzd5twvXr1/Dx8WL+/HGMHBmOu7ub 0dFEnis/P1+Cg1tgNpvYs+ewyWazVQYC0MwQEfkftAIikjFkwj6tOALIVLF8RWZPiSR/vgIGx3Ie FouFPoPD+XrdGmw2G1WqlCcqajqFC+c3OppIqtu58yBBQX25dOkqQAzQHVhubCoRSa9UgIg4vrzY P+jfMpvNhHfvQ1j3cFwyadUjrVy8fJGWbZvx19W/MJvNDB/ek2HDeuDqqn8H4jzu3Inhvfci+Pzz 9Q8vLcVeiMQZl0pE0iMVICKOrSGwGMieI3sOZkycRfWqNQyO5FxWfL6cYR8OISUlhdy5c7BkyWTq 1KlmdCwRwyxZsoZu3SJsiYn3TMBJIBA4ZnAsEUlHNP1KxDG5ATOAdUD2GtXeZPParSo+0lCKJYXQ 9zswaPgAUlJSqFq1IgcOfKniw0H9/PNJevX6EJtNIy2eVXBwc3btWml64YXCACVMJvYB3YxNJSLp iQoQEcdTHPsU4jCz2Wwa0n8YS+cvJ3v2HEbnchqnzpzi1Wrl2bJ9M2azmWHDerBzZxSFCuUzOpo8 hREjplGuXCNmz15CvnxvcObMBaMjObxXX32Zo0e/ITi4OTYbHsBc4EtA0zdFRF2wRBxMW+yDv4rk zpWbhXMX07xJCw21S0NzP42kW1gX4hPiyZs3F19//TGdOrXGbNb3OY7m2rVbVKnSki++2Pho5SMu Lp7IyGX4+nrz+uvlDU7o2Nzd3WjevC4vvFCYrVv3cv9+Uins72FHAVV5Ik5Mn5gijsEbWIL9sHnm 2jXrsGntVqq89rrBsZzHnbt3qNOkFmMnjcZisfDuu4347bfN1KxZxeho8hQiI5eTP/8b/PLLKUxm Mx17dGHt7k28UqkCFouFvn3H8MorjYiJ0fnpZ9WuXVN+/vk7atR4DaAAsBP7FlL1phZxUvraVCT9 KwusAkq6ubkxdEAEoUGdtOqRhrbt3Eq3sK7cu38Pb29PIiNHERzc3OhY8hRiY+OpX78je/ceBSB7 zhyMnjGBKjWqAmBJsTB/RiSfzIjEarHi7u5GVNQMmjeva2TsDMFisTB58qcMHz6V5OQUgCPYV0RO G5tMRNKa7mBE0rdwYDzgUaRQEeZMm8fLZV42OpPTsFqt9B4U9mi2R9myJVm5cgalShU3Opo8hfXr d9CmTS/i4xMBqF7rLT6cOpas2bP9288e2X+IoT37c/3qNUwmE82a1eWrryLTOnKGdPDgcdq27c3Z sxcBYoGe2Fd4RcRJqAARSZ/8gQVAc4AWTVoyZuQ4fLx9jE3lRC5fuUyLtk258tcVAMLCQpgwYRAe Hu4GJ5MnlZSUTLt2ffjii40AuLm5ET5sAG07Bf3XlcQ7t6MZ2W8oOzdvByBv3lzs2rWSYsUKpknu jOzu3Vi6dYtg5cpvH15aDXQF7hiXSkTSig6hi6Q/bwBbgSpeXl5MHD2ZfmH9cXPTdum08vmXK2kb +i53Y+6SNasfK1bMoE+fUFxcNFjQ0Rw//isVKjTh8OEfAXih5IvMi1rIm3Xf/p/bGD08PQlo1oh8 hQqw//s9REffJTJyGVmz+vHaa+XSIn6G5eHhTqtW9SlatCBbtuwmOTmlDPAucBi4aHA8EUllWgER ST/MwAhgGOBSplQZ5kybR7EixQyO5TySk5Pp2C2E7/fsBKB69UosXz6NAgXyGBtMnpjVamXIkElM nvwpVqsVk8lEYGgQ4cP64+7+5KtYZ0+dYXD3vpz67SQAlSuXY8eOFXh6ejzv6E7n99//IDCwN8eP /wqQAowBPgKshgYTkVSjAkQkfcgDLAVqAYQGd2Jo/4inulGSp/Pbqd9oE9SK6DvRZMpkJiKiJxER PXFx0UKxo7l8+RoBAR34+edTAPj5Z2Hk5DHUDKj9TM97//59ZoyZzIoF9uMKvr4+bNiwgGrVXn3m zM7u3r37DBo0gVmzljxsibwdCAKuGJtMRFKDPllFjBcAbAJezuKXhdlTI+ncoau2+6ShWfNm0r13 NxITE8mXLxdff/0JHTq01GwPB7RgwefUrRvCX3/dAKBqzerMi1pE6XIvPfNzu7i4ULVmDUqUKcWB XXuJiYll8eIvuX79Fg0b1nzm53dmLi4u1K//JuXLl2bLlj0kJt4rAgQDvwGnDI4nIs+ZVkBEjOMK TAZ6AaZKFSoxa0ok+fJqmnZaiU+Ip01wK078dAKARo3eZtGiiWTP7m9wMnlS0dF3adWqB9u37wfA 1dWV3hED/+dB86d19cpfDOs1gKMHDgNQqFA+9u1bTd68uZ77azmba9duEhIygE2bdgHYgFnAQOC+ ocFE5LnRCoiIMYoAG4AWZrPZ1LtHXyaPm0oWvyxG53Iae/bvpmGLAC5dvoS7uxtTpgxl+vTheHt7 Gh1NntCOHQd4/fVW/P77HwAUKlqY2UvnU6tBnVSbl+Pj60vjVk3x8PTk6P5DREffZdaszyhYMB+v vFIqVV7TWfj4eNGuXVP8/f3Ytm2fyWq1VsbeEXAXcN3geCLyHGgFRCTttQE+Bvxy5sjJzMmzqVql mtGZnIbNZmPYh0NYtnIpNpuNF18sQlTUDCpUKGN0NHlC9+8n0b37CBYuXP3oWttOwYQP7Ye7R9od Dv/p2AmG9OjHpQv25k0BATVYt26+tlE+B4cOnaBt29788cefAInAEOxT1EXEgakAEUk7XsA87Acr qVnjbaZNmEG2rP8+BE1Sx42b12n2blP+vHgBsM/2GD9+oDoZOaDjx3+lceMuXLp0FQC/LH4MnziK 2g3rGZInPjaO0YM/YOPX9rkWWbP6sWXLUhW2z0FMTBzdu49g+fK1Dy99CXQBoo1LJSLPQluwRNLG S9gPmtd2cXFhxJCRfBQxCi8vL6NzOY2167+mdfuW3I6+TZYsmVm6dAr9+nXG1VXfUjsSq9XK6NFz aNeuD3fvxgJQsUol5kYtpGzFVwzL5ebuRu2G9chXqAAHdu0lNiaOTz9dhcVioWbN1w3LlRG4u7vR okU9ihYtyNate0hKSi4NBAJHgD8NjiciT0ErICKpLxwYB3gWLFCIyGlzKfeycTdKzsZisfB+7/fY uHkDAK+/Xp4VK6ZTuHB+g5PJk7p48S9atuz+aKigi4sLPQb2JqRbKOZM6QPPoMoAACAASURBVOf7 tHNnzjK4e19O/vIbACVLFmPfvi/w989scDLHd/LkWQIDwzl27F9mhowCLIYGE5Enkn7esUUyHj/s sz36Aa5NGjbls4+XULBAIYNjOY+z589Sp/HbnPjpBGazmREjerFo0SSyZtVhf0ezZMlX1KvXgT// tI+FKFC4ELOXfkK9Jg0wpbN2yf5Z/WnapgXxcfH8fPxHbt68zYwZiylXriQlShQ1Op5Dy57dnw4d WpGcnML+/cfMNpvtLaAGsBWINTadiDwurYCIpI7ywErgRQ8PT9u4D8ebWjVrbXQmpzL300jGTxmL 1WolT56cLFkymdq1qxodS57Q7dt3CAkZwLffbn90rVGrpgwZPQJvXx8Dkz2e/d/vISJ8ELdu3MRk ghYtAvj881maMfMcbNmyh5CQ/g9nvtwEOgHfGJtKRB6HChCR58sEhAETAPeSL5YictpcXij+osGx nEdCYgLvBLV8NNsjIKAGn302mZw5ddjf0Wzc+D3t2vUhOvouAL6ZfRkxaTR1GgUYnOzJ3LpxkxF9 BrN3x24AcufOwe7dKylevLCxwTKA69dv0aHDADZu/P7hpaVANyDBuFQi8r9oC5bI85MNiMJ+5sMl NLgTkdPmkSunBpOllf0H91K/eQCXLl/Ezc2VKVOGMXPmB/j46LC/I0lISKRbt+H07z+Oe/fss+fK v1aReVGLKPdqeYPTPTkvby8aNG9MZj8/Du89QExMLJGRy/Hz86FKFcf7+6Qn3t5etG3bBH9/P7Zv 34/FYi2HfWbIHuCawfFE5D/QCojI81EDWA7kz+ybmYljJtOwXiOjMzmVoSMHP5rtUaxYQaKiZlCp UlmjY8kTOnbsV1q16sHZs/bmRmazma69u9MlvDuZXBz/O7NfT/zMoO59uXje3gq6QoUyfP99FD4+ 3gYnc3xHjvxEYGA4Z85cALgHDEYzQ0TSJRUgIs8mEzAciAAyVXilInOmRpI/XwGDYzmPW7dv0uzd Jpy/cB6Atm2bMHfuKDJnTv/nA+RvFouFUaNmM3r0bCwWKwD5CxVg7OzJlK2QsbrGxcfFM3boSNZ/ aT+u4O3txdq1H1Or1hsGJ3N8sbHx9OjxAUuXrnl46WvsZ0NuG5dKRP4vFSAiTy8fsAx4y2w2E969 D2Hvh+Hi4mp0Lqfx7cZvCB8YRlJSEt7enkRGjiI4uLnRseQJ/fHHn7z7bi+OHPn50bX6zRszbNwH +Pj6Gpgsda374mvGDf2QhPgETCYTXbsGMnfuR5hM+mh+VqtXb6BLl6G2u3djTcBFoD2wy+BYIvKA 3uVEnk5DYDGQ3T+LP1PGTafO23UMjuQ8rFYr74e/x4bN6wF45ZXSREVNp2TJYgYnkyf1yScr6dNn NAkJiQB4enkxdNwHNG7VzOBkaePKxcsM7tGPH48eA6Bgwbzs2bOKAgXyGpzM8Z0/f4m2bXuzf/8x sM8JmYx9xTrZ0GAiokPoIk/IDZgKTAe8K1eqwopFqyj3cjmDYzmP83+ep1bDmpz46Tgmk4mwsBBW rpxJ7tw5jI4mT+DWrTu0b9+HSZPmk5ycAkDZiuX5ZNViXn39NYPTpR1fv8w0ad0cs9nEDwePcOdO DLNmLSVfvtxUqFDG6HgOLUuWzISEtMRsNrF792GzzWarBtQFtgPRBscTcWpaARF5fMWxz/ao+HDL VXj33mRKRxOYM7rFyxYxcuwILBYL2bJlYcGCCTRtWtvoWPKE1q/fQUjIAG7dst8Dmsxm3stAB82f 1sE9+4kIG8iNa9fBZKJunWqsWzcfNzdt63xW27btIzi4H1euXAe4i71V70pjU4k4LxUgIo+nHTAX 8M2dKzezJs+hymuvG53JaSQlJdE29F0OHj4AQI0ar7Fs2VQKFMhjcDJ5EvHxCfTtO4b581dhs9kA yJk7F6NnTuS1qlUMTpc+RN+6zYg+Q9i9bScA2bJlYcuWJZQvr9WQZ3Xjxm06dhzI+vU7Hl5aCrwP xBuXSsQ5Oe9XTSKPxxtYAHwIuNeuWYeln67QYME0dOLnE9RtXIuz5/4gUyYzI0b0YuHC8WTJktno aPIEjh79mbp1Q9i8ec+ja2/Vq8WcZfMpVuIFA5OlL55entRv1ojMfn4c2XeQuLh4PvlkJXfuxBAQ UMPoeA7N29uTwMDG+Pv7sWPHASwWSzmgBbAXuGpwPBGnohUQkf+sHPYl+pKurq4MGzic0KBO6lCT hsZOGsO8BZHYbDby58/NsmVTefPNykbHkifw/2uv6+nlydBxI53moPnTOvP7aQb36MOZ308DUKpU MXbtWkn27FkNTub4fvjhFwIDwzl16hz8PTNkJmAzNJiIk9AKiMj/Xzj24iN34UKFWfbpCgLq1Ffx kUZiYu4Q0Kwum7dtAqB16wZ8990iSpQoanAyeRJnzlygUaPOLF++9tGWqxJlSjE3aiGVq2kL4/+S NXs2mrZpQUJ8Aj8dO8HNm9HMmrWEUqWKUbp0caPjObQ8eXLSufM7xMbGc/DgCRcgAHgd2ArEGZtO JOPT3ZTIv/LHvuWqOUDzxi0Y++F4fLw11C6tbN2xhW7hXbl//z5eXh7MnTtasz0c0CefrKRv39HE x9vb65rMZjq834n3+4fh5uZmcDrHs3X9Jj4aEEHM3RgAmjSpxRdfROLq6mJwMsf3xRcb6dp1KNHR MQDXgBBgk7GpRDI2FSAif6sKrAAKenp6MXbkOFo1a210Jqdhs9noO7g3X679ApvNxksvvcjKlTMp U0bnAxzJzZvRdO06lDVrNj+6lj1nDsbMnEjl6pr0/SyuXr7CkJ79OXboKAC5cmVn+/blWg15Di5c uEy7dn3Yu/co2LdhzQIGAEmGBhPJoLQFSwTMwAfAQsC/dMnSrFi0kmqvVzc4lvP48+IFajeqyeGj hwAICwth1apZ5M2by+Bk8iTWrdtGvXohHD3690TzGrVrErn8U4qXVOOGZ+WT2ZfGrZrZZ4YcOkJc bDwff7wCT08PqlataHQ8h5YlS2aCg1tgNpvYs+ewyWazVca+LWsHcNvgeCIZjlZAxNnlwd6KsRZA aHAnhvaPwN3d3dhUTmTJis8YMToCi8WCv78f8+ePpWXLAKNjyROIi0uge/cRLF265tE1FxcXug8I p0P3zpjNZgPTZUx7d+xmRJ/B3LpxE5PJROXK5di4cZG6wz0HO3YcICioL5cvXwOIAboDy41NJZKx qAARZxYAfAbkzOKXhUljphBQp77RmZxGcnIygR3bPJrt8cYbFVixYjqFCuUzOJk8ib17jxIc3I+z Zy/+y/XRMybSqFVTg1I5h1s3bjK89yD27bS3Nvbx8WLNmnnUrl3V4GSO7+bNaEJDB7Fu3baHl5Zi L0R0QF3kOdAWLHFGrsA07C0XfSpVqMSKRauo8EoFg2M5j59++Yk6jd/mj3N/YDbbZ3ssWjSRrFn9 jI4mjyk5OYVhwybz3nvDuHXrDsBJYATwCpB5//d7yJo9G6Ve1gC91OLl7UWDFk3w8vbi6P5D3Lt3 n2XLvubKlWs0aPCWVp6egZeXJ+++24i8eXOxbds+W0pKSjmgJbAP+MvgeCIOTysg4myKAlHAa2az mfDufQjrHo5LJnWSSStTZk5i5twZWK1W8uTJydKlU6hVS4eTHcmpU+cICurHoUMn4O8Du4OBRCAz EAm0A3j9zWqMmj6B7DmzGxXXKZw9dYbB3fty6reTABQunI+dO1dSqFBeg5M5vl9+OU1gYDg//XQS IBkYC3wEWA0NJuLAtAIizqQN8C1QLGeOnHwauZA2Ld/Vt4RpJDYuhoCmddiweQM2m40GDd5i06bF vPSSDic7CpvNxsyZn9G6dU8uXLgMcAV4B5gNpDz4sfvAV8A5oM6lC3+6rf/qG4qXeJGCRQoZktsZ +GfLSpM2LUiIi+enYye4cyeW2bOXkD17VipVKmt0PIeWM2c2OnRo+XBmSCbgLexdEzUzROQpaQVE nIEXMA8IAnirek2mTZhB9mz6RjatbP9+G+/16sK9+/dwc3Nl4sTBhIWFaLCjA7ly5RqhoYPZtGnX w0tfA12BG//l10pgb21dwWQyERgaRJ/hA3F1dU3ltM5tx3dbGdl/GHej7wBQs2YV1q2bj7e3l8HJ HN9XX22iS5ch3L59F+A60BHYYGwqEcejT3/J6F4CVgGlXVxciBg0gtCgTrrxTUN9BoU/mu1RvHgh oqJm8OqrLxsdS57A2rVb6dJlCDdu3AaIBXoCSx7z112BYcBwwFy63EuMnzNVqyGp7OqVvxjWawBH DxwGwM/Pl40bF/H66+UNTub4/vzzCu3b92X37sOgmSEiT0VbsCQjC8defOQtWKAQS+Yvo0Hdhio+ 0shfV69Qu9HbHDxi73LVrl1T1q2bT5Ei+Q1OJo8rLi6Bzp2HMHToJBISEgF2AfWA75/gaazATuyH d+vcuHbdd+2qr8iZJxclSpd87pnFzsfXl8atm5E5SxYO7dlPYuI9Fi5czdWrN2jQ4C29Dz4DPz9f goObYzL9y8yQBmhmiMhj0zuQZERZgPlAK4DGDZow4aOJ+PqqP35a+fyrzxk0vD8pKSn4+HgxZ85H BAc3NzqWPIHduw8THNyf8+cvgf2b3RHAZMDyDE+bA1gENASo0yiAEZNG4ZtZ/2+mpp+OnWBIj35c umBvlfzii0XYsWO5Bn0+BwcOHKNt296cO3cJ7KuD/YFPjE0lkv6pAJGMpgr2LleFPTw8beM+HG9q 1ay10ZmcRkpKCh27hbBz9w4AypcvTVTUDEqUKGpwMnlcSUnJjBgxjcmT52OxWAF+BNoDPz2nlzAB YcAEwD1P/ryMmz2FVyqpDXZqio+NY/TgD9j49bcAuLu7sXDhBNq2bWJwMsd3924s7703jFWr1j+8 tBr7+ag7xqUSSd+0BUsyChMwCPuwqGwlXihJ1KKVpupv1DA4lvM4efp36jR+m99O/obJZCIsLIRV q2aRK5cO+zuKkyfP0qhRZ1av3oDNZrMCE7EXH1ee80sdxH6IvUZcTGzOdau/xma1UqHyq5jUlS5V uLm7UbthPfIVKsCBXXu5d+8+X321iR9++IWmTWurMcAz8PBwp1Wr+hQtWpDNm3eRnJxSBngXOAxc /B+/LuKUtAIiGUE27Ns6GgOEBndiSL9heHh4GJvKicz5eBYTp0/AarWSLVsWFi6cQJMmtY2OJY/p YXvdIUMmkZh4D+Ay9u4+W1L5pT2B8dhXRKj0RmXGzJpEztzaGpSazp05y5Ae/fj9518ByJ7dn02b FlOhwksGJ3N8v/12hsDA3pw48RvYW1OPQTNDRP6NVkDE0dXAfpNUKbNvZtuMybNMXTt2w8VFgwXT QkJCPI1aN2TNuq+w2Wy8+WZlNm9eorkDDuTy5Wu0atWDyMhlpKSkACwHGgG/psHLpwDfYd/eVefK xcue6774msLFi1K4WJE0eHnn5J/VnyZtWpCSksKJo8dJiE/k008/x2Kx8NZbVXRA/RnkyJH1wcyQ OA4d+tGMfWZIdewzQ2INDSeSjuhdRhxVJuxtPSOATBVeqcicqZHkz1fA4FjOY+/+3YS+35GExARc XV2YNGkIvXoFa7CjA4mKWkf37iO4cycGk4k7Nhtdse9fN0JBYBn2mzUatWpKxPgP8fD0NCiOcziw ay/DwgZy68ZNAMqWLcmmTYvJnTuHwckc39q1W+nUaRC3bt0B+7ycUOzDcEWcngoQcUT5sH9L+6bJ ZOL9zt0Z0HsgLi7aw5xWBkYMYOUXK7DZbBQpUoCoqOlUrvyK0bHkMUVH3+W99yJYvfrR/LSdQAfg glGZHviXLxaKvlic8ZFTebFUCYNjZWy3b95ieO9B7N2xG7CfaVixYjrNm9c1OJnju3TpKu3b9+X7 7w/C3zNDBgL3DQ0mYjBtwRJH0wj7lo3S/ln8mTNtHiHtOmA26z/ltHD1+lXqNHqbfQf3AtCmTUO+ /fZTihXTUDlH8f33BwkI6Mi+fT+A/SaoP9Cd9NGxx4a9GNoM1Iq+ddt/7aqv8PL25uXyZbU1KJV4 ennRoHljMvv5cXjvAZKSkli1aj2nTp2jceNaZMqk99enlTmzD8HBzcmaNQvbtu0zWa3WykBz7DN1 rhscT8QwejcXR+EGTAJ6AabKlaowa/Ic8uTOY3As5/Hl118wYFg/klOS8fLyYO7c0Zrt4UCSkpIZ MGAcs2cvxWq1ApzA3uHqZ2OT/Ud+wDzs3YSoGVCbkZPH4OefxdhUGdyvJ35mUPe+XDxvXwwrUCAP W7YsUSvt5+DQoRMEBoZz9uxFgERgCDDD2FQixtDXGuIIigMbgeZms9nUu0dfJo+dSmYNL0sTFouF kK5BzFswF6vVyssvl2Dz5iXUrl3V6GjymE6c+I2AgA6sW7c9tdvrPk/3gS+Bc0Dd82fOum1c8y2l Xy5D3gL5DI6WceXInZOmbVpw/epVTv16kpiYOCIjl2M2m3nzzdeMjufQ8uXLTceOrbhw4TI//3zK FQgAymJvpHLP2HQiaUsFiKR37YB1QOHcuXKzYO4i3mnRRged08ipM6cezPawN0QKCwvh889nkSdP ToOTyeOwWq1MnPgJ7dv35cqV6wCXgJbAfOwdqBzBCeAroFp8XFzudau/JubOXSpXf0PvA6nEzc2N t+vXoViJFziway/3791nx44DbNu2j2bN6uDpqRbnT8vd3Y2WLQMoWrQgW7bsJjk5pRQQCBwB/jQ4 nkia0RYsSa+8gblAEEDtmnWYMm4aWf2zGpvKicxbMJdxk8dgtVrx9/fj00/H0aJFPaNjyWO6dOkq HTsOZOvWvQ8vLcW+hfGucameiTvwITAAML/0SlnGRU6hQKGCBsfK2K5cvMzgHv348egxAHx9vVmz Zh61ar1hcDLH9/vvfxAY2Jvjx3+Fv2eGjAIshgYTSQNaAZH0qBwPDqG6uroyYshIRg79CC9PL6Nz OYXExASavduYL9asxmazUbVqRbZsWUKVKuWNjiaPadmyr2nUqDO//XYG4DYQgv3mxpE771iwz1LY D9S5fvWazzer1pAnX15eUJesVOPrl5kmrZtjNpv44eAR7t9PYunSNVy5cp2AgDfJlEmrUE8re/as dOzYipiYf5kZUgPYBsQYGk4klWkFRNKbcOyTkT0KFypM5LR5vFxGQ+3SyoFD+wl5L4iEhATMZjPD h/ckIqInLi76rsIR3L59h27dhv+zve4O7MXHReNSpYqcwGKgPthnhgwdOxIvb31JkZoO7tlPRNhA blyzN28qVqwgmzZ9RrFiWoV6Vps37yYkZABXr94Ae0e694DPjU0lknpUgEh6kRVYADQDaN64BWM/ HI+Pt4+xqZzI8FERfLZ8ETabjbx5c7Js2TRq1qxidCx5TDt2HKBDhwH8+ecVTCYSbTZ6Yz/rYTM6 WyoxAWHYD9S75SuYn3FzplC2gubRpKboW7cZ0WcIu7ftBMDV1YXIyI/o3LmNscEygGvXbtKhwwC+ +27Xw0tLgW5AgnGpRFKHvtaU9KAq9i4glT09vZg0ZjL9wgbg5uZmdC6ncOv2Leo0rsX3e3YC0LBh Tb77bjFlyrxgbDB5LPfvJ9Gv3xh69PiAu3djAY5h767znbHJ0sRB7H/PmrF3Y7J98/kabFYrFapU 0syQVOLp5Un9Zo3I7OfHkX0HSU5OZt26bezefYSmTWvj4eFudESH5ePjRbt2TfH392P79v1YLNZy 2GeG7AGuGRxP5LnSO7QYyQyMAIYBLqVLlmbOtHkUL1rc4FjOY93GdfQe0Iuk5CTc3FyZOHEwYWEh unlzEMeP/0r79n355ZfTYD8jMRr7WY9kQ4OlPV9gMtAVoHK11xk9cyI5cqlbW2r64+RpBnXvw5nf TwOQJUtmvvlmPtWrv2pwMsd3+PCPtG3bmzNnLoC9Re9gNDNEMhCtgIhR8gBfAx0Bc2hwJyKnfUzO HLphSAtWq5WuvTozc+50LBYLL7xQmI0bF9G8eV0VHw7gn+11//rrBsAfQBPsWzashoYzRhLwLfAr UOfyn5c8vv1iLcVeLE6hooWNTZaBZc2ejaZtWpAQn8BPx05w7959Fi/+ktjYOGrVUpvkZ5EvXy46 dGjJpUtX+fHH312wr2q+gr0RQ6Kx6USene40xAj1gc+AHH6Z/Zg8dioBdeobnclpnLtwjlbtmnP9 hv0gafv2zYiM/AhfX2+Dk8njOHv2IkFBfdm374eHlz7B3ppWXXPsCgHLgaomk4nA0CB6R2hLZ2rb un4THw2IIOau/T/DsmVLsn79AvLnz21wMse3ZMkaevQYQVxcAtgbSrQHdv333xJJ3/T1hKQlV+xL yOuBHJUqVGLT2q0qPtLQoqULqVm/BtdvXMfHx4vPPpvM0qVTVHw4iE8+WUn58o0eFh+3gNbYu+Wo +PjbBeztTD+02WyWFQuWEBjQ4tE2IUkdtRvW4/Mtayn/WkUAfvzxd4oVq8myZWsNTub4goObc/To N1SoUAagALAde7dIV0ODiTwDbcGStFIU2Ai0MJvNpt49+jJ53FSy+GUxOpdTuH//Hu8EtWT5qmXY bDbKly/Nli1LePvt142OJo/h1q07hIT0Z+LEj7l/PwnsRXw94LCxydItK7AT2A3Ujr51O/Paz7/E y9ubshXKGZssA/PJ7EvjVs3sM0MOHSElJYU1azZx/PhvNG78Nm5uul9+Wtmy+RMa2hqz2czu3YfN NputGlAXezESbXA8kSemLViSFt4FPgYy58yRkxmTZlPt9WpGZ3IaR48doX3ndsTFxT6a7TFsWA9c XV2MjiaPYcOGnXTqNJirV29gMpFgs9GHjN1e93nLjr3FdxOAWg3qMmLSaPyy+BmbKoM7sv8Qw3oN 4NpfVwHIlSs7Gzcuonz50gYnc3xbt+4lOLjfw/Nfd4H3gShjU4k8Ga2ASGrywv7B/xHg/lb1mixb EEXJF0saHMt5jBz7AYNHDCQp6T65c+fgyy8j6dTpHU0vdgAJCYn07DmS/v3HERcXD3AU+/mpTcYm czgJwErgHBBw7vQfrt+tXU/psi+RJ39eg6NlXHkL5KPZuy25cvEyf5w8TXx8AvPnr8Jms1Gjxmtq dvEMihYtSFBQc3799TSnT5/3AFoCxYDNOF8HPHFQKkAktbyM/c2wtouLCyOGjOSjiNF4e+msQVq4 HX2b2o3fZueu7QDUq1eDTZsWU7asij9H8MMPvxAQ0JFNm3aBvb3uKCAYuG5oMMd2AlgDVI+Ljc21 7ouvsVltVKj8KiZ1a0oV7u7u1GkUQL5CBdj//R6Sk5P5/vuDbNiwk0aNauLrq0GzT8vb24u2bZv8 35khLYC9wFWD44n8T/oKQlJDODAO8CxYoBBzpkbyStnyRmdyGhs2b6BXv+4kJSXh6urCpElDNNvD QVgsFkaNms3YsZEkJ6cAnAGCgAPGJstQPIAJQC/AVLbCK4ydPZn8hQoYHCtjO3f6Dwa934dTv50E wMvLk6io6TRpUtvgZI7v6NGfCQwM5/Tp8wD3gUHATLRNU9IxrYDI85QF+xyCvoBr4wZN+OzjJRQq WNjYVE6kS89OzJgzDYvFQtGiBdiwYSEtWwao+HAAZ85coEmTLixbthar1Qr29rot4f+xd99hVdb/ H8ef57CHLAfuvVNBRJniREBBBXErrsy+WWna0CzTylJz+7Vy771n7oETJ6KpuFEEBGVvOOf8/riF b/kzKxTuwzmfx3V1XXoLnJeE574/6/3mvrzJdE4+Uvf0cMD7aWyc+a5N26lUtTL1GtaXOZrusi1r R9feQWSmZ3A9PIK8vDw2bNjD3btR+Pp6YWQkDqgXVeXKFRg8OJjnz5O4dOl6Qc8QN6SeIenyphOE VxNPJcLb4op0CK6mqamZ5sfJUxXB3XvKnUlvPIp+RFDfbjyNfwpAnz7+LFw4BSsrscWhNFi0aAOf ffYjqanpAM+QSutukzeVXrBH6knkA+Af3I0JP07GzNxM3lQ67tj+w0z6dAIpSckAVK9emd27F4st om/B5s37GD78S01KSpoCeAoMQpwbE7SQWAER3pQS+AZYDtg1qNeQdcvWK1p7eMkcS3+sXLuCQe8N IC09DQsLM5Ysmcp3332CiYlovKbtnj1LYuDAsfz006KC8rq7kWYvL8qbTG9kIDUtTAI63L4RaXD0 t4M4tnSiXIXyMkfTXbXq1qZzYAA3r90gNvoJKSlpLF68ETMzU9zdncSK7Rt455169O0boDh//iqP H8daAv0BO6RyvSp50wnC/4gBiPAm7JFmaYcCyqEhw/hlzkLs7UXn25KQl5dHn8G9WLVuJRqNhmbN GnLw4Eo6dvSQO5rwD+zZcxRf3yFcvHgNpAfh4cC4F78WSlYY0rasdsmJSXY7N23HyMgIB+fm4mG4 mFiWsSQguDtWNjacP3UWlUrFoUOnOHnyAv7+7TE3N5U7YqllY2PFoEE9UCoVnDx5QaHRaFyQJjaO AYkyxxMEQGzBEorOG+m8h30ZyzJMnzIDf98AuTPpjStXL9N/aF/S0tMA+PjjQUyb9gWmpiYyJxP+ TkZGJmPGTCksSYpUtSYEcdZDG1gBC4ABAK5eHnw/d5pYDSlm18MjGPfBGKKjHgNQpowFmzb9F19f sZL+po4ePcvAgWOIiYkHSAU+QFr1EwRZiRUQ4d8yQNpytQgo06RxE9Yu24CLs6vMsfTHjzN/YOz4 T8jJzcHOzpq1a+fwySdDMTQUjQW13cWL1/DzG8qBAydBqtc/Aem8x3NZgwkFcpBK9T4AvKOjHhvv 2bqTOg3qUb1WDZmj6a4KFe3p1iuI2Cex3L11m9zcPNau3UlsbDw+Pl4YGIhHlaKqVasaISFB3Lx5 j9u3H5ggleqtAxwCcuVNJ+gz8a9a+DeqADuBQQqFQjk0ZBg/z15IubLl5M6lF1JTU/Ht7s2Bw/sB 8PR05uDBVbi6OsqcTPg7eXn5TJgwg2HDxhEf/xzgNhAAbALUsoYT87jp8AAAIABJREFUXuUqUlEN l6zMrGq/7dhDanIKrTzdxMNwMTE2MaZj505UqVGNsNAz5OXlcenSdbZs2YePjxdly9rIHbHUsrAw o2/fAGxtrTl27BwqlcoBCAbOALEyxxP0lHgnFf4pf6Q90o1tbWxZMPsXhg0aLm7GJeTI8cME9OxC wrN4DAyUTJz4EcuWTcPW1lruaMLfuHPnIQEBw9m4cS9qtUYDzEe6+UfJHE14vWSkClkawOvalauK 00dP0NLDFWtb8TBcXBo0bkiHLj6EX7jMs/gEnj1LYuHC9ZQvb4ezc1O545VaCoUCV1dHAgN9CA09 T3z887JI5zcNgFBEzxChhImnR+HvmACzgDmAhUtLV9Yt34hDUzHrXlJGff4RU2f+SH5+PlWq2LN9 +0KGDAlGKbo3a725c1fQs+dIHj6MBmmmsSfwX6ReFIL2UwPHkc7pdEx4mlBm58Zt2Nja0LhZE3mT 6TAbO1u69g4iPz+fq5fCUeWr2Lv3GGFhV+nSpS1mZuKAelFVqFCWIUOCSUvLICzsqgHQFvBA9AwR Spg4hC68Tj1gA+CkVCoZ9cEnjPpgtFj1KCExsTEE9u1GTOwTAPz927N8+XTKlbOVOZnwd2Jj4xk6 9Av27w8tuLQTqcpVgnyphDdUHliGtBqMdxcfvv7pe6ysreRNpePOhZ5mwsef8zzhGQDlytmybdsv tG7dUuZkpd/WrfsZPnw8SUmpAPHAEGCfvKkEfSGeJIW/MgDYBdSsaF+Rpb8sp1dQbzHrXkI2bllP v6F9SElNwcTEmJkzv2TOnK+xsBAN0rTdrl2H6dJlGFev3gJpRnE4MB7IlDWY8KYykSZkkoB29+/c M9y/cy9NHJtRsUolmaPprqo1qhMQ3J17t+/w6EEUmZnZrFixldTUdNq3d8PAQNyTiqpx47r07duV ixev8ehRjAXQD9EzRCghYgAivMwSWAJMAkw6tO3ImqXrqF+3vryp9EReXh4D3u3H0lWLUavV1K9f i99+W05gYCfRj0DLpadn8u674xk//icyMrIATiJ12D4hbzLhLQtDqpTVOj01zX735h1o1GqcXJxR iAmaYmFmbo5fYABW1tZcOH0OlUrF2bNX2LHjEJ06tcbOTpyFKypr6zKEhAShVCo4daqwZ0hnRM8Q oZiJAYjwR47AQaC9kZERE8dPYvKEbzE3M5c7l14Ij7hCp64duHPvDgDvvdeHrVt/oUaNKjInE/7O qVMX6dRpECdOhIFU2nIC8D7iBq6rEoAVQBmNRuNy8ex5LoddxNXLHQtLS5mj6SaFQkEzJwc823lx 4UwYKckpxMc/Z9GiDdSsWYVmzRrKHbHUUiqVtG3ripeXC4cPnyItLaMyMBipPPgledMJukoMQIQC o5C2F1SsWaMmqxevxc+7s5h1LyHTZk1lzLjR5OTkYGNjxapVM/jii/cxNjaSO5rwGgXldUeMmEBi YjJAJKK8rr7IR6oMeA3wjnn8xGz3lh3UrFubmnVqyRxNd5WvWIGuvYKIj4vj9o1I8vNVbN9+kJs3 7+Hn10a8Z76BmjWrEhISRGTkfSIj75sgvZe9g9QzJFvedIKuEU+Xgh2wFOgO0D0gkB8nTcXSsoy8 qfREWloaXXt14e79uwC4uTVn3bo51KxZVeZkwt+JjLzPwIFjuXAhAqQSlvOBcUCWrMEEOVQD1gBe AP7B3fhq6mRMzcSZreJ0aM9+vv3sK9JS0wCwty/Htm2/4O7uJHOy0m/Vqu28//5XmqysbAVSyfB+ SH1DBOGtECsg+s0TaWbDxczMnJ+mzODTjz/D2NhE7lx64eiJowT07Ex8QjxKpdTbY/nyn7CzEz0G tJlGo2HevJX07PkhUVFPAGKQyusuQJTX1VepwGqkg+ptbt+INDjy2yGcWrWgbHnRqLW41KlfF99u XbgeHsHTmDgyMjJZsWILKpWKNm1cxAr+G3BwaERgoI/i1KmLPH36zAYYhOgZIrxFYgCin5TAN0gr H7aNGjRi3fKNeLq1ljmW/vhk3Ch+nDGF/Px8KlWqwLZtPzN0aE9RZUzLxcQ8pVevj1iwYDX5+fkg HUbugrQNR9BvGqR+IQeB9smJSbY7N23H3MKCps2biYfhYlLG2oquPQNRKhVcCruIRq0hNPQ8Bw+e xM+vLVZW4kxOUZUvb/eiZ0g6YWFXlUg9Q1oj9QxJkzWcUOqJAYj+qYz00DQEUA4NGcYvcxZSoXwF mWPph7incXTwb0fYhXMA+Pp6ceDACpo2bSBzMuHv7NhxiC5dhhERcQuFghQgBGkgL8rrCn/0BKmD eg2VStX0zPGTRP5+EzcvD0xFA71ioVQqcXZ3wcnFmXOhZ8jMyCA6Oo7FizfQuHE9GjasLXfEUsvQ 0BA/vzY4ODTi0KFTZGXl1EJaDbkJ3JY5nlCKiSkZ/eKHdGMsb21lzYwfZuHr7Sd3Jr2xedtGPv/6 M/Lz8zE2NmL69HF8/PEgMTOq5dLSMhg58htWr95ecCkUafARJV8qoZQIAX4GLMqWL8d3c6bh3tZT 7kw6Lel5It+M+ZLQw8cKr/XtG8DixT9gYSEqOr6Jx49jGTBgDKGh50Fa8VsMjEacexOKQKyA6Adj YBYwF7Bwbu7M+hWbcHIUB/VKgkqlYtB7A1m47FfUajV16lRn375lBAX5iMGHlgsNPY+Pz+CCG24u MBb4AEiWNZhQWlwFtgEeWZmZlfZt301qcgqtPN0wMBC33+JgZm6Gb/cuWFlbc/FMGCqViuvXb7N+ /R7atGlFxYrl5Y5Yakk9QwIxNzfjxIkwhVqtboFUwCYUqZO6IPxj4h1Q99UB9gFBSqVSMXrkGGZO nY2NtTjoXBIib0fSMaAdNyNvAtJM3O7dS6hdu5rMyYTXyc3NY8KEmYwYMYGkpBSACMAX2IU4gCn8 O8+QeoYYAe7XrlxVnDl+klYeLljbiPfh4lDQM6S9nzeXwy6Q+CyR5ORUlizZhLGxEe7uTmLyp4iU SiWens506tSaI0fOkJycWgFpS3c6UpNOQfhHxABEt/UB9gC1K5SvwOIFy+jdo4846FxC5iyYxcgx /yEzKxMLCzOWLJnKt99+gomJsdzRhNeIiLiFr+8Qtm07gEajUQPTgQFI1a4EoShUSAd3zwIdE+Li y+zatJ2KlStRv7E4/1Vc7MqVpVvvIDIzMrl25SoajYYjR85w/HgYvr5elCljIXfEUqtq1YoMHhzM w4fRXL9+2whpgqYZomeI8A+JAYhuMkeqcPUtYNLGsy1rl62nYX3RKbYkpGek4x/cmV37dqLRaHBw aMTBgyvp0MFd7mjCa6jVaqZPX8SAAWOIiXkKEA0EA4sQ5XWFt+M+Urned/Jyc+sd/e0Q0Y8e4+rl gZFooFcsDA0N8WjnRb1GDTgXepqcnByiop6wdOkmmjZtQP36omlkUZmamhAc7Eft2tU5dOgkeXn5 jYC+wEXgkczxBC0nBiC6pylSGciOhoaGTBw/ie++/h4LczHTUxJOnT1J5yA/YuNiUCgUfPzxIDZu nCf2HWu5J0+eEhw8kkWLNpCfrwJYC/gjVXoRhLcpA1gPJAHtb9+INPhtxx6aNm+GfeVKMkfTXbXr 1cGvuz+/X71O3JNYsrNzWbduF8+eJdGhgzuGhuJxqKgcHBoRFOTD6dOXiItLsEYqvmAAnERsWRX+ gvgXp1tGARuAytWqVmf14jV07tRF7HUtIV98/RmTf/iGvLw87OxsWL9+LqNHD8HQ0FDuaMJrrF27 E3//d7lx4y5ID4WDgO+BHFmDCbouDPgNaJuWmlZ216btaNRqnFxbivfsYmJpVYaA4O4olQoun7+I RqPhwoUINm7cS9u2rtjbi6aRRVWunB2DB/cgLS2d8+cjCnqGeAFHkBp1CsKfiAGIbrAB1gBjAKMA v66sXLSKGtVryptKT8QnxOPTvSOnzpwEwMurFQcPrqRVKweZkwmvk5SUwqBBn/H99/8lOzsH4BjS Puaz8iYT9Egs0nbZMhqNxuXi2fNcOX8JVy8PLCzFqnVxKOgZ0sK1FWEnz5KRnk5iYjJLlmzEyqoM rq6OckcstQp6hjRv3vhFz5DsmsAw4AHwu7zpBG0jBiClnxvS4UY3U1MzzU9TZio+G/0FJiYmcufS Czt2b6fnwB4kJiViYKBk4sSPWLZsKjY2VnJHE15DOoQ6mLNnL4O00vEpMBJIkTWYoI/ygf1ID2je Tx5Hm+3ZspPa9epQo7Y4n1BcKlerQmDfYJ48iuZe5B3UajX794dy8eI1fHy8MDcXTSOLqkGD2gwa 1INr125z716UKdJZujrAASBP3nSCthDrvKWXEpgITAAMG9RryM+zf6F+PVFRpSSoVCoGjwjh+Emp 2VXVqhVZs2YWbdq4yJxMeJ2cnFw+/3wq8+evQqPRAIQjVbgSs3OCNqiBtJrtqVAoCOrfi88mjcfU zEzuXDpt95YdTBn3DdlZUvGmsmVtWLt2Nj4+XjInK900Gg3z5q3ks89+JC8vH6QzdX2QypoLek6s gJROFZGaWw0FlP17D2DR/CXY21eUOZZ+uHPvDh3923Ez8gYAAQEd2L9/BY0a1ZU5mfA6V6/exNd3 CLt3HwX4Y3ndWFmDCcL/pCBVydIArW9G/K48duAITi7OlC1XVuZouqtB44Z08OvElfOXeJ7wjKys bNas2UliYjIdOniIppFFpFAocHV1xMfHi2PHzpKUlFIe0TNEeEH8qyp9OiEtYzYzNzdn+vcz+Pg/ o8VB5xLy65Kfee+jd8nMzMTc3JQlS6YydernYrlei/25vG48wGOgB7AYqT+DIGgTNXAcqbt0x6Tn iVa7Nm3D3MKCZk7iXFlxsS1rR9feQWSmZ3A9XJqgP3/+Knv2HKFDB3fKlhVNI4uqShWpZ8ijRzFc uxZpiHTWzhFp+3iWvOkEuYgBSOlhBMwG5gOWTRo3Yd3yjXi4esocSz9kZGTgH9yZbbu2otFoaNKk PgcOrMTb20PuaMJrPH4cS3DwSBYvLiyvuwgIAm7Jm0wQ/tZDYBlQS5WvanLm+Elu34zE1csDU1Mx 4VEcCnqGNHynEWdDT5OTnU1c3DOWLNlE+fJladGiidwRSy0TE2N69PCldu3qHD58itzcvIZIPUMu AVEyxxNkIAYgpUNVYCfQS6FQKIaGDOPn2QspV1aUDCwJZ86donMPX2LjpEbYUm+P+VSubC9zMuF1 Vq/eTkDAcG7evAeQiFRedxqivK5QeuQAW5CqCPk8uHvfaP+OPTRq9g6Vq1aROZruqlm3Np0DA7h5 7Qax0U/Iz89nz56jRETcolOn1piZiQFgUTk4NKJHD98/9gwZBJRFKterljedUJLEAET7BSBVSGlk a2PLgtm/MGzQcLEntYSM/+YLvpkykby8PGxsrFizZhZjxgzDyEhsedNWiYnJDBr0GVOmLCAnJxdg H+ADnJc3mSAU2VVgO+CZnpZecc/WHWRnZePs1gqlUil3Np1kWcaSrj0DsbK25vyps6jVam7dusfq 1dtxcXGkevXKckcstcqVs2Xw4GDy8vI5e/aKQqPRuCBtLz+K1ItJ0APiKVZ7mQCzkLZdmbdydmHd sg04NhM1yktCwrMEfLp5c/J0KADu7k4cOrQKNzcnmZMJr3Ps2LkX5XWvoFCQBXyIVGI3XeZogvCm ngErACuNRtMq/MJlxdkTp2nl4YqVjbXM0XSTQqGgmZMD7u1ac+F0GKkpKaSlZbBy5TY0Gg2tW7cU A8AiMjQ0oGNHD9zdnTh8+DTp6ZlVkQ6oRwHXZY4nlAAxANFO9ZA65HZXKpWK0SPHMPOHWVhbiZtM Sdi9bxfB/YNITHqOUin19li+fDp2duL7r60yM7P48MNJjBr1HSkpaQCXAT+k1UNB0BUFPUPCAe/4 uKfmOzduo3K1KtRrWF/maLqrQkV7uvUKIvZJLHdv3Uaj0XDiRBj79p2gY0cPbG3FvaGo6tSpzsCB gfz++23u3o0yQSoQUgc4iOgZotPEAET7DAB2ATXtK9iz7JcV9ArqLWZZSoBKpeL9Ue8x75fZqFQq KlWqwPbtvzB0aE/x/ddiV67cwM9vCPv3h4JU1eo7pH3FT2UNJgjFJxJYCTTNy82te2TfQaIfPcbV ywMjYyO5s+kkYxNjOnbuRJUa1QgLPUNeXh4xMU9ZunQjNWtWpWlT0YOrqCwszOnXryu2ttYcPXoW lUrtgFQs5DQQJ3M8oZiIAYj2sASWAJMAkw5tO7Jm6Xrq1xWzWiXhQdQDOvq34+q1qwD4+bXhwIGV NGkivv/aSqVS8e238xk06FOePn0GcA/pzNQaxGFGQfdlAGuR9sy3v30j0uDIvoM4tnSiXIXyMkfT XQ0aN6RDFx/CL1zmWXwCeXn5bNt2gHv3HtGpU2uMxQCwSAp6hvj5teHYsbMkJqaUQ9qSlYY4v6eT xABEOzgiLTe2NzIyYuL4SUye8C3mZuZy59ILS1ctZeh/BpGekY6xsREzZ05g3ryJWFiI77+2unfv EV27vseaNTtQq9UgldcNRhqECII+CUPqDdUuOSnZbuem7RgZGeHg3ByFQiF3Np1kY2dL195B5Ofn c/VSOGg0RETcYs2anbi6NqdatUpyRyy1Kle2Z8iQYKKj44iIuFXQM8QNqWeIOMunQ8QARF4KYBSw EbCvWaMmqxevxc+7s7hxlIDMzEwC+3Zl09b1qNUa6tatwb59ywgK8hHffy22aNEGgoM/4O7dKIDn QAhSV3NRXlfQVzFIB9SrqVWqZmEnzxB+8QpuXh6YW1jIHE03GRgY4NraHUfn5pw7eYbMjExSU9NY sWILarUGL69W4j5SRCYmxgQGduKdd+px8OApTU5Obl1gINLh9LsyxxPeEjEAkY8dsB4YDRh28+/O il9XUq1qdZlj6Yfzl8LwC/ThcfRjAPr378auXYuoVauazMmEv/L8eTKDBn3K9OkLC8rr7kGaHbsg bzJB0Aq5SKV6bwCdnjx6bLpn607qNKhL9Vo1ZQ2my6rWqI5/cDfu3b7DowdRhQfUT5w4j7e3J1ZW lnJHLLXeeaceffr4K86fv0p0dJwl0B/p2eko0nk/oRQTAxB5eAKHgFZmZub8NGUGn476HGNjE7lz 6YWJ33/Fl5PGk5ubi6WlOYsX/8jkyaMxMTGWO5rwF/buPYaPz2AuXIgAae/7R8BniCV5QXjZDWAD 0CorM6vabzv2kJqcQitPN9E/qpiYmZvjFxiAlbU1F06fQ61WExX1hGXLNtO4cV0aNKgtd8RSy8bG ikGDeqBUKjh58kJBzxBf4BhSg1mhlBLrgyXLAPgamAAYNmrQiJ9n/0rdOvVkjqUfkpITCeoXyN17 dwBwdGzMhg1zxc1Bi2VkZDJmzBQWL96IRqMBuIRUKe6WvMkEQesZAl8h3XOUjZu9w48LZlGjdk15 U+m4G1evM27kGB49iCq8NnBgIL/++h3m5mYyJiv9jhw5Q0jIWGJi4gFSgZFIRUeEUkhMh5ScysAO YDCgHBoyjF/mLKRC+QryptITe/bvJqhPdxKeJaBQKPj440Fs3Dgfe/tyckcT/sKlS9fx8xvKgQN/ Kq8bAsTLGkwQSgc1cBw4BXgnPE0os339ZswtLGjm5CBvMh1WvmIFuvYKIj4ujts3IgGIiLjFli2/ 0bq1MxUrigplRVW7djVCQoK4ceMud+48NEEq1VsHaUdJrrzphH9LDEBKRmek5lHvWFtZM3/GAoYP GYGhoaHcuXSeSqXig0/eZ86CWahUKsqWtWH9+rmMHj0EQ0Px46+N/lheNz7+OcAdwB+p5KgorysI /84DYBXQSJWvanDm+EnuRt7B1csDE1Ox7bc4GBsb097PmzoN6nEu9DS5Obk8f57M8uVbsLKyxMXF QRxQLyILCzP69g3A1taaY8fOoVKpHIC+SNXgomWOJ/wL4l9A8TIGfkLar65wbu7M/Fk/U7VyVZlj 6YeHUQ8J6tedhGfShLmXVyvWrp1N1aoVZU4m/JW7d6MYOHAs585dKbi0CPgUqRa8IAhFpwCGA3MA s4pVKvPjf2fQvFULmWPptpjHTxj/4ViuXix8T8Pb25OVK3+iUiWxA+JNXL78O337juL27QcA+cAU 4FvERFWpIKaAi08dYB8QpFQqFaNHjmHm1NnYWNvInUsvLF+9nCHvh5CekY6RkSE//PApCxd+j42N ldzRhL+waNEGevT4gPv3HwHEAr2B2YildUF4Wy4hbQVunZ6WZr9nyw40ajVOLs4olEq5s+mkMtZW dO0ZiFKp4FLYRdBouH//EStWbKVJkwbUq1dT7oilVqVKFXj33V6kpWUQFnZVCbQFPBA9Q0oFMQAp Hn2B3UDt8uXKs/i/y+gT3AeleIMvdllZWfQc2IN1m9ag0WioVasae/cupXdvf/H911LPniUxYMAY fvppMbm5eQC7gC7AVXmTCYJOSgCWA1Yajcbl4tnzXDp3AZfW7liWESVji4NSqcTZ3QUnF2fOhZ4h MyODrKxs1q/fTWJiMu3bu4ktwUVkZGSIn18bmjSpz+HDp8jOzqmN1DPkBtL2XUFLiZ/4t8scWIq0 BGjSxrMta5dtoFGDRjLH0g8XL5/HN9CHqEcPAejduwt79iyhTp0a8gYT/tLu3Ufw9R3MpUvXQZqx Gg6MRyq1KwhC8chHOpcYAXjHRD8x27F+K1WqV6VuA1GVsbhUqV6VgODuPLhzn6j7DwEIC7vKtm0H aNPGhQoVysobsBRr3LgeffoEcOFCBI8fx1oA/RA9Q7SaGIC8PU2RKjF0MDQ0ZOL4SXz39fdYmIsu tCXhmx8mMn7iF+Tm5mBubsqSJVP57rsxmIpDllopIyOTd98dz/jxP5GRkQVwGugEnJA3mSDolVtI DXFb5Obm1ji89wDRjx7j1sYTIyMjubPpJDNzM3y7d8HK2pqLZ8JQqVQkJCSybNlmypSxxNXVUe6I pZaNjRUhIUEolQpOnSrsGdIZ0TNEK4lD6G/HKGAqYFqtanUWzPqZ5g5OcmfSC0nJSfTo1507L3p7 NG3agA0b5tG4cV2Zkwl/5fTpS4SEjOX+/ccAeUh9CmYizcoKglDylEjFUn4CjGrVq8O0n2dRv3FD mWPptnuRd/jig0+4e+t/O4W6d/dmyZKplC0rzou+iWPHzjFw4BiePHkKUhGTT5GKmghaQqyAvBlb pNKgnwCG/r4BrFq0mhrVa8qbSk8cOHKA7r0DiH9R5Urq7TGPypVFZRFtlJeXz4QJMxgxYgLPnycD 3AYCgE2IqiWCICcNUhnTA0D75MQku52btmNuYUHT5s1EydhiYleuLN16B5GZkcm1K9KRt1u37rNm zU6cnZtQs6aomFlUtWpVJSQkiFu37nH79gMTpHtNE6SdKtnyphNADEDehBvSD7KbqYkpP/0wk88/ +QITE7Hlp7ipVCpGff4x02dPRaVSYWtrzdq1sxkzZhhGRqK3ija6ffsBAQHD2bRpL2q1RgPMB4KB qL/5VEEQSs4TYAVQQ6VSNT1z/CSR12/g6uWBqZno4l0cDA0N8WjnRb1GDTh38gw52TmkpWWwcuU2 EhOT6dDBHQMD8ahWFObmZvTp40/lyvYcOXJGk5+f/w5SkaALwGOZ4+k9Ma3x7ymBicAEwLB+vQb8 MvtX6tdrIHMs/fA4+jE9+ncnNi4WAA+PFqxbN4fq1SvLnEx4FY1Gw7x5Kxk//ieysrIBYoChSDOt giBorxBgAWBZtnw5vp09FY92reXOpNPinsTw5UefcTnsYuE1Z+emrF8/l7p1RTGVN/H773fo23cU 165FgugZohXEsPrfqQhsQ3qAUvboFsySBcuoVLGSzLH0w9qNaxjwbn9S01JRKpVMnPgRy5ZNx9bW Wu5owivExsbTs+dHLFiwmvz8fJD6D3RBqrwjCIJ2u4p0v/PIysys9Nv23aQmp9DK003MyBcTS6sy +PfojlKp4HLYRTQaDTEx8SxbtomqVSvh4CAqahZVhQplGTy4x8s9Q7yQdrKIRrcyECsg/5wPsBKw Nzc3Z8o3PxLcvafcmfRCbm4uQ/8ziNDToWg0GipXtmf16pm0b+8mdzThL+zceZjhw8eTkJAI0pv7 h8AqeVMJglAERkgr/l8DynccmzJ1wUyq1RQz8sXp0tnzfPnRZzyNjSu81rNnZxYu/F5Mur2hbdsO MHz4eBITUwCeAUOAPfKm0j9iAPL3jIAZSBVCFE0aN2HB7F+pXbO2zLH0Q/i1K/Qf0pfUtFQAunRp x/Ll0ylf3k7mZMKrpKdn8sEHE1m9envBpVBgEPBQtlCCILwNHZEmESqZW1jw5Q/f4B/cTe5MOi09 LY3vPp/IgV37Cq9Vq1aJdevm4OnpLGOy0u/RoxgGDBjDyZMXQCrCsBgYDWTJGkyPiHXU16sF7AV6 KBQKxdCQYfw8eyHlypaTO5de+H76d3z65RhycnIwNjZi5swJzJ37NRYW5nJHE17h5MkLdOo0iNDQ 8wC5SLOmI4AkWYMJgvA23AdWA+/k5eXVO7r/EPdu38WtjYcovlJMjE1M8Pb3pUqNapw9cYr8/HxS U9NZtWobarWG1q1bolQq5Y5ZKllblyEkJBCForBnSAugO3ASiJc5nl4QKyB/rR/wC2BlY23DzB9n 06mDj9yZ9EJSchI9B/Yg8vYtAOrVq8n69XNp0aKJzMmEV8nNzWPixNnMnLmE/HwVSM3NBgIXX/+Z giCUQgrgY2AaYFK5WhV+/O9MHJybyxxLtz24c48vPhjD7Ru3Cq+5ujZn3brZ1KpVTcZkpd+JE2EM GDCG6Og4kFZAxgNz5U2l+8QKyKv1B9YApg5NHVm7dB0tmovlzpJw8kwoAT27EPdU2vc6YEB3du1a JOqha6nIyPsvyuvuQ63WqIHpSGUOH8kcTRCE4hMG7APapaWmld29eTsatRon15aiZ0gxsS1rR9fe QWSmZ3A9XKrjER0dx7JlW6hZsypNm4pKnEVVs2ZVhg3rxYOQaSLGAAAgAElEQVQHj/n99ztGgC/Q DDiM2JJVbMQ7xat1AfaYmJhy81IkRkZGcufReRqNhi8njWPtxjVoNBosLc1ZsOBbQkIC5Y4mvMIr yus+QTrId0jeZIIglCAzYCrSigitPFz5ft50KlS0lzeVjjt+4AjfjP2SlKTkwmsDBwby88/fYmkp tii/iVWrtvP++19psrKyFUgTaQOQtmUJb5kYgLxadV40SDu2P5S6terKHEe3RT+JJqhft8LeHs2b N2bDhnnUr19L5mTCqzx58pShQ7/g4MHC9+R1wEgg+a8/SxAEHdYD6RCvrY2dLZNn/UAb7/ZyZ9Jp zxOe8dWoLzh74lThtfr1a7F+/VycnN6RMVnpd/PmXfr0GUVExC34X8+Q7wCVrMF0jNiC9WrDkMru YqBQ0s5LvJEWl/Wb1zFgWF9SU6XeHp9//h5r1szG3l4c9NdG27cfpEuXYVy7FolCQTJSs7LvgGyZ owmCIJ+bwHqgZXZWdvUDO/eR8DQeF09XDMUOgmJhbmFOl6CuWFlbc/7UWdRqNc+fJ7Ns2SbUajVe Xq3EdrgiKl/ejiFDgklLS+f8+YiCniFtkLZkpcoaToeIn85X+x1oDFClclXOHTsvcxzdk5uby7CR QzgeegyAihXLs2rVDLy9PWVOJrxKcnIq7703gc2bC8tBnkAqrxslXypBELSMIfDVi/8Matevy9Sf Z1G/kTifUJyuh0cw/oOxPI7639G7Dh3cWbVqBpUri+1wb2LHjkO8++44nj9PBkhBquy4Ud5UukHU b/v/HHgx+ACIiX1CSmqKjHF0z9Vr4TR3b1Y4+PDx8SI8fI8YfGipEyfCcHT0Lxh85CDVSm+HGHwI gvBn+cAkwBN4cP/2XQZ06cnaJaIHaXFq4tiMDQe24xcYUHjtyJEzODh0YffuIzImK/26d/cmPHwv bdq4AFgDG5D64YjDNm9IbMH6/8YDrn06d+b+48fk5edjX8Ge5g5OcufSCT/MmMLY8Z+Qk5ODkZEh s2ZNYP78b7C0tJA7mvCS3Nw8xoyZwsiRk0hOTgW4ilQdZLe8yQRB0HLRwAqgpkqlanLm+Ekib9zC zcsDUzNTmaPpJmMTYzp27kSVGtU4F3qG/Lw8MjOzWb9+N/fvP8bHp7UoqFNEVlaWhIQEYmdnw5Ej Z1Cr1Q5AENLh9Kcyxyu1xADkz4yQ3jQt5n75JbEJCdyJiiIxKZH+vQfIHK10S0lNoVsvf347KG3h qV27Gvv2LaNHD1+xT1ULRUTcwtd3CLt3H0GjKSyvOwCIkTmaIAilQw6wFXgAdHp4977x/h17adS0 MZWrVZE5mu5q0LghHbv4EH7hMs/iEwDp/XzHjoN4ejpTsWJ5mROWTgqFAldXR3x8vDh69AxJSanl kSo/pgNin34RiC1Yf+YHlK9VtSqtW7SgS5s2ANy49Tv5qnx5k5Vix0KP0bK1Ezdu3QCgTx9/Ll/e TatWDjInE16mVquZNm0hLi5BXLsWCdJMZidgHOKguSAI/94qwBkIj4uJZXivQUyfOIX8fHFPLS41 69Rizd7NvD/mQxQvOqXfuHEXF5cg5s5dgUajkTlh6dWqlQNXruyhb98AAFNgDrANKCtrsFJIDED+ LASgX5cuKBQK/Nu2RaFQkJ+fz+mzp/7uc4WXqNVqxn45hpDh/cnKzsLc3JSVK2ewfv1crK3LyB1P eEl0dBw+PoMZN2462dk5IDXjbAKITcSCILyJW4AbME+tVmvWLV3F4G59/3RoWni7DA0NeX/sR/y6 binlKkirHjk5uYwe/R2+vkOIi0uQOWHpZWVlybp1c1i5cgYWFmYA3YFwpEpZwj8kBiD/UxYIUCgU DOzaFYDKFSrg0LAhAKvXrZQxWukTGxeLZ0c3Nm3dAECzZg25eHGnaCyopdas2UGTJr4cPnwaIBHo BQxEqvohCILwprKBUUjnyOKuh0fQp1Mg+7aJI2XFyaW1O5sO7cSzvVfhtYMHT9KsWWd+++2EjMlK v5CQQC5e3ImjY2OAqsBRYC7Sdn7hb4gzIP8zGOjq5ujI2CFDCi/GPH3KyUuXSHiWwMj3PpQtXGmy efsm+g7pTVJyEgAffzyIjRvnU6lSBZmTCS9LSkph0KDP+P77BeTk5AIcQ3pAOCtvMkEQdNQ9Xqyu 5uXm1j3y20GiHz3G1csDI2Px3FYczMzN8QsMwMramgunz6FWq8nMzGLdul0kJibToYM7BgbicbAo ypWTeoakpqZz/nyEAnBB6iN3FEiSN512Eysg/xMCFK5+FCg4B5Kalsr9h/dLPlUpkpuby9D/DGLM uNHk5eVhZ2fDtm2/MHfuRExNTeSOJ7zk2LFzryqv2wF4LGswQRB03VOgM9J7Tu6eLTvp5xfEzWu/ yxxLdykUCvq/G8LKnRuoXqsGABqNhnnzVuLuHszt2w9kTlh6mZgYM3fuRPbvX15wyL8VcAXoK28y 7SaGvJKGwFQzExOWTpmCqbFx4R9UKl+eJVu2kJ6ZiaGhAW1bt5MvpRaLvBOJT/eOXL9xHQBPT2cO HlyJq6ujzMmEl+Xk5DJ27BRGjvyGlJQ0kN4oRXldQRBKWhiwH2ifnJRst3PDVtRqNU6uLUV1xGJS vmIFuvYKIj4ujts3IgGIjY1nyZINlCljKe7Zb6BOnRoMHNid69dvc/dulAnQA6gDHATy5E2nfcQA RDIa8Ars2JH+/v5/+gOFQsHN+/cJv3WLhGcJDBs0XJ6EWmz6nGl8PHYkmZmZGBgomTjxI5Ytm4at rbXc0YSXhIffwNd3MHv2HAVQAd8hrf7FyRpMEAR9FYNU/r6qWq12uHj2POEXr+Dm5YG5hegPVRyM jY1p7+dNnQb1OBd6mtycXPLzVezfH8q1a5F4e3tgJvq1FImlpTn9+3fD1taao0fPolIV9gw5jbjP /onYgiV9DwYCDHhp+1WBgm1Y0U+iSU1NLbFg2i4lNQWfbt7M/2Uuao2aKlXsOXRoNZMmjcLQUIxt tUlBeV1X1x78/vsdkPZheyF1LRYzM4IgyCkNaSKkF5ASdvIMPTt25eSR4/Km0nHe/r5sOrQLB+fm hde2bTuAg4M/oaGitUVRKRQKRo0azKlTm6hbtwZIu2zOIRVhEEt7L4inRGgLfFyxXDnmf/UVSuX/ H5NVq1SJOatWkZ+fT+XKlXFsKpYoj586TteeXYiNk/rS+fu3Z//+FbzzTj2Zkwkve/w4lh49PmDx 4o2oVCqARUAwcFfeZIIgCH9yA9gAtMrOyqq2f8deUpNTaOnhKg5JF5MyVmXo2jMQpVLBpbCLoNGQ mprOqlXbSUxMpmNHDwwMxFx1UVSpYs/gwT14/DiWa9ciDZG2OrsBh5EaGOo18VP14vB5786dMfyL NzgLMzPatGwJwNYdW0oumRZSq9V8NmEsA4f1IysrCxMTY+bM+ZpduxZRrpyt3PGElyxatIGmTf04 evQswHOgJzACEEt5giBoo4dI/RQmazQa9bqlqxjUtQ9R9x/Km0qHGRga8P7Yj1i4YTnl7aVqlWq1 mnnzVuLp2Yu7d6NkTlh6WVlZsmbNLFaunIGlpTlIjX3DkQYjek3fByCWSA9kDAwIeO0HdvGSamhf v3GtYBZZ78TGxeLp7c6GLesBqFevJmfObGHUqMHiwKCWSUxMplevjxgxYkLBQfN9SE0F9XsELQhC aZCPtD20I/Dk5rXf6eXdlbVLVsmbSse18nBl8+FdeHX8X7Gd8+ev4uQUwJo1O2RMVvqFhARy6dIu nJzeAbBHuifPBYxf+4k6TN/XNHsBvZs1aMDEDz547QfalyvHvNWrUavVuLVyp1rV6iWTUEscOXGE oH7dSExKBKBnz87s2rWIWrWqyZxMeNmpUxfx8xvK6dOXAHKBr4CPkPZZC4IglBYPgVVAI1W+qsGZ 4ye5G3kHVy8PTERp92JhamaGb/cuVLCvQNipM6jyVeTm5rF9+0FiY+Pp0MEdIyPRr6Uoypa1JSQk kMTEFC5evFbQM6QNUiU4vduSpe8rIK/s/fEq1StVokk96XzDqvX6Nwtz8dIFcnJyUCgULFw4hU2b 5mNjYyV3LOEPcnPz+PLLGbRt25cHDx4D/A64AlORKl4JgiCUNs+ArsAgIOvw3gP08u7G5bCLMsfS XQqFgh4DerNu31bqNaxfeH3Rog04O3cnPPyGjOlKNzMzU37++Vu2bfsFOztrkIrBvH4GXEfp8wCk GtDB0MCAfi+V3v0r/m3bAnDq7MniS6Wl3hs6ApAaF3l5tZQ5jfCyGzfu4ubWgx9//AWVSq1BWtp1 RurxIQiCUNqtQnpPi4h7EsPwniH8OnM+aj3dEl0S6jSox5q9m+k3LKTw2s2bd3FxCWL27GVoNBoZ 05VugYGdmDPn64LfusuZRS76PADpDyi93d2pYGf3jz6hoBxvSkoyjx7r16EsWxtb7CtUBGD79oMy pxEKqFQqJk2ai6NjFy5f/h2kylbuSL1tsmUNJwiC8HbdQNq2Mk+lUvHrrP8yuHs/njyKljuXzjIx NeXzbycwc/F8rGyk3l65uXmMGTOF9u37Ex0tWlsUlaenc8EvXQFDGaPIQp8HICHw170/XqVV06bY ly0LwOoNq4snlRbr2LYDALt3H5E5iQBw794jWrfuzeTJ88jLywepvK4TUr1xQRAEXZSN1E8hEHge cTmc3p26s3/nXplj6bYOnTux6eAOnFwKH5o5fjyMJk182bBhj4zJSq9atapRqVIFAAugmcxxSpy+ DkBaAo1sypSha7t2f/vBBZRKJT6engD8dnBfMUXTXv9570MAwsKuEheXIHMa/bZo0QacnAI4e/YK SHukeyCV1xUHzQVB0Ac7AEfgRHpaGuM+GMNXoz4nKzNL7lw6q2KVyizZvIr3x3xY2DMtJSWNvn1H ERLyKRkZmTInLH3c3Z0KfylnDjno6wAkBCDYxwdTk39XSaPzi3K8jx5HkZ6hX0ULalSrgbW1NWq1 mr17j8kdRy89e5ZEcPBIRoyYQGpqOsBupPK62+RNJgiCUOKigXZIW07z9mzZST+/ICJ/vylzLN2l NJB6hqzYuZ4q1asWXl+9ejvOzt25ckUcUP833NwKu9C7yZlDDvo4ADEB+sE/q371Mm93d4yNjNBo NOzau/NtZ9N6Hi4egNiGJYc9e47SpIkvW7fuB8hAWvHoBjyVNZggCIJ8CopueAL3Hty9zwD/Xqxd skocki5GzZwc2XhwBz5dOxdeu3XrHi4ugUyaNBe1Wi1jutLDza1wBUQMQPSAH2BXr0YN3Js3/9sP fpmVpSWtW7QAYPP2jW85mvZ7b+h/ADh48BSZYqm7RGRkZDJixAS6dn2Pp0+fAZxG2i+6COnmKwiC oO/OI52BW5uXm8tP30zhg/7v8iz+mdy5dJZlmTJM+2U2382dhpm5GQB5eflMnjwPH5/BxMSIubG/ 06JFE0ylnja1gEoyxylR+jgACQH+cendVymohhVxPULvRvktmrfA1NSUrKxsjhw5I3ccnXfp0nWc nbuzaNEGNBpNHjAOaAvclzeZIAiC1kkFBiD1DEk/e+IUvby7cupoqMyxdFtAcHfW7dtK/cYNC68d PnwaR0d/9uw5KmMy7WdiYlzQHR307ByIvg1AygFdFApFkbZfFSjoB5Kbm8v5i2FvJ1kp4uQgLRnu 3i3eWIpLQXldV9cgbt26B3AHaA1MA/JlDScIgqDdViGtEp9LfPacj0LeY/rEKeTl5cmdS2fVqleH 1Xs20W9YCAqFAoCEhES6dn2PESMmiB0Tr6Gv27D0bQDSGzD2dHKiRuXKRf4itapWpVGdOoB+dkUf 2HcQALt2Hda7FaCScOfOQzw8ejF58jzy81UaYB7gAOjfaFcQBKFoHiBN2kzWaDTqdUtXMahbHx49 0K8eXiXJxMSEz7+dwOylC7C2tQGk5sWLFm2gZcvuRETckjmhdtLXg+j6NgAJgaIdPn9ZwTasU2f0 b2m3s08XDA0Nefr0GRcuRMgdR6fMnbsCR8cuhIWFA8QCnZFq3ovpI0EQhH8nH5gEdAJibly9Th+f QLau0b/zmyWprU8Hth3bi3tbz8JrN25IHdTnzl0higO85A8NCVsApjJGKVH6NABpBLQyNzWlR6dO b/zFCgYgSclJPH7y+I2/XmmiVCppUF/a6ym2Yb0dsbHxdO48lNGjvyMzMxtgJ1KN+/3yJhMEQSj1 jiC9n+7NzMjguy8m8tmIUaSlpsqdS2eVLV+OBWuW8NnkCRgaSk2+s7NzGD36OwID3+fZsySZE2oP e/ty1KpVDaQqrU5/8+E6Q58GIAMBurVvj5Wl5Rt/MTdHR8rZ2gKwbuOaN/56pU1wt56AtA1LeDO7 dh3G0dGf3347AZCOdICyOxAvazBBEATdkQAEIPUMyTm0Zz+9vLsRfuGyzLF0l0KhoP+7IazYuZ5q NaoXXt+58zBNmviyf7/+7SD5K/q4DUtfBiAGvNh+NeAtbL8CMFAq8fGQemLsO7D3rXzN0qR/7wEo FAquXYvkwQP9WgF6W9LTMwkJ+ZRu3UYQH/8c4BTSwUn9O1gkCIJQ/Ap6hjgD12OjYxjWYwC/zpyP WqWSOZruauLYjA0HttM5KKDw2tOnz+jceSijRn1Lbq4oDiAGILqrLVClqr09Hd3e3v9bvxdd0R9E PSAzK/Otfd3SwMzMjOrVpBmNXbtEU8J/69SpizRr1pnVq7cD5CKV122HdHBSEARBKD7XgVbAPJVK xa+z/suIPkOIjxN9K4qLRRlLfpg/40XPEHNAOqA+b95K3N2DuX1bv2997u4tCn7p+bqP0yX6MgAJ AejduTNK5dv7K/u2bo2RoSEajYa9+/e8ta9bWnT2kXqpiK7o/1xeXj7jxk2nXbt+BStHkUhvOKK8 riAIQsnJQirw0QNIvHAmjF7e3Th+UJxrLE4Bwd1Zv38bDZs0Lrx26dJ1HB27MHfuCvmCyczBoSGW luYA9khNCXWePgxAyiC9wTCoW7e3+oWtLS3xcJLOC23Ysv6tfu3SYOjAYQCEhp4nKSlF5jTa7/bt B3h69mLatIV/LK/bHLggczRBEAR9tQ3pffhkcmISo4f8h69GfU52lig8WFxq1qnFmr2beX/Mhyhe TApnZUkH1IODR5KYmCxzwpJnYGBAy5bNCn6rF9uw9GEAEgRYNG/UqLB3x9tUUA3r6rVwvSstV9G+ IuXKliMvL18cJnsNjUbzoryuP+fPXwWIAXwR5XUFQRC0wSOkLbCTAdWeLTvp1zmY2zcjZY6luwwN DXl/7Ef8um4p5SqUL7is2bp1P82bBxAael7OeLL4wzYsMQDREW+t98erFAxAcnJyuBR+sVheQ5u1 a9MBENuw/kpMzFP8/KTyullZ2QDbkZoKHpQ3mSAIgvAHKqSeIZ7Ag/u37zKgS0/WLlmld5OLJcml tTubDu3Es30bAAXAo0cxtG/fn3HjppOXpz87k/9wEN1dzhwlRSF3gGJWHXhgZGiojDp6lPIvyua+ bY39/bkTFUVg1x7M+2l+sbyGtrp+IwK/QF+srcsQH38BY2MjuSNpjR07DvHee1+SkJCIQkGKRsNw YLPcuQRBEITXsgZ+BfoAtPPtyKQZUwq7ewtvn0ajYd3S1cz5fjp5ef+ritWqlQPr1s2hTp3qr/ls 3ZCUlEK5cs6o1WoVYINUll9n6foKyABA6du6dbENPgD827YFIPTU8WJ7DW3VpHEzLMwtSElJ4+RJ cZQBIC0tg5CQTwkMfJ+EhESAUI0GB8TgQxAEoTRIAfoi9WTKOLb/ML28u3HprP5tCyopBT1DVu7a SPVaNQoua86fv4qTUwBr1uyQM16JsLW1pn79WiC1jmgpc5xip8sDEAUwGGBAQMDrP/INFWzDep74 nJjYmGJ9LW3k5iKtFoptWNKB/JfK645G2lscJWswQRAE4d9ahdQzJPxpbBzv9gxh+sQp5Ofrz7ag kta42Tus37+dHgN6w4tdOqmp6QwcOJZevT4iOVm3u9e7uxc2Qtf5bVi6PABpBdQra2NTuEJRXDyc nLC1sgJg3ea1xfpa2mhgnxBA2nKkr3Jz8xg3bjrt2/fn4cNogAikG9dcQC1rOEEQBKGobgGuwDSN RqNet3QVg7v15XHUI7lz6SwLSwu+nvYtPy2cSxmrMgWXNZs376N58wDOnNHd7vX61JBQlwcgIQDB Pj4YGxXvuQRDAwM6veiKvve33cX6WtrIy9MLIyMjoqKecO2a/lUNuXYtEmfnbkybthCVSq1G6unh AlyTOZogCILw5nKQmsX6AnHXwyPo0ymQfdv0735fkrz9fdl0aBeOLZ3gxWrIw4fRtGnTh0mT5qLS we71f6iE5Y5uP6Pr7F/OhBeHx4qr+tXLOr/YhnX/4X2y9Kx+uKGhEc3ekepX79p1WOY0JUetVjNt 2kJatQosGHhFAz5IN6psWcMJgiAIb9shpCqGv2Wkp/PlR5/y1ajPyczIlDuXzqpUtTJLt6z5U8+Q /HwVkyfPw9s7hOjoOJkTvl2NGtXBzs4GwBaoL3OcYqWrA5AugF2DWrVwadbsbz/4bfD19MTQwAC1 Ws1vB/eWyGtqk97BfQHYvVs/usg+efIUX98hjBs3nezsHIC1QFNAf0ZggiAI+ice6RljNJC7Z8tO enYMIOLSFZlj6S4DQwPeH/sRizauoEJF+4LLmmPHztG0qR8bN+rOM5dCocDFxaHgtzp9DkRXByAh AP39/UvsBe2srXF1kH5oNm7dUGKvqy38ff1RKBRcuBBBbGy83HGK1bp1u2jSxJdDh04BJAG9kCqu 6V/7VkEQBP2jQTrf5wHcefIomiGB/fl15nzUanHkr7i0dHdh06GdtPFuDy+2ZCUnp9Knz8eEhHxK ho6sRLm5FR5E1+lzILo4ACkPdFYqlfQv5upXLyuohnU5/LLeNS4qU8aK2rXqoFar2bNHN1dBkpJS 6NXrI/r3/6SgEsdxwBFRXlcQBEEfXQRaAItUKhW/zvov/+k7lISnuj0JJycbO1vmLP+Zr6d9i6mZ acGDlmb16u04O3fnypUbsuZ7G/SlEpYuDkD6AkZtWrakeqVKJfrCBdW2snOyCY8IL9HX1gaBAUGA bm7DOnEijObNA9i8eR9IBxJHA+0BUQpFEARBf6UBI4CeQFLYqbP08u5G6OFjMsfSXQqFgh4DerN2 7xZFvYb1QVoN0dy6dQ83tx5Mm7awVK9EtWrlgIGBAUAjwE7mOMVGFwcgA6H4e3+8SsPatalTXerW uWrdihJ/fbkFBgQCcPjwaZ1ZCs3JyWXUqG9p164/UVFPAMKRZrzmIi3DC4IgCMIWoDlwOul5IqMG /4fpE6eQm5srdy6dVadBPdbs3Uy/YSHwYktWTk4u48ZNx8dnMDExT+UNWERlyljQtGkDkP5OLjLH KTa6NgBpCjhbmpvTo1MnWQJ09vIC4PjJ47K8vpyqV6tBhfIVyMrK5vDhM3LHeWNXr97E2bkb8+at RKPRFJTXdQN+lzmaIAiCoH2igLbAZI1Go1q3dBV9fYO4c+u2zLF0l4mpKZ9/O4GZi+djZWNdcFlz +PBpHB39/4+9+46O6j7zP/6eGXUheu9NNNEFCIRQQx1RLOFu48R24mRTnGSzSfZ4dxOn7K43u9m1 k83G/jm7tsGmGEwxqKACCNF7772DaEJdmpnfH1dXyAk27c58Nfc+r3Nyzlwylj4+BjTPvc/3eXy2 JbxZG5Zpz4GYrQB5HuCJpCRCg4OVBNDPgZRdv8aVq75ZfT+O9JRpgG9vRdfH606cmM3+/UcBzgHJ yHhdIYQQX60B+AXaz4wLJ44c44Vps/n4/Y/UpjK5qRkpLFq9jLFR46Dxaci1azeYMeObvPbaG1RV +dZ6hGYLCU17DsRMBYgDvf3KS7s/7iV23DjahmmbOxcsnq8shypZM/RzIEU+2YN5/vxlUlJeaj5e dy7akzXfvI0ihBBChTVoQ0pW1NbU8tuf/4a//cb3uH3rtupcptW1R3fe//QjvvWj72Jv3Bnidrvd 7723gAkTnmDv3sOKEz64ZgsJJ6B9vjUdMxUgU4Huvbp2JX78eGUh/P38SJqkPTFbsWqZshyqjB45 htDQUK5evc6WLXtUx3ko8+YtY/jwNIqKNgLcQBuvOweQnxhCCCEeVhkwE3gJqC7KWc3TKbPYuWW7 4ljmZXdoO0M+WD6fHr17QuMB9QMHjhEVlcXbb3/gE1NK+/fvRdeunQDC0G6Cmo6ZCpA5AM9lZjZV vqroW9GPnzxObW2t0izeZrfbiY9JAHynDevGjVs89dT3ePHFv+X27TsAuUAEMl5XCCHE4/sIGAfs vXzhIq8++aK2M8TpVJ3LtEaOHc3C1ctImzkNGluyampq+cEPfkVW1re5fr3lr+0yexuWWQqQMOAJ gJdmzVIcBdKnTMFht+NyucgvylMdx+uyZ80GYMWKlr8UfM2azYwencmnn+Zgs1GNNk5xGnBZcTQh hBDmcRBtotE7LqfL/aff/YGvzXqO82fOqc5lWq3CwvjXP/6OX739FsEhTeeCXcuWFRARkUpeXonK ePdl9oWEZilAZgMh40eMILxPH9VZ6NiuHRNGjgRg/qefKE7jfVOiY/Hz8+PAgWMcO3ZadZx70sfr Tp36AufOXQLY5XYzDngPGa8rhBDCeDXA62g3TK/v3bmbZ1KfIHfZSsWxzG367Fl8krOEQcOGgPa5 133lShkZGS/z+uu/pK6uXnHCezP7JCyzFCBzAF5UsPvjy+jTsHbs2u4T/YZGCgoKInLMOIAWOQJv 166DREbO0MfrOoE30e5M+f4KVSGEEC3dcrQ23/yKO3f4++/8Lf/w+k+o9rFJTb6kX/gA5q5cxHOv zMFms9lAO6D+zjsfMnnyky3yZmlk5HACAvwBBgBdFccxnBkKkH5AXGBAAE9nZKjO0kQvQKqrq9l/ aL/iNN6XNSMbaFnnQJxOJ7/4xdtERT3BgQPHAE4AUwd9FnEAACAASURBVNBGJrbMWyBCCCHM6AqQ DvwAqF+5eDnPpWdxeL/cB/OUwMBAfvLLN/jPP/83bdq1Be1siGv79n2MHTvD/d57CxQn/KKgoEDG jh2uX5ruKYgZCpDnAVtGbCzt27S575u9ZXh4OH179ADgo3kfqA2jQMrUVGw2G+vXb+PmTfVDpE6c OEts7DO8+eY71Nc3gNZqNRbYpDaZEEIIi3IDbwOTgeOnjp/kxelP83///f98coy9r4hPncpna1YR HR8DjZ+DKyoqba+99gZPPvndFvGZRWfmNixfL0BsaOPtlO7++DL6VvTikpbXhuRpHTt0JHxAOA0N TnJz1ynN8t57Cxg7djobN+4EuI52Zug1oFxpMCGEEAK2AZHAvPq6Ot7+53/nb55/lbKr11TnMq0O nTry3/Pe5+/efAM/Pz/9l12LF+cyenQm69dvUxmvSbNJWFKAtDATgYGd2rUjfcoU1Vn+it6GdfXa FcrKrPcXycxMbSKZqjas69dv8eST3+W1196gvLwCYBVa3+0SJYGEEEKIeytHW6b8ElCxuWQDTyXP pLS4ZU9q8mU2m43nX53Dh8sX0KtPb9A+E7vOnr1IQsJz/Oxn/6Z3TCjT7AnIOCBAYRTD+XoBMgfg qfR0/O9WsC1G3PjxhIWGArBwScvqLfSG1KQ0AHJz13l9ysSqVWsYPjyNxYtzsdmoQnviMR2t71YI IYRoiT5CWzy36UbZdb4355v82z/9hvp6OaboKRGjR7AgfykZWdOh8XOx0+nirbfeZcqUpzl5Ut2o 5O7du9CnTw+AILS2cdPw5QIkCHga4MUW2H4FEBgQwNSJEwFYbsGt6IPDh9Clcxdu375DSclWr3zP qqpqXnvtDaZP/waXL18D2OF2E4mM1xVCCOEbTgOxwJtut9v1yZ8/4qUZT3P21BnFscwrNKwV//z7 f2/cGRKi/7Jzy5bdjBmTyccfL1eWzaxtWL5cgEwH2g0PDycyIkJ1li+lt2EdPX6Uuro6xWm8LyN1 GuCdNqydOw8wbtws3ntvQfPxuhOBwx7/5kIIIYRxGtAmNKYAFw/uPcAzqU+wZN5CtalMbvrsWczP +4yhIyIAHIC7vLyCF174EXPm/JiKiiqvZzLrQkJfLkBeBHguM1N1jq+UEReH3W7H6XRStLblbwY3 mt6GtXy55/7dm4/XPXToOMBxIAbtL2+1DZxCCCHEoysCRgMrqyor+dVP/4m/++b3Kb8tM1Q8pe+A fsxduYhv/ei72Ox2W+Mvu+bOXcqIEen6QBuvaXYOZLJXv7GH+WoB0hVId9jtPN/CC5DO7dszbrg2 x/mTRfMUp/G+qPETCQkJ4cyZC+zda/yDiOPHzxAT8zRvvvkODQ1OuDted7Ph30wIIYTwvmvADLSz jNUFq/J5OmUmu7d594Owlfj5+fGtv/0ef/rkz3Ts3Am0z8vO06fPExf3DL/4xdteG5U8evQwWrUK AegO9PHKN/UCXy1AngH8EidOpHvnzqqz3Jc+jnfrjpYx1s2b/Bx+JMZNBWDFCmPbsPTxups37wK4 BGSg/QV9x9BvJIQQQqjlRrvBNh7Yd+n8RV7JfoE//cfvcTmdiqOZV9SUaBYVLCcmMQ60liwaGpy8 +eY7JCW9yIULnp9r4+fnIDJyhH5pmjYsXy1A5kDL3P1xL5mN50Cqqio5dNh6W07Tk7UN9UadAykr u0l29t/w2mtvcOdOJcDnaI+ocw35BkIIIUTLdACIAt5xOp386Xd/4JtPf40rly6rzmVa7Tt24Pcf vcvfvfkG/v7++i8716zZzOjR0zzaYq4z40JCXyxARgJjwkJDmTV1quosD2TUkCH06d4dgA8/+UBt GAUSYhNwOBxs27b3se8WfP55EcOHp/HZZ/kAFWgz02cAVx8/qRBCCNHiVQOvA1nAje2btjI7MZP8 FTmKY5lX086QFQvp3a8PaE9DXGVlN5k16zXmzPkxlZWeO6DebBJWtMe+iZf5YgHyIkBWcjIhQUGq szyw1JgYAEseRA8La824seNxu92sWrXmkb5GZWUVr732BjNnvsaVK2UAG9CK0Y8MjCqEEEL4iqVo T/9L7pTf4aff/iH/8PpPqKmuVp3LtIaNjGB+3lKyX3ga7n6Gds2du5Tx459g927PdLlER0dis9lA ++/dyiPfxMt8rQBxAM9Dy9398WX0cbyXr1zmxs0bitN4X3rKo7dhbdiwg5EjM/TxuvXAz4B44JSR GYUQQggfcw5IRPu5WL9y8XKeTc/m6EGZPu8poa1C+ce3fslv33uHsNZhoH2Wbjh06DgTJ2bz1lvv Gn5AvUOHtoSH9wXwAyIN/eKK+FoBkgx069ezJ7HjxqnO8lASoqIIDQ4GYNFn1pvjrY/jLSra+MCP KevrG/jZz/6N+Phn9U2kR9HG676FjNcVQgghAJxoPxenACdPHTvBC5lP8fH7H+F2y/5dT0melsqi ghWMHj8WtMLAXVtbx89+9m+kpX2dS5eM7Qxvdg7EFG1YvlaAzAF4bto0/VGUzwgODCSxcSv6ss+X Kk7jfT2792Rg/3Cqq2soKNhw3/cfO3aamJineOutd2locLqBd9AePXpnpboQQgjhW7YAY4D5dbW1 /Pbnv+GHr3yH2zdvqc5lWt16dufPi+fxrR99F/vdnSENBQWljB6d+cht5/ditoWEvlSAtAWesNls Ptd+pZvWOI738NFD1NfXK07jfemp92/DcrvdvP32B4waNY2tW/cAXATS0Q7cSWOrEEII8eXKgefQ BrRUrs0vIithGhvXliqOZV4OPwff+tvv8e7CD+jctQtoT0OcV69eZ/r0b/D667+ktrbusb/PXzwB 8a278PfgSwVINhA0cdQoBvTurTrLI8mIi8Nms+F0OllTUqw6jtclJyQDsHJlMc57zC2/dOkqGRkv 84Mf/Irq6hqAZWhPPfK9mVMIIYTwcR8B44Bd16+V8Z0XXuXf/uk3lrz56S3jo6NYVLCcuOREaNwZ 4na73e+88yGRkTPYt+/IY339iIhw2rVrA9ABCH/cvKr5UgEyB3zv8Hlz3Tp1YszQoQB8stB6W9FH jRhNh/YduHr1Olu27PnC/7d8eSGjRk0jL68E7o7XfQJtA6wQQgghHs5htHadt9xut+uTP3/E12Y9 y7nTZ1TnMq227dvxX//3R/7xrV8SFBzkRntSUX/gwDGiop7g7bc/eOSvbbPZmDBhlH7p8+dAfKUA GQBMCQ4M5Kn0dNVZHos+DWvz9s2Kk3if3W5vOoyut2FVVFQxZ86PmTXrNa5duwGwHhiBjNcVQggh Hlct2oSsNODSgd37eCY1i1VLViiOZV42m43sF57m41WLbeFDBgH4A87q6lp+8INfkZX1ba5ff7Rz Oc32gfj8ORBfKUBeAGyZ8fG0aeXb44/1AqSyspKjx48qTuN9SQkpAKxYUUhp6XZGjsxg7tylAHVo f0kmAKeVBRRCCCHMpwCtpTmnsqKCN77/d/zD6z+hyoPL86xuwOBw5q36lOdemQONLVmAc+nS1Qwf nkZ+fslDf00zTcLyhQLEhtaOwws+3H6lGztsGD06dwbgo48/UJpFhZhJMQQGBHLw4HESE5/n1Klz ACfR5pi/hTZOUAghhBDGugpkAj8A6lYuXs7sqZns3bFLcSzzCgwK4ie/fIPfvf8HWrdtA1oh0nD5 8jUyM1/l17/+73ueif0yEyaMwm63AwwFWnsktJf4QgESDvQLCgwkOdrnCz5sNhvJkycDULi2QHEa 7wsODmbKZG0aWH19A9y9K3P/2bxCCCGEeBxu4G20O+hHL567wNefeJ4//cfvDV+eJ+5KTE9mUcFy xkaNA21KFg0NTv7xH39HYuILnD178YG+Tps2YQwbNhC0QibKU3m9wRcKkBPA9ZraWo6ePq06iyFm JCQAcPHiRW7euqk4jfelTE0lKChYvzwL3FEYRwghhLCaHWg3/95xOp386Xd/4FvPfJ1rV4xdnifu 6tq9G+9/+pG+M0T/5YaSkq2MGjXNvXhx7gN9HbO0YflCAeIEVgPkljx8v1xLlBQdTUhQEG7cfLZ8 ieo4XpeeksH//Nef9MuZNN4NEEIIIYTXVKPt2HoSqN26YTNPTp1OSaFxy/PEF9kd2s6QD5bPp0fv nqB9/mm4davc9uST3+XVV/+eyvucyzHLQkJfKEAAcgFy169XncMQwYGBxI0fD8BnKxYrTuN9bdu0 JTFuKp07dQHoCMQojiSEEEJY1VKgEuDWzVu8/rVv86uf/hM11bL711NGjh3NwtXLSJs5De7ehG34 858XERGRRmnp9i/9Z2Nixukvo7l7uN3n+FIB4tq4axe37pijW0efhnXw8EEaGqy3GKj5SF60fR9C CCGE8L4pQHv9wu12s2TeQp7LmM2xw9ab1uktrcLC+Nc//o5fvf0WwSHBoBUitWfOXCAh4Tl+8Yu3 73lAfcCA3nTu3AEgDIjwamgD+UoBUgZsa3A6Kdy0SXUWQ+hb0RsaGijZaI7WsoeVnty00yUbbdqZ EEIIIbzrKYCXXnmdN37+O/z9AwA4efQ4z6dn8/H7spbLk6bPnsUnuZ8xOGIoQCDgamhw8uab7xAT 8zQnT577wvttNlvzfSA+ew7EVwoQgByAPJO0YfXq2pWRgwcDMG++9baiA0yKmkTbNm0BegDj7vN2 IYQQQhjLDmQBpE+bzZyXv8/8JSX06RcOQF1dHb/9+W/44Svf4fat2ypzmlq/gf356POFPPfKHGw2 m/7ZvH7z5l2MHTudTz754uJIM5wD8bkCJL+0FLfbrTqLIZq2om/bqDiJGn5+/iQlJOuX0oYlhBBC eNckoEvnLt0ZNUab6jpi1DiWrtrK0899o+lNa/IKmZ2YyY7N2xTFNL/AwEB+8ss3+M///SNt2rUF bYN63e3bd3j++R8yZ86PqajQDqibYRKWLxUgO4DLl8vK2HXokOoshpgWq+3DuHPnDsdPHVecRo20 u21Ys1XmEEIIISwoGyApdWbz0bCEhobxy3/5H9750yLatNWOh1y7cpVXn3yRt//532loaFCT1gLi UxL5bM0qouNjAALQdrc4585dysiRGWzatItx40YQEOAPMADorDDuI/O10/PDgdE9unQhdpzvd+x0 69SJ9xcvpqKqCj+7g/jYBNWRvK5n9578+cP/R31DfQfgU+Ca6kxCCCGEBdiAd4G2P/7Zv9CzV7+/ esPA8KFkznyGgwd2ceH8GXDD7m072bBmPVExk/Tt3sJgIaEhZGTNoHWbNmzbsNnmcrnsQM2tW+V+ H364BLvdTnl5BRcvXrWhLXI+ojjyQ/OlJyBgsnMgdrud1BhtAm1+Ub7iNGoEBQU1L7yyVGYRQggh LGQs0Kd9h06Mj4r90jd1696LjxYUfeGA+oE9+5g9dTq5Sz/3UlTrsdlsPP/qHD5YNp9effsABAEN +gH1vXsP62/1yY3ovlaA5AP12/bv5+qNG6qzGEI/B3Lh4nnKy8sVp1GjWRuWnAMRQgghvCMbIGFq Jg7HVzfE2Gw25rz8fRZ8tp6+/QcBUFNdzd9/98e88f2/o+o+y/PEo4sYPYIFeZ+RkTUdmu0Mqatr WuHgk+dAfK0AKQc2ulwuCjaa4+B2cnQ0QYGBuN1uln7+meo4SiTFJ+Hv7w/a3Zi/fgYshBBCCKPN BkjNePDmg+EjI1meu4M5X/9e06+tWrKCp5JmcHj/QeMTCgBCw1rxz7//98adISHQuDOk8f8ej3Zg 3af4WgECjVvRzdKG1SokpOk8y+JlnypOo0ZYWGsmT2xahj5LZRYhhBDCAoYD4WFhbZg0OfGh/sGg oGDe+MV/8vt3P6Vt4wH182fP8WLmUyyet8ADUYVu+uxZzP18EQOHhAMEYrM5gWBgtNpkD88XC5Cm cbwN99gQ6Yv0NqwDB/fT4LTmZAlpwxJCCCG8JgsgPjGDgIDAR/oCKWlPsCx3B1GT4gGor6/n1z/9 Oa9//duyM8SDBg4J5+NVi8l6/ilwux1owwTGq871sHyxANkHnLlZXs7WvXtVZzFEZnw8APUN9Wza vEFtGEVSk9Jw2B0Ak4GuiuMIIYQQZpYNkPIQ7Vf30q17Lz6cX/CFA+rrVhfzRFw6OzZtffyU4p4C g4KYHD9FvzwI/FFhnEfiiwUI6G1YpaWqcxiid7duRAwcCMDc+XMVp1GjY4eORI4dB9rvyRmK4wgh hBBmNQgYGRwSypS41Mf+YvoB9YVLS+nXfzAAN8qu88rsF3nrH39NfX39fb6CeBQFK/P0lz7Zv+/T BUhOSYnqHIbRn4Js3GLNJyAgbVhCCCGEF8wCmBKbQnBwiGFfNGLEWJblbv/CAfX5/zuXZ9Oe4MzJ 04Z9HwG1tbWUFK7RL31ygpGvFiBFQM3eI0e4cPWq6iyG0M+B3C6/zanTpxSnUSM9JQObzQYwFWin OI4QQghhRoa0X92LfkD9D+8tpm27DgAcP3yM2YmZfPz+R4Z/P6vaXLJBH318FPDJ8wi+WoBUAiVu t5t8k0zDiho5ks7ttWkS8xZasw2rZ/eeDB82HLRxchmK4wghhBBm0xsYHxgYRGJSpse+SXLqLFYV 7iU2Pg3QDqj/9ue/4Qdf/xvKb1tz55mRinIK9JfLVOZ4HL5agIC+Fd0k50Cab0XPK8hRnEadtCRp wxJCCCE8ZBZgmxidQGhomEe/UceOXXjvg8954+e/a5q0tXZ1EbPi0tm1dYdHv7eZORucrFtdpF/6 ZPsVmKAAKdy0iTqTHHDKaGzDOnf+HHfuWPMOQXpK04OPdMC45lQhhBBCZMPDLR98HPoB9c9WbmXQ kOEA3LhWxstZz/PH376NyyTrFLxp+6Yt+pjjs4DPjhrz5QLkGHDsTmUlpTt3qs5iiJToaAL8/XG7 3azIXaE6jhLhAwcxsP9A0IqPFMVxhBBCCLPoBsQ4HH5MTfbusMnwwRF8unwTc77+PWw2G263m/f+ 64+8NPNZrly67NUsvq4oZ7X+chngVhjlsfhyAQJ6G5ZJzoG0btWKmLFjAfj0s0WK06gj07CEEEII w80A7BMmxjYdEPempgPq7y6mXfuOAOzbtYeZMankr7Bu6/nDcDmdFOU2nf/w2fYrMEkBkmuSAgTu TsPad2AvTos+mmxWgMwAAhRGEUIIIcwiC7QN5iolpc5kZcEe4hK0n/U1NTX89Ns/5Kff/iHVVdVK s7V0e3bs5vq1MoCrgE8fgvb1AmQdUHH45ElOnjunOoshpickAFBXV8fmbZsVp1Fj5PBR9OjeA6At EKc4jhBCCOHr2gMJdrudlHT1zQUdO3bh3f9b8YUD6vkrcshKmMaRA4cUp2u5mrVfLQd8+i61rxcg tUAxmGcaVr+ePRnSvz8A8xZYc2a2zWYjNSlNv1T/N6UQQgjh26YD/qPHTqRjp66qswDNDqiv2sbg oSMAuHT+As+lZzP33Q9wu332eINHuN1uinKbChCfbr8C3y9AoHErulnOgcDdNqzSjeYoqh5Fszas LMzx+1QIIYRQpUW0X91L+KBhXzig7nQ6+Y9f/gsvZ71A2dUy1fFajEP7DnLp/EWAm2gLuX2aGT7Y rQLca7dupaqmRnUWQ+gFyK3bNzl77oziNGpMiIyiY4eOAF2AiYrjCCGEEL6qNZBqs9laRPvVvQQG BvHGL/6T9z9cRafO3QDYtXU7M2NT2bDGPDeYH0fx3acfKwGf3z9hhgLkHLC/uraWddu2qc5iiOgx Y+jQti0AHy/8WHEaNRwOB0kJyfply/wbUwghhGj50oHAYcPH0KNnX9VZvlJMXArL83YQn6jtBKu8 U8F3XniVX//059SbZOfboypYmae/9Pn2KzBHAQImm4blsNtJnTwZgJzVqxSnUadZG9ZslTmEEEII H9Zi26/upUOHzvzpf5fzy3/5H4KCtX3Ei+ct4Mmk6Zw7bc2ukBNHjnHm5GmASiBfbRpjmKUAyQXI LSlRncMw6bGxAJw5e5qKygrFadSYEh1Lq1ZhAH2BUWrTCCGEED4nGMgASMvIVhzlwdlsNp5+7hss XrGZIUNHAnD6+Cmy4qexfKEpHgA8lGa7P3IBU8wqNksBsgG4dfrCBQ6fPKk6iyHSY2Px9/PD7Xaz Km+l6jhKBAQEkBiXqF/6xq0bIYQQouVIAVqFDxpG3/6DVGd5aOGDhrFo+camA+r19fX8/Ed/z3de +AZ3ystVx/OaZuN3TVN9maUAaQAKwDxtWG1atSJ6zBgAFi1ZoDiNOn8xDUsIIYQQDy4LIDnNd3+E Nh1Q/yin6YD6hjXrmR6dzJ7tuxSn87xzZ87qu1Fq0A6gm4JZChAw2TkQuDsNa/e+3bhcLsVp1EiM m0pQUBDACMD3bt8IIYQQagQAMwBSM3y3ANHFxCazPG8HCVOnAW5u3bzF12Y9y9u/+a2pPyMV3336 UQjcURjFUGYrQFylO3Zwu8IcZyb0AqSuro5tO7cqTqNGaEgoU6Jj9ctZKrMIIYQQPiQBaNu7z4Cm cxS+rkOHzvzPn5c1HVB3u9383x/f5/n0bK5evqI6nkcU5TSd/zBN+xWYqwC5Cuysb2igePNm1VkM MahvX8L79AFg7vy5itOok363DUvOgQghhBAPxqemXz0o/YD6ks83M3SYNp/m0P6DTJ+c3HxXhilc vniJfbv2gHbUYIXiOIYyUwECjW1YeaXm2SCuPwVZv2Gd4iTqJCWm4HD4AUQBPRXHEUIIIVo6O43t V0mpMxVH8YyB4cOYv6SEp559FYDamlp+9Or3ePc//1txMuOUFK7F7XYDlALXFccxlCkLkNySEv0/ mM/TC5AbN29w/uJ5xWnUaNe2HZMmTASwAeb8m1QIIYQwTjTQtXOX7owaE6U6i8cEh4Tyq3/9E394 bzHBIaEAnDlhjmmoAEWrmlZ+LFGZwxPMVoBsA65eunaNvUeOqM5iiJjISNqGhQEwf5E1t6LDF6Zh metZshBCCGG8bIDk1FnY7Wb7qPfXoibF09C4Kf3V739bcRpj3Ci7zrZNWwBcwGLFcQxntt+VLho3 ROaYZCmhn8NBSuNWdKvuAwFITUrHZrMBxAMd1aYRQgghWiwb8CRA2rTZiqN4R2H+curr6whr05r+ gwaqjmOItauLcTldAJuAy4rjGM5sBQg0bkU30zmQjMY2rFNnTlFVXaU4jRpdu3RlzKixAA4gU3Ec IYQQoqWaAPTo0KEzkeMnq87iFatztQFRk2LN8+/b7EC9qaZf6cxYgOQBDVv27OH6rVuqsxgifcoU /BwOXC4XuatzVMdRRtqwhBBCiPvKBpiaMgOHw6E6i8dVVJSzYX0hAK987zXFaYxRfruczSUbAdxI AeIzbgKbnS4XBRs3qs5iiPZt2hA1Shs1t3DxfMVp1ElPztBfpgJhCqMIIYQQLdVsgNR0318++CDW FuVQV1dLaKtWDI4YqjqOIUqL1tHQ0ACwCzitNo1nmLEAAb0Ny4Rb0Xfu2WWaCV8Pq2+fvgwZNBQg EEhTHEcIIYRoaUYB/dq0bc/EyQmqs3iF3n41frJ5pn0Vmbz9CsxbgOQA5G/YgNPlUp3FEJmNBUht bQ279uxUnEYdacMSQgghvlQ2QMLUafj5+avO4nHVVZWsW5sHwCvfNUf7VXVVNRvWNA1S+lRlFk8y awGyBzhfdvMm2/fvV53FEEMHDGBA794AfPTJh4rTqNOsAMkEghRGEUIIIVoaU24//zLrS1ZTU11F cEgwI8aOUh3HEBvWlFBTXQNwEDiqOI7HmLUAcWPCNqz0KVMAWFe6Vm0QhSKGRtCnd1/QzoAkqk0j hBBCtBhDgIjQ0DBi4lJUZ/GK1Tlah1LkxPGKkxinKLdAf2na9iswbwECjQWIWfaBwN1zIGXXy7h0 +ZLiNOpIG5YQQgjxV7IAYhPSCAw0f4NAbW0NxYXafrSXvvWq4jTGqK2tpaSgWL+UAsRHFQC1uw4d 4uLVq6qzGCJ23Dhat2oFwAILT8NqVoDMAvwURhFCCCFaCku1X20sLaKy8g6BQYGmOYC+bcNmKisq AU6gTcAyLTMXIBVAqdvtNs043gB/f5KjowH4PGe54jTqjB01ls6duoC2Ed08W4eEEEKIR9MfiAwK CiY+MeO+bzYDffrVqHFjFScxTlFO0/SrpSpzeIOZCxBonIZlpnMgGbGxAJw4dYLq6mrFadSw2+2k JjVN4bXGrR4hhBDiy80CiJ6SREhoK9VZPK6+vo7CfO1G7Ivf/JraMAZxNjgpzivUL03dfgUWKUBW b9xIvbbQxeelx8bisNtxuVysLs5XHUeZ9LttWNmATWEUIYQQQrVssE771dbNJZSX3yIgIIApU+NV xzHEji3buH3zFsB5YLPiOB5n9gLkMHCivKKCjbvM0UrXqV07xo8YAcCCTz9RnEadSVGTaNumLUBP IFJxHCGEEEKV7sBEf/8ApqbMUJ3FK/T2q+FjRihOYpxm7VfL0aa5mprZCxDQx/GWlqrOYRh9Gtb2 XdstuxXdz8+fpIRk/dIat3yEEEKIvzYLsEdNiqN167aqs3ic0+lsar969uU5itMYw+VyUWyR8bs6 KxQgOQC5JhzHW1NTw579exSnUafZNKzZKnMIIYQQCmUDJFuk/Wrn9o2UlV3Bz8+PpGmpquMYYv+u PVy7chXgGrBOcRyvsEIBsgaoOnD8OGcuXlSdxRAjBg2iT/fuAMyb/5HiNOrExcQTEhwCMAgYpjiO EEII4W2dgDi7w0FS6kzVWbxCb78aOiICm80cR0CLcpqefqwAnAqjeI0VCpAatCKEfBO1YWU0PgVZ U1J8n3eaV1BQEPGxCfqlNW79CCGEEHdNBxyR46Lp2LGL6iwe53a7yW8sQGbPeUZxGmO43W4KVuXp l5ZovwJrFCDQeA4k10TjeKc1juO9eu0q18rMsWjxUchWdCGEEBZmqelXe3dv48rlCzgcDqbPnqU6 jiGOHDjExXMXAG4DRYrjeI1VCpAcgDVbtlBT6pZE1QAAIABJREFUW6s6iyHiJ0wgLDQUgAWLFyhO o05SfBL+/v6gTcLqpziOEEII4S1tgKk2m42U9CzVWbxCb78KHzoYu90cH2GbtV+tAszxIfUBmOO/ 3v2dAg5VVldTsn276iyGCAwIIDEqCoDlq5YpTqNOWFhrJk+M0S+t0QArhBBCwDQgcMSocXTt1lN1 Fq/Iy1kCQNZzTylOYpyi3Kbxu5ZpvwLrFCCgVZbmasNqPAdy/Pgxak3yZOdRSBuWEEIIC7JU+9Wh g3s4f+4Udoed7OfNUYCcOnaCk0ePA1TSeFzAKqxUgOQCrFpnnulm0+LjsdvtOF1OitYWqo6jTGpS Gg67AyAG6Ko4jhBCCOFpoUAaYJ32qxztAcGA8IE4/ByK0xij2dOPfKBKYRSvs1IBsh64fer8eY6d OaM6iyE6t29PZEQEAJ8s+lhxGnU6duhI5NhxoP1+nq44jhBCCOFpaUDI4KEj6NN3oOosXqFPv5rx tHkKrmbnPyzVfgXWKkDqaZwuYKalhBmN07C27dhq2a3oIG1YQgghLCULrNN+dfzYQU4cP4TdbueZ r7+gOo4hzp85x6F9BwDqgJWK43idlQoQaJyGlWeifSCZjedAqqqrOHDogOI06qSnZOgLiZKAdorj CCGEEJ4SROPT/tT0bMVRvEOfftW7f1998qXPW5Pf1DpfhDaC11KsWIC4S7Zv505lpeoshhg1ZAg9 u2jLh+bO/1BxGnV6du/J8GHDAfyB9Pu8XQghhPBVU4Gw/gOGED44QnUWr8hvPP+RmW2eYZdFOdac fqWzWgFyCdhdW1fHmq1bVWcxhM1mI72xDat4nWX219xTWpK0YQkhhDC9LIDkNHMs4rufM6ePc/jQ Xmw2G8+/Okd1HENcu3KVvTt2AzQAltylYLUCBPQ2LBOO47185TJlZdcUp1EnPSVDf5kBhCiMIoQQ QniCH407r6xy/qMgbykAPXr3IjjEHD/a1+QV4nK5QBuQVKY4jhKWLUByS0pMc2g7ceJEQoKCAPh0 6SLFadQJHziIgf0HglZ8pCiOI4QQQhgtDujQs1c/ho+MVJ3FK/TpV+mzpilOYhyrt1+BNQuQLcD1 81eucOD4cdVZDBEcGEjixIkALFu5VHEatWQalhBCCBPLAkhKNc9ZiK9y8eJZ9u3Zjs1m46VvvaI6 jiFu3bjJtk1bANyAZT+0WbEAcaItfCHHRON49TasI8eOUFdXpziNOs0KkBlAgMIoQgghhJHsWGz8 bmHeMtxuN127d6NV6zDVcQyxrqAYl9MF2g3xC4rjKGPFAgQat6Kb6RxIRmwsNpsNp9PJ2pI1quMo M3L4KHp07wHQFu1RtRBCCGEGk4CunTp3Y0zkJNVZvEJvv0rKTFOcxDiFq6T9CqxbgOQBzk27d3Pr zh3VWQzRvXNnRg8ZAsDHi+YqTqOOzWYjNanpLypr3CISQghhBU3tV3a7+T++Xbt6iZ3bN4LNxsvf /abqOIaovFPBlvUb9cvFKrOoZv7fwfdWBmxtcDop2Ljxvm/2FZnx8QBs2bZFbRDF/uIciFV/jwsh hDAPG1Zrv1q9ApfLRafOnWjX3hz7hUuK1upt8ruBU4rjKGXlD2embMMCqKyq5PCRQ4rTqDMhMooO 7TsAdAUmKo4jhBBCPK6xQN927TsSNdEa3cX69vPE9GTFSYxTLNOvmli5AGkax9s4i9nnRUZE0KNz ZwDmLrBuG5bD4SA5sWkKrzVuFQkhhDCzLIDEpEwcfn6qs3jczRtlbNm0DsA07VfVVdWsL16nXy5R maUlsHIBshO4eO3mTXYePKg6iyFsNhupU6YAUFC8+j7vNrdmbVjZKnMIIYQQBpgNkGyR9qviwpU4 nQ2079iBLt26qo5jiE3rSqmprgE4DJjjg+djsHIB4kY7jE6uidqwmraiX77EjZs3FKdRZ0p0LK1a hQH0A0YpjiOEEEI8qghgUKtWrZk8JUl1Fq/Q26/ikhMUJzFOUa60XzVn5QIEGs+BmKkAmTpxIkGB gbhxs2S5dQcsBAQEkBiXqF9a45aREEIIM8oGiJ+aQUBAoOosHnfnzm02lhYB8Mr3XlOcxhj19fWs W920IkEKEKQAWQ3U7zhwgCvXr6vOYojQ4GDix48HYOlya7cYylZ0IYQQJmCp6Vdri3Ooq6ulTbu2 9OzTW3UcQ2wt3UyFtvbhJLBDcZwWweoFSDmwweVysXrDBtVZDKO3YR08coj6+nrFadRJjJtKYGAg wEhgkOI4QgghxMMaCIwKDgklNiH9vm82g9U52gOCmETzTPtq1n61TGWOlsTqBQg0TsPKLy1VncMw 0+LjG7eiN7Buw1rVcZQJDQkldnKsfjlLZRYhhBDiEWQBxExJJjg4RHUWj6uuqmTd2jzAPNOvnA1O inML9Etpv2okBUhjAbJ6wwYanE7VWQzRq2tXRgzSbvh/svBjxWnUSkvK0F9a49m1EEIIM9Har9Kt 8SOsZG0etTXVhLUOY8CggarjGGLXth3cunET4BKwSXGcFkMKEDgAnL5ZXs6WPXtUZzGM3oa1aat5 Nr0/iuSpKTgcfgBRQE/FcYQQQogH1RuY4O8fQEJSpuosXpHfOP1qYuxkxUmMU5TzhfYrcyyeM4AU IBrTTcPSC5CKigqOnTiqOI067dq2Y+L4iQA2YKbiOEIIIcSDmgXYJk1OJCysjeosHldbW8OawlWA edqv3G538wJE2q+akQJEo21FN1EBMn74cLp06ADAvPnW3YoOMg1LCCGET7JU+9WG9YVUVVUQEhrK 0BERquMYYv/uvVy9fAWgDFirNk3LIgWIpgio3nf0KOevXFGdxRB2u53UmBgA8ovyFadRKy05HZvN BhAHdFQcRwghhLifrsAUh8OPpBRrPLzXlw9OmBylOIlxmj39+BxoUBilxZECRFMNrHO73eSb6CmI 3oZ18eIFbt66qTiNOl27dGX0yDEAfoA1GmmFEEL4shmAfdyEGNq1N/99s/r6OopWrwBgzrdeUZzG OAUr8/SX0n71F6QAuct050BSJk8mMCAAN26Wr7T26GlpwxJCCOFDLNV+tWXTOsrLbxEcEszYqHGq 4xji6MHDXDh7HrSdcwX3ebvlSAFy10qAwk2bqK2rU53FEK1CQogdp/1BXrxskeI0amWkTNNfpgBh CqMIIYQQX6U9kGi320lOtcYKK739aswEcxQf8IX2qxygVmGUFkkKkLtOAkcrq6sp3blTdRbD6G1Y Bw4doMFp3fbDvn36Mjh8CEAQkKY4jhBCCPFlMgH/UaMn0KVrD9VZPM7pdFKYvxyAOa99XXEa4zTb fi7tV/cgBcgXrQLIM1Ebll6ANDQ0sGGTeba9P4r0FFlKKIQQosXLBki2SPvVjm0buH79KgGBgURN iVYdxxCnjp/k+OFjAFU0frYUXyQFyBflAuSUlKjOYZi+PXowbKC2TXTeAhnH2ygT7UmIEEII0ZKE Aak2m420jGzVWbxCb78aFTlan1jp84pzm458rEYrQsRfkALki9YBd46ePs2Js2dVZzFMZuNTkI2b NyhOolbE0Ah69+oD2l/wiYrjCCGEEH8pHQgcOmwUPXr2VZ3F49xuN6vzlgLw/KtfUxvGQNJ+dX9S gHxRHVAMkFdqnnYlvQ2r/E45J0+fVJxGLZmGJYQQogWzVPvVnt1buXL5Av7+/sQmx6uOY4hL5y9y aO8B0D5Tfq44ToslBchfywFznQOJGjWKju3aAdKG1awAmYW2F0QIIYRoCYKBDIDU9CzFUbxjdY72 gCBi9AjsdnN8JC3OLcDtdgOsAW4pjtNimeO/trFyAPfabduoqqlRncUQDrudNH0rekGu4jRqRY6O pHOnLqBtRJ+sOI4QQgihSwZaDRg4lAEDh6rO4nFut5u8nCUAPPvyi4rTGEfarx6MFCB/7Tywr6a2 ljVbtqjOYpiMxjascxfOUV5erjiNOna7ndSkVP3SGs+4hRBC+IJssM7Tj4MHdnPh/Gn8/PxInpZ6 /3/AB5RdvcbubTsBnIC1N0DfhxQg96a1YZnoHEjq5MkE+PvjdrtZvsrafybSkprasLIBc4zcEEII 4csCgBlgnfMf+vSrwcOHYnc4FKcxxpr8QlwuF0ApcFVxnBZNCpB7ywHIWbdOdQ7DtG7VisljxwKw eKm1t6JHT4ymbZu2AD2BSMVxhBBCiHigbe8+AxgWMVp1Fq/Q26+emvOc4iTGKcppGr8r7Vf3IQXI vW0Ebpy9dIlDJ06ozmKYabGxAOw7uM/SW9H9/PyZGp+kX1rjVpMQQoiWTJt+lTpLdQ6vOHb0IKdP HsXhcDAte4bqOIa4fes22zduAXADSxTHafGkALk3J1AAkGuiaVjTExIAqK+vZ/OWTYrTqNVsGpY1 mm2FEEK0VA60yYwWar/SPp8PHBKOn585BlKWFBTT0NAAsA24oDhOiycFyJfLBXMVIP179WJwv34A zFto7XG88VMSCAkOARgCmH/ciBBCiJYqBujcrXsvRo+JUp3FK/Ibz39kPf+04iTGKcqR6VcPQwqQ L5cDuDbs3MntigrVWQyjLyUs3WSeA/aPIigoiLgp8fqlPAURQgihShbA1OQZ2Gzmn4ty6uQRjhza h91uZ9bT5vjxW3mngo1rmz5XSfvVA5AC5MtdA7bXNzRQtMk87Up6AXL79i1OnT6lOI1ashVdCCGE YjYaz3+kWKT9qjB/OQD9BvYnMChIcRpjlK4poa6uDmAvcFxxHJ8gBchXM10b1uSxY+nQti0A8z/9 RHEatZITkvH39wcYC/RRHEcIIYT1TAB6dOjQmXETpqjO4hV6+9WMp7MVJzGOtF89PClAvpq2D2T9 etxut+oshnDY7aRERwOQW7BKcRq1wsJaEx01GbQ7UNa49SSEEKIlyQJITJ6OwyS7ML7KxQtn2L93 BzabjSdffEZ1HEPU1tRQWty0tkEKkAckBchX2w5cuVxWxu7Dh1VnMUx6YxvWmbNnqKi4oziNWtKG JYQQQqEnwTrtVwV5y3C73fTu14eQ0BDVcQyxqWQjVZVVAEeAfYrj+AwpQL6aC8gHyC0pURzFOGkx Mfg5HLjdbj7P/Vx1HKXSktJw2B2gTSHpqjiOEEII6xgF9Gvdph3RMVNVZ/EKvf3KLLs/4AvtV0tV 5vA1UoDcn9aGVWqeqVHtWrcmeswYAD79bKHiNGp17NiJsWMiQfuzMF1xHCGEENaRBRCfmIGfn7/q LB539cpFdu3YhM1m49mXX1QdxxD19fWszS/SL6X96iFIAXJ/q4GGrXv3UnbzpuoshtGnYe3Zvwen 06k4jVrp0oYlhBDC+yw1/apo9QpcLhfdevYgrHVr1XEMsX3jFu6UlwOcRWvbFw9ICpD7uwlscrpc rN64UXUWw+gFSF1dHVt3bFWcRq30lAx99noS0FZxHCGEEOY3BIgIDgllSlyq6ixeobdfpc2apjiJ cYpyCvSXSwFzTCvyEilAHkwOQL6JxvEO7tePgX20ybPzFnykOI1aPXv0Yviw4QD+QIbiOEIIIcwv CyA2Po2goGDVWTzuxvVrbNm8DpvNxovf+JrqOIZwOZ2syS/UL6X96iFJAfJgms6BOF0u1VkMoz8F Wb/BPIXVo0pLkjYsIYQQXpMFkJJmjR85a4pW4nI66dytC+06tFcdxxC7t+/i+rUygEuAeQ4Ke4kU IA9mL3D2xu3bbNtnnglr02JjAbh56wbnzp9VnEatZuN4MwBzzAYUQgjREvUHIgMDg0hIMk870lfJ z9EeECRnpilOYpyi3KbpVyvQpqaKhyAFyIPLA3NtRY+JjKRtWBgA8z+drziNWoPCBzOw/0DQio9k xXGEEEKY1yyA6JiphIaGqc7iceW3b7Jhvdaq9NK3XlGcxhhut5vClfn6pbRfPQIpQB5cLphrH4i/ nx/JjVvRV+ZZex8IQGpS050ZazwTF0IIoUIWQLJF2q/WFufQ0FBPx86d6NSls+o4hji4Zz9XLl0G uAGsURzHJ0kB8uAKgNrdhw9z8epV1VkMk9F4DuT0mVNUVFYoTqNWszas6YCfwihCCCHMqTswyeHw Y2qyNVZP6dOvEtPN01zQrP1qJVCvMIrPkgLkwVUCJW63m9UbNqjOYpiM2Fgcdjtut5u81bmq4yg1 asRoenTvAdAeiFebRgghhAnNAuxRk+Jo266D6iweV1VZwfp12of1Oa99XXEa4xSukvarxyUFyMPR 2rBMdA6kfZs2RI0aBcCCJdY+B2Kz2UiZ2jSP3RrPxoUQQniTpaZflazNo7ammnbt29GzT2/VcQxx /PAxzp46A3AHyL/P28WXkALk4eQAFG7aRF29eZ646eN4d+/ZhctEY4YfRbM2rCzkz4cQQgjjdALi 7Q4HyRbZfq63X8UmJypOYpzCnKaaIxeoURjFp8kHrIdzBDheXlHBxl27VGcxTGZjAVJbV8uOXdsV p1EratxEOrTvANAViFIcRwghhHlMBxxjxk6kY8cuqrN4XE1NNWuLcgB46dvmmH4FUJzTdP5D2q8e gxQgD69pKaFZDBs4kP69egEwd8FcxWnUcjgcJCU0HZSzxi0qIYQQ3mCp9quN6wupqqqgdZvW9A8f oDqOIc6cPM3RQ0dAe/KxSnEcnyYFyMPLBcgx0ThegPQpUwAoKV2rNkgL0KwNa7bKHEIIIUyjDZBk s9lIsVj71eTEWMVJjLMmr1B/WQBYe3ToY5IC5OGtBaoOnTjBmYsXVWcxjH4O5PqN65y/eF5xGrVi J8fRqlUYQD9gpOI4QgghfN80IDBixFi69+ijOovH1dfXUVSg7Rczy/JBgCJpvzKMFCAPrwYoBnMt JYwbP56w0FAAFi1ZoDiNWgEBASTGNR2Yy1KZRQghhClYqv1qy8a13Cm/RWhYK4YMH6Y6jiEuX7jI /t17AeqAZYrj+DwpQB6N6c6BBPj7N21F/zxHtqI3a8Oyxk8LIYQQnhIKpAOkZWQrjuIdevvVxCnR ipMYpzivELfbDbAOuKU4js+TAuTRrAQo3ryZ6tpa1VkMo7dhnTx9gqrqKsVp1EqMm0pgYCBoLViD FMcRQgjhu1KBkPDBEfTpF646i8c5GxooyNceELxoouWDRbkF+ktpvzKAFCCP5hxwoLq2lpJt21Rn MUx6bCx2ux2Xy0V+YZ7qOEqFhoQSO7np4NxMlVmEEEL4tCyA1HRrPP3YsX0DN2+UERwSwuhxY1XH McSNsuvs2rodwAksVRzHFKQAeXQ5YK6t6J3atWP88OEALFhs7a3oAGlJGfpLacMSQgjxKAKBTLDO +Y/8HO0Bwfho86zSWptfhMvpAtgEXFEcxxSkAHl0OQCr1q1TncNQehvWzl079F5Hy0qemoLD4Qcw EeipOI4QQgjfMxVo06//YAYPHaE6i8e5XK677Vff/JraMAZqtv1c2q8MIgXIoysFbp2+cIGjp0+r zmIYvQCpqa1h917zbHt/FO3atmPi+IkANmCG4jhCCCF8TzZAUqo1Onn37N7KlcsXCAwKJHLSBNVx DFF+u5ytpZsB3EgBYhgpQB5dA1AI5hrHO3LwYPp07w7A3PnW3ooOMg1LCCHEI/Oj8QyhVdqvVje2 X42dMA673RwfMUsK1tDQ0ACwAzijOI5pmON3hzq5YK5zIKAdRgdYs75YcRL10pLTsdlsAPFAR7Vp hBBC+JBYoEP37r0ZMWqc6iwe53a7m8bvPvfqHMVpjFOUK8sHPUEKkMeTA7jX79jBncpK1VkMo7dh lZVd49LlS4rTqNW1S1dGjxwD2p2saYrjCCGE8B1a+1XaLP1Glqkd3L+LC+dP4x8QwOT4KarjGKKq soqNa5t2vi1WmcVspAB5PJeBXXX19RRv2aI6i2ESJkygVUgIAIs+W6g4jXrShiWEEOIh2bHY9nP9 6cfIsaOwOxyK0xhjw5oSamtqAPYDxxTHMRUpQB7fKoA8E7VhBQYEkBiljc9bkbNMcRr10lOaxvGm AmEKowghhPANE4GunTp3I3L8ZNVZvCIvZwkAz778ouIkxinKkfYrT5EC5PHlglaAmGlsrd6GdfzE caqrqxWnUatfn34MDh8CEIRWhAghhBBfJRtgavJ00xzG/irHjhzgzKlj+Pn5EZ86VXUcQ9TW1lJS uEa/lALEYOb/U+F5W4Gy81eusO/oUdVZDJMeG4vNZsPlclG4pkB1HOWaPQWxxrN0IYQQj8pGY/tV smXar7SnH8NGDsfPz09xGmNsWb+RqsoqgOPAHsVxTEcKkMfnBPLBXNOwunXqRGREBAALFn+iOI16 zc6BTEd7EiKEEELcyxigb5u27ZkYHa86i1fo5z+e/tpzipMYpyin6earPP3wAClAjJED5joHApDR OI53646tpmovexQRQyPo3asPaGdAEhTHEUII0XJlAyQmZeLn5686i8edOnmEo4f343A4SMpMUx3H EM4GJ2tXF+mXUoB4gBQgxsgDnJt27+b6rVuqsxgmMz4egJqaGvbu36s2TAsg07CEEEI8gNlgnelX BXnasJpBw4YQGBioOI0xtm/awu2btwDOobXaC4NJAWKMG8AWp8tF4aZNqrMYZvSQIfTs0gWAjxd+ pDiNen9RgJijyVUIIYSRIoBBrVq1JiYuRXUWr9Dbr2a/+IziJMZpNv1qGWDtFhAPkQLEOLkA+aWl 93ufz7DZbKRN0ZYJFa2VreiRoyPp3KkLaBvRoxXHEUII0fJkAcQmpBEQYI6nAV/l/LlT7N+7A7vd TvqsTNVxDOFyuSjKlfMfniYFiHGa9oG4XC7VWQyjj+O9eu0K18quKk6jlt1uJzWpaQqvNZ6tCyGE eBjZYJ32q8L85QD0HzSQkNAQxWmMsXfHbq5fKwO4CpjrcG8LIgWIcXYDF67dvMmOAwdUZzHM1EmT CAnShj4tXCJb0dOSmtqwZqONWhRCCCEABgCjgoKCiUtIv++bzUBvv8p67knFSYzTrP1qOdqkU+EB UoAYx412GN1U43iDAwNJaNyKvnyVbEWPnhhNm9ZtAHoCkYrjCCGEaDmyACbHJhMS2kp1Fo+7euUi u3duxmazMf3JWarjGMLtdlOUK9vPvUEKEGPlgrkKELjbhnXs2FFqa2sVp1HLz8+fpIRk/dIaz9iF EEI8CMu1X7lcLvoM6EdY69aq4xji0L6DXDx3AeAmUHSft4vHIAWIsQqAup0HD3Ll+nXVWQwzLS4O m82G0+VkTYkcRpdxvEIIIf5CL2CCv38AicnTVWfxCr39auZTWYqTGKf47tOPVUC9wiimJwWIscqB UpfLZappWN07d2bUkCEAfLxwnuI06sXFxBMSHAIwtPF/QgghrG0WYIuKjqd167aqs3jc9etX2bql BJvNZqrzHwUr8/SX0n7lYVKAGC8XzLcVPbOxDWvrji2W34oeHBxM3JR4/VKeggghhLBU+1Vxwee4 nE569O5Fm3bmKLhOHj3OmZOnASppPNMrPEcKEOPlAKzesIH6hgbVWQyTERsLQFVVFYeOHFKcRj1p wxJCCNGoKzDF7nCQlDpTdRav0NuvMmeb59+38O70q1ygWmEUS5ACxHgHgdO3KyrYvGeP6iyGiYyI oGvHjgDMnS9b0ZMTkvH39wdtElYfxXGEEEKoMwOwjxs/mQ4dOqvO4nHlt2+yqVQ7Dzr7BVNuP5f2 Ky+QAsQzcsBcbVh2u530xqcgRWsL7vNu8wsLa0101GTQdoGYY/6gEEKIR5EFkJJunsPYX2VN0Soa Gurp2qMbHTt3VB3HEOfOnOXIgUMANcBKxXEsQQoQz8gB847jvXT5EmVl1xSnUU/asIQQwvLaA4k2 m80y5z/09qu0mdMUJzFOcW7TjdUi4I7CKJYhBYhnFANV+44e5czFi6qzGCZp0iSCAgMBWLJ8seI0 6qUlpeGwOwBiAPM/dxdCCPGXMgH/kaPH06VrD9VZPK6y8g6l67RWpadfel5xGuMU5TQVINJ+5SVS gHhGNbAOtMPoZhEaHEzc+PEALP18qeI06nXs2ImxYyIBHGg9wEIIIazFUu1XJWvyqK2toVOXznTr 2V11HENcvniJfTt3AzQAyxXHsQwpQDzHdOdAAKY1ngM5fPQQdXV1itOoly5tWEIIYVVhQCpAWka2 4ijeobdfJU1LVZzEOGvzi/T1AusA82yRbuGkAPGcVQBFmzdTa6IP6tPi47Wt6E4n60rXqo6jXHpK BjabDWAq0EZxHCGEEN6TDgQNGTqSnr36qc7icTU11awrzgXg2ZdfVJzGODL9Sg0pQDznFHC4srqa 9Tt2qM5imN7dujE8PByATxbJVvSePXoRMTQCIBAwz4k8IYQQ95MFkJphjfarDSUFVFVV0K5De3r3 M8f0+ZvXb7BjyzYAF1KAeJUUIJ5l6mlYm7ZuVpykZZBpWEIIYTnBNN50Sk6zRgGit18lpiUpTmKc tauLcTldAJuBy4rjWIoUIJ6VC5BbUqI6h6H0AqSysoIjRw8rTqNeenKG/jIN7YeSEEIIc0sGWvUf MITwQcNUZ/G4+vo6igu19RjPvjxHcRrjSPuVOlKAeFYJcOfYmTOcOHtWdRbDTBgxgi4dOgAwb+Fc xWnUGxQ+mAH9BgC0AlIUxxFCCOF5jdOvrPHge/OGNdwpv0Wbtm0YOCRcdRxDlN8uZ3PJBgA3sERx HMuRAsSz6oBCMFcblt1uJzUmBoDVRavv825rkDYsIYSwjABgJmC55YOxyQmKkxintGgdDQ0NALuA 02rTWI8UIJ6ntWGZqAAByGgcx3vp0kVu3LyhOI16zQqQ6YCfwihCCCE8Kx5o26t3fyJGjFWdxeOc DQ0UrtbWY5iq/SpX2q9UkgLE81YB7nXbtlFRVaU6i2FSY2IIDAjAjZuln8uf3VEjRtO9W3eA9mg/ nIQQQphTFkBS6kzVObxi+/9v786j4yrvdN9/a9A8eMQGG7ABm8EYT3geZcuSLHnEDpCEkJBeOSed vrnhkNNJ+mSgQ5OhSeh7TpJO59xwbrIvEG3sAAAgAElEQVQ6IQMQg8FYgzVYlmXJM7bxBDaeZ8u2 5qlUVfePUpUFaPCwpbdq1/NZi7X2LpV2PQYsvb+9f+/7bi/n6pUqklOSGTPuYdNxLNHU2MTmDaH5 uRrEGKACpPedBfa2tLZSum2b6SyWSU5MZM6jjwLw5tt/M5zGPIfDQdbCRcHT6HgmLyISfVzACoii 9qvcwPh81vy5hpNYp6J0E81NzQAH2/+RPqYCpG+sA8gvLzedw1LB1bAOHDqAx+MxnMa8Dm1YK9Df LRERO5oFDB0ydBgTJk03naXX+Xy+0PwPW20+eK39SpPPDdEgqW/kAeRu3Gg6h6WWpKUB0NbWxqZK ey01fDOmTZ7OoIGDAIYB0wzHERER64Xar5xO+w+hdu/aQtWl8yQmJTJ+8kTTcSzR2tpKWWFp8FTt V4bY/29PeKgELp86f579R46YzmKZkcOH89B99wHw57/+yXAa81wuFwvnZwRPo+PZvIhI9HAAqyCK 2q/an35Mmz0Dh8NhOI01tpVXUl9XB3CUwApYYoAKkL7hBQrBfpsSLmlvw6rYutlwkvCg5XhFRGxr CnDnwEG3MXX6PNNZep3f72d93luAzdqvrm0++JbJHNFOBUjfyQX7zQPJaS9A6urrOPzRYcNpzJs7 ax7JySkAo4BxhuOIiIh1VgHMT1+Cy+UynaXX7X9/F2fPnCAuPo7JM6aajmMJb5uXkvyi4KnarwxS AdJ38gDf5l27qA48+rOFGRMmMHjAAAD+/NqrhtOYFxsby/y5oY2aVprMIiIiloqq3c+D7VeTZ0zF aZOCa9e2HdRcrYbACqVbDMeJaipA+k4VsL3N66W4stJ0Fsu4nE6yZs0CIL8o33Ca8JCdkRM8jI7f UiIi9jcOGJWS0o+Zs9NNZ+kTwQLks1+2bfuVz2CUqKcCpG/Zc1f09jasM2dOc7X6quE05i1ISycu Lg4Cv7DuMxxHRERu3SqAtAU5xMbGmc7S6z48tI8Txw4TExvLjHmzTMexhM/noySvMHiq9ivDVID0 rXUABeXl+P1+01kskzV7NjFuN378vLPubdNxjEtKTGLOzNCGTWrDEhGJfIH2q5zo+JEefPoxYfJE 3G634TTW2PfeHi6evwBwCbDXvggRSAVI39oJnD9fVcV7B+2z8Wa/5GRmTZoEwN/WvGE4TXjQalgi IrbxIDA2ITGJOfOyTGfpEwV5gf35nvzyU4aTWKc4N/T0Yy2B1UnFIBUgfcsP5IP92rCCu6LvP7CP Nm+b4TTmZaZn4XK5IbAh4TDDcURE5OY9BjBnbiYJCYmms/S6ox8d4vAH+3G73cxdOL/nb4gQhetC 81TVfhUGVID0vcA8EJvtB7JsfuCHlKfNQ+WWCsNpzBvQfwDTJk+DwN+xFYbjiIjIzYuq9qvC/DUA PDxxHLGxsYbTWOOD/Qc5e+oMQA1Q1MPbpQ+oAOl7BYBn+759XLxyxXQWy9x7113cP3IkAK++9kez YcKE2rBERCLePcDkuLh4FixcYjpLnwjO/3jii58znMQ6HVa/Wge0GIwi7VSA9L0aoNLn81FYYa8n BcE2rM2V9tps8WZlZ+bgcDgA5gEDDccREZEbtwJg+sz5JCWlmM7S606dPMr+93fhcrlIz84wHccy RdcKELVfhQkVIGYEdkW36TyQmtoajh4/ajiNebcPvZ3xj0wAiAGWGo4jIiI3bhVAVpS0XxUVBFay fHDsGOITEgynscaxI0c5+uERgAba2+DFPBUgZuRCYDneNq99FmKYNWkSA1JTAfjz638ynCY8qA1L RCRiDQNmuFxu0jOWmc7SJ4LtV595+rOGk1inQ/vVeqDRYBTpQAWIGe8DJ67W1rJt717TWSzjdrnI DO6Kvj7XcJrwkJO1OHiYCSQZjCIiIjdmOeCcMm0O/QcMMp2l1104f4Y9723F6XSSscQ+yw2X5Kn9 KhypADEnHyC/3F7zJYK7op88fZLa2lrDacy7Z8Q93D/6AYAEILuHt4uISPgItF9lR0f7VWHBGnw+ H6MevJ/kFHvMdzl94hQH9u4HaCWw/4eECRUg5uSC/fYDWTR7Nm6XC7/fz9q8d0zHCQvZGTnBQ7Vh iYhEhsFAmtPpJDM7On50F+QGHhCs/PzjhpNYZ0NBaMXdYgKLAEmYUAFiTjHQvOfQIc5cvGg6i2UG 9uvHjAkTAHjjrdcNpwkPHeaBLAbssai6iIi9LQVc4ydOY/Btt5vO0usuX77Iju3lOBwOslfYZ7nh Yq1+FbZUgJjTAJT5/X4KbPYUJLga1t59e7QrOjB2zFjuvmsEQD8g3XAcERHpWVS1XxWvfwef18vI UffSb0B/03EscenCRfbu3A3QBqwxHEc+QQWIWXlgv3kgwQLE4/GwbftWw2nCQ9bCRcHD6HiWLyIS uVKBhQ6HI3rar9pXv3rss6sMJ7HOhoJifD4fQDlQZTiOfIIKELPWARRVVtLq8ZjOYpkH772XUSNG ANoVPSj7WhvWcsBlMIqIiHRvMRA35uEJDL9zpOksva6m+gpbNm/A4XCweNVy03EsU7yuIHio9qsw pALErMPA4bqGBjbv2mU6i6Vy5s4FYFNFmeEk4eHRiZMZcttQgCHALMNxRESka6sAMqOk/WpD8Tra 2jzcOeIuBt022HQcS1Rfucr2yq0AflSAhCUVIObZcjWsYBtWdXU1x08cNxsmDDidTjLTM4On0fFM X0Qk8iTRvmT6ohz7tCN1J9h+tfTxFYaTWGdjYQk+rw9gK3DGcBzphAoQ8/LAfgXInEcfpX/7OuKv rf6L4TTh4RO7ojsMRhERkc5lAYmjRo9h5L33m87S6+rraynfGFgpavmT9im4inMLg4d6+hGmVICY VwrUHzp6lKOnTpnOYpkYt5uFM2YAsC7/XcNpwsOs6bPol9oPYAQwyXAcERH5tJUQPe1XZRvyaW1t 4Y7hwxh6hz2WG26oq2dL2ebg6d9MZpGuqQAxrwUoASiw2WpYwV3Rj588Tn19neE05rndMaSnLQye qg1LRCS8xAFLgKhb/Spn5VLDSaxTVlxKa2srwG7gmOE40gUVIOHBlm1Y2XPm4HI68fv9rFu/znSc sNChDSs6bq+JiESOdKDf3SPu46Ex401n6XVNTY2UluQCsMJGy++WaPPBiKACJDysAyjdto3G5mbT WSwzeMAApo4bB8Drq18znCY8pM2ZT2JCIsBDwIOG44iIyDWB9qtF0fH0Y3NZIc1Njdw2dAh3jRxh Oo4lmpua2FSyMXiqAiSMqQAJD6eAfU0tLWzcvt10FksFV8Pavfc9vF6v4TTmJSQkMHf2vOCpnoKI iIQHN7AComf+R7D9KmtZjuEk1qncuJnmpmaAQ8B+w3GkGypAwkcuQL7N2rCWpKUB0Nrayo5dO8yG CROfWA1LRETMmwsMumPYXYybMMV0ll7n8bSyoSiwQMxjn/uM4TTWKc5T+1WkUAESPnIBcsvstXHf w6NGMXL4cAD+pF3RAciYn0lMTAzAo8DdhuOIiEj7E+mFmctxOOy/Snrl5hLq6moYOGgg9z0w2nQc S3g8Hjau3xA8VQES5lSAhI/NQPXxM2c4dPSo6SyWCu6KvrG81GyQMJGamsqMaTMhsBeInoKIiJjl JMp2Py/IDYzPM5Zm9/DOyLGtfAt1tbUQWPlqp+E40gMVIOGjDSgE+62GFZwHcuXqFU6fsc9eJ7di 0UK1YYmIhInpwO2DBg3h0SmzTGfpdd62NorWvw3Ytv1qjckccn1UgIQXW84DmTdlCilJSQC8tvqv htOEh+yMbFxOF8BsYIjhOCIi0WwlQHrmMlwul+ksvW7b1jKqr16mX/9+PDh2jOk4lvC2eSnJ0+7n kUQFSHjJBXzlu3ZR19BgOotl4mJjQ7uir81dazhNeBg8+DYmTXwUwAUsMxxHRCRaOWhvv8qKlvar 9tWv5i/KMJzEOru376T6ylWAc0CF4ThyHVSAhJeLwK5Wj4fiLVtMZ7FUcB7IsRNHqW+oN5wmPGRr NSwREdMmAiNT+w1g+qz5prP0Oq/XS2HeWwCsfOpxw2msU3zt6ccawGcwilwnFSDhJxfsNw8kZ948 nE4nPp+P9UUFpuOEhezMnOBqK+lAquE4IiLRaCXA/PTFuN0xprP0ut27tlBVdYHklGQemWiP3d79 fj9F60LjCrVfRQgVIOEnDyCvrAy/3286i2WGDBzI5LFjAfjr3/5sOE14uHP4XTz80MMAccBiw3FE RKLR4xB97Vdz0tNss9zwvt17uXj+AkAVUGo2jVwvFSDhZxtw8dylS+z94APTWSy1uL0Na9eeXfh8 ekIK2pRQRMSgMcD9SUkpzJ6XaTpLr/P7/RTkrgbgM1940nAa6xTnhla/epfAiqISAVSAhB8fUAD2 a8MKLsfb0tLCe3t2GU4THjoUINlAgsEoIiLRZhXAnLQs4uLiTWfpdfv27uT8udMkJCYycdpk03Es U5yr1a8ikQqQ8BRow7JZATL+wQcZMWwYAK/+9VXDacLDA6Mf5L577gNIBuyzJImISPhbCdHXfjVj 3mycTnsM/z48+AGnjp8AqAXW9/B2CSP2+D/QfvKBtq179nC5utp0FkstmjMHgNJNJYaThI+shYuC h2rDEhHpG/cBE+Li4klbkGM6S59Y316APP60fdqvSq61X+UCLQajyA1SARKergJbvT4fhRX2Ws46 2IZVdbmK02dPG04THjq0YS0D3AajiIhEi5UAs+YsJDEp2XSWXvfBwfc5cfwIcXFxTJk13XQcyxTl avWrSKUCJHzlAhSUl5vOYan5U6eSlBCY6vC3N183nCY8TBg3kWF3DAMYCMwzHEdEJBqsBMiMsvar KbOn43bb4z7X8Y+OceTQYYAm2lvXJXKoAAlfuQD55eV4bbRiVHxcHAumB+6+rM17x3Ca8OBwOMhM zwqeqg1LRKR33QVMi4mJJT1zmeksfWJ9XnD1q88aTmKdkmubD64HtMNxhFEBEr72AGeqrl5lx759 prNYKrgc75GjR2hsajScJjx8Yjle/b0UEek9KwDH1OlzSU3tbzpLrzv60SEOf3iAmJgYZqbNNh3H MsV5ofkfar+KQBrohC8/7Y8U8222GlbOvHk4HA58Ph+FJVq0AmD6lBkMGjgIYBgw1XAcERE7i6r2 q/V5bwEwadpkYmNjDaexxrnTZzmwZx9AK6B2igikAiS85YL9luO947bbmPjQQwD89Y2/GE4THlwu Fwvnh1bhVRuWiEjvGALMcbpcLMxabjpLnwiufvWZp+3VfuX3+wE2APZaLjRKqAAJb4VAy64DBzhf VWU6i6WCq2HteG978IdI1OvQhhUdt+VERPrecsA16dEZDB481HSWXnfq5FH273sPt9vNnHT7rHGi 9qvIpwIkvNUD5X6/33arYS1JSwOgubmZvfv2mA0TJubOmkdycgrAKOARw3FEROwoqjYfXJ8faL96 ZNJ44ttXoIx0VRcvsXv7LgAvsMZwHLlJKkDCny3ngUx86CGGDxkCwB//8gfDacJDbGws8+fOD55G x29HEZG+MwBIdzgc0TP/I7e9/eoL9tl8sHR9Mb7A6qCbgYuG48hNUgES/tYBrK+owNPWZjqLZRwO B4vaV8Mq2ahd0YOyM0I78moeiIiItZYAMY+Mn8ztd9xpOkuvO3f2FHt2b8PlcpGWtdB0HMsU54aW 31X7VQRTARL+DgEf1dbXU7l7t+kslgoux3up6iLnL5w3nCY8LEhLJy4uDmA8cJ/hOCIidrIKIHNR dNzfKVr/Nn6/n4ceeZik5CTTcSxRU13D9s1bILBS6GrDceQWqACJDHlgv9WwFs6cSWJ8PAB/W/OG 4TThISkxiTkz5wZPo+O3pIhI70sBsiCalt8NPCBY+dQThpNYp6ywhLZAN8h24LThOHILVIBEhkAB UlZmOoelEuLiSJsa2PLi7XffMpwmfHxiU0IREbl1i4D4Bx56hBEjR5nO0uuqLp1nx7ZyHA4H6dkZ PX9DhCjO1epXdqECJDJsABr3HznCibNnTWexVHA53g+PfEhTU5PhNOEhMz0Ll8sNMJ3AxoQiInJr oqr9qrhwLT6fj/vHPEC/AfbY7b2hvoGK0tCKoGq/inAqQCJDE4EixHbL8XbcFb1kY7HpOGFhQP8B TJs8DQJ/P6NjpywRkd4TDywGyMpeZThK3wi2Xz32uccNJ7HO5g1ltLa2ArwPHDEcR26RCpDIYct5 IHcOHcq4Bx4A4C9v/NlwmvChNiwREctkAMn33PsAox942HSWXldTfYUtFaU4HA4yliwyHccyar+y FxUgkSMXYMPWrTS3tJjOYqlgG9b2ndu0K3q77MwcHA4HQBow0GwaEZGItgogY9EK0zn6REnRu7S1 ebhn1L0Mum2w6TiWaGluZlNxafBU7Vc2oAIkchwDDjY0NVG2Y4fpLJYKLsfb2NTI/oP7DacJD7cP vZ3xj0wAiCGwdr2IiNy4WNpbWaNm9/P29qsVn7VPu1llWQWNDY0AHxBowZIIpwIksuQC5NtsHsjk sWO5fXDgLs2rf9Wu6EFqwxIRuWXzgP7Dho/g4Ucmmc7S6+rraykvC2zUl7V8seE01unQfrXGZA6x jgqQyJIL9psH4nQ6WTRnDgBFG4oMpwkfOVmhXx5ZgD12kRIR6Vuh9qv2tlZb21iSR2trC3eNvJuh d9xuOo4lPB4PpQWhRWo0/8MmVIBElk1AzZETJzhy4oTpLJYKzgO5cPE8l6ouGk4THu4ZcQ/3j34A IIHAGvYiInL9XMAKiJ72q4L29qulj9vnwfnOym3U1dYCnCSwAaHYgAqQyOIBigFybbYpYcbMmcTH xgKw+m3NLwvKzsgJHtrnt4mISN+YBQy9bcgdTHx0huksva6psYGNG/IAWLxymeE01inOLQwevgVo pRqbUAESeWw5DyQpIYG5U6YA8NZaPWEN6jAPZAmByZQiInJ9VgIszFyG02n/4U75pkKamxq5Y/gw ht99p+k4lvB5vZTkhwoQDQ5sxP5/I+0nF/CX7dhBfWOj6SyWCrZhffDhIVpsttTwzRo7Zix33zUC oB+wwHAcEZFI4SC4+3m0tF/lBsbnSz5jn/1rd+94j8uXqgDOA/a68xrlVIBEnnPA7pbWVjZs3Wo6 i6WWpKUB4PV6Kd20wWyYMJK1MDT9Q21YIiLXZwpw54CBg5k2fZ7pLL2upaWZksK1AOQ8ttRwGusU 54VWv3oH8BmMIhZTARKZbLka1t133MHY0aMB+PPrfzKcJnxkX2vDWkFgUqWIiHRvJcD89MW43G7T WXpd5eYSGhrquG3oEO4ZfZ/pOJbw+/0UvVsQPFX7lc2oAIlMeQB5ZWW22zk82Ia1dfsWw0nCx6MT JzPktqEAQwhMqhQRke5FVftVcPPB7BX22bf24N79XDh3HuAKUGI4jlhMBUhk2gJcPn3hAvuPHDGd xVLBAqShsYGDHxwwnCY8OJ1OMtMzg6dqwxIR6d44YFRyciqz5iw0naXXedvaKG5vv1q8ykarX11r v3qXwCqgYiMqQCKTFygA+7VhTRs3jiEDBwLw6l9fNZwmfHxiV3T776YlInLzVgLMW5BNbGyc6Sy9 buuWjVRfvcyAQQN54OGHTMexTOG7+cFDtV/ZkAqQyBVqw7ITp9NJ1uzZABSWFPTw7ugxa/os+qX2 AxgBTDIcR0QknK2C6Nl8MNh+lbUsp4d3Ro4jhw5z8tgJgDrab7iKvagAiVz5gLdy926q6+pMZ7FU Tnsb1rnz56iqumQ4TXhwu2NITwu1EqgNS0Skcw8CYxMSk5g7P7vHN0c6r9dLYf4awLbtV/lAs8Eo 0ktUgESuKmB7m9dLYUWF6SyWypw5k9iYGADeevctw2nCxyfasERE5NMeA5g9J4OEhETTWXrdezsr qaq6QGr/foydMM50HMsU54YKELVf2ZQKkMgW2BXdZvNAUpOTmfPoowC89Y5+9gSlzZlPYuAX6hgC d/lEROTjVgJkZkfHfZqC9var9OxMHA57TA88dfwEHx44BIEnH+8ajiO9RAVIZMsHKKyosN1yvIvm zAHgwKH9tLa2Gk4THhISEpg7O7ShVnT8dhURuX4PAZNjYmKZv9A+y9F2xe/3h+Z/2Gn38+LcwuBh IVBvMIr0IvvvzmNvO4GL5y5dGrL70CEmPmSf1S+WzJvHt37+c7xeL+UVm1iQlm46UlhYlJFNfmEe BAqQnxqOIyIf5wT6dfG1FDr/nRsHdNUrNKCL15OA2E5ejwGSu/iefnR+0zEBiO/kdReQ2sW1wvXP AsCMWQtISenqP4N9vL9nB+fPnSYpJZmJUx81Hccyar+KDipAIpuPwGpYX8orK7NVATJqxAjuHzmS D48f50+vv6oCpF3G/ExiYmLweDyTgbuBk6YzSdjpanAYS2Cw15kbHRy62z+nMzc60DU9aLfyzyJh INrar9IyFuB02qOh5fzZc+zbvRegDXjHcBzpRSpAIt+7wJfWlZXx3a9+1XQWSy1bsICXf/c7KrZs Nh0lbKSmpjJj2kzKyjc6gBXALw3G6WpA293grKuv3ejrpq8VDp8vhsXFxpIY/+n/PPFxccTHfXr/ ifi4OBJu4PWevudGPiP0tc7yxsZ2+npcF6939f7uvnbDn9HNn+OTTp47x6isLPx+Py6Xm4WZ9mlH 6k7+ur8BsPTxFYaTWGdDflGwpbyUwA7oYlMqQCLfesCzY9++mItXroQ28bODnLlzefl3v6O+oZ7D Hx1m9H2jP/Z1r9dLfUPn7aHNzc20tHx65b7m5mZaWls6fb255dOvX/ueT1/r6tWrn7pWa2srjY0N H5u34vV58Xg8oa8Hv9bx8zyeVlo9HrxtbXh93o9ds6Wlhebma59/8dLF4OEPgKWdRO6rQbOECasG qX0xEO5qEAyRPxAWM94uLg7Ng5w8dTYDBg42nKj3HTq4l9OnjhGfEM/kmdNMx7FMkdqvooYKkMhX C2zx+Xxziior+fzixabzWGbGhAkMSE3lam0tmUvTcbo+/ojZ6/Xi9Xq7+O6oMBhY2OO7wkBKUhJu l+tTryfExxMX++muGLfLRUpS591C/VNSOl3tJTkxkRj3p3+kdTWwdDqd9EvuvMW8X0pKpy0NiV3k jY2JITEh4VOvO4D+qZ230ackJuLuJG9CFwN61038OxGJBm+XlISOo6b9KjcwPp+Tntbpz5FIdKXq Mu9t2wHgRQWI7dnj/1rJBebkl5XZqgBxu1xkzprFa3l5tHnbAj+SblG/5OQuB5axXQwskzobWDoc 9E/pvG38hgfbbjcpiZ23s/dPTe18sJ2QQEz7XimfzNvZQNjpcNCvi7zd/TvpLG/MTfw7ERHpDRev XKF8504gcFMhI8s+7UjdCa5+tewJ+xRcpQXF+Lw+gErgguE40stUgNhDLvDT9RUVeH0+XDaZjAbw q+9/nxe/8Y1OvxbbRf91d3e2RUTEPt4pKcHr8wEwfsJUht4+3HCi3vfRkYMcOXyA2Lg4ps2ZaTqO ZTrsfq6nH1FABYg97AWOX66uHrll925mTZpkOo9lBqSmMqCLFhYREYlub+Tnh44zoqX9qv3px/S5 Mzt9ch+Jamtq2bqpEsCPCpCoYJ9b5ZIHkGezXdFFREQ6c+nqVTZu3w4EWkAX5awynKhvrG+f/7H8 iZWGk1inrHADbW1tENjf7IThONIHVIDYhwoQERGJGu9u2BBqv3pozHiG3znSbKA+cPLERxw8sIeY mBhmzZ9jOo5l1H4VfVSA2EcJ0Pz+hx9y+oLmbomIiL29WVgYOo6W9qv1+W8B8OiMqcR3shhIJGpq bKKitDx4+jeTWaTvqACxjwZgo9/vp0BPQURExMau1tZSvGVL6Dwr2z7tSN0Jrn61/En7/HnLN5TR Etjraj9w2HAc6SMqQOwlFyC/vLyn94mIiESs3LIyPIE5A9w36iHuG/WQ4US97+zZk+zdvR2X28Xc hfNNx7FMybXNB1ebzCF9SwWIvbwLUFRZSUuHnbhFRETs5K0O7VfRsvlgUcHb+P1+xj86kaTkzjcl jTQtLS2UFW0Inmr+RxRRAWIvR4EP6xsbKd+1y3QWERERy9U1NFCweXPoPDPK2q9WfNY+q31t3VRB Q30DwEfAHsNxpA+pALGfQBuW5oGIiIgN5ZeX09zSAsBdd9/LmIcnGE7U+y5dPMfO7ZtxupzMX7TQ dBzLFOeGnmTp6UeUUQFiP7mg5XhFRMSeOrZfZWStMJik7xQXrsXn8zFm3FhSbLI5r7fNS+n64uCp CpAoowLEfjYCdR8cO8ZHJ0+aziIiImKZxuZm1m3cGDrPzImu9qvlT9qn/WrHlm3UXK0GOAVsNRxH +pgKEPtpJbAniFbDEhERWymsqKAxsGQrdwy7iwkTpxlO1Ptqqq+wtXIjDoeDBbZqvwqtfrUG8BuM IgaoALGnPNA8EBERsZeO7VfpGctwOBwG0/SN4sK1tLV5uH/MAwy6bbDpOJbw+XyUaPfzqKYCxJ7W Af7S7dtDd4pEREQiWUtrK++WlobOo2X53WD71bIn7NNutnfnbqouVgFcBHS3NAqpALGn08D7zS0t lG7bZjqLiIjILSvZupWa+noABg0awuSpcwwn6n319bVs3lQEQMaSRYbTWKdD+9U7gNdgFDFEBYh9 aTUsERGxjTc7tF8tyFiKy+UymKZvlBbn0trawr33j2LI7UNNx7GE3++nWO1XUU8FiH3lAeR2WC1E REQkErV5vazdENoxO/rarx63z5/30L4DnD11BuAqUGQ4jhiiAsS+KoCrJ8+d4+BHH5nOIiIictM2 bt/O5epqAFL7DWDm7HTDiXpfU2MDG0vzAchcmm04jXU6bD64DvAYjCIGqQCxrzZgPagNS0REIlvH 9qu0BTm43TEG0/SNso0FNDc1ctfIuxl213DTcSxT+G5e8FDtV1FMBYi95YEKEBERiVxen4+3i0M7 Zkdd+9XSz9hnt/ejHx7hxNHjALfIhKcAABp9SURBVA1Avtk0YpIKEHvLBXybd+0KrRwiIiISSSre e48Lly8DkJCYxJx5WYYT9b6WlmY2FK0DIGv5YsNprNNh8nk+0GQwihimAsTeLgE7PW1tFFdWms4i IiJywzq2X81NW0R8fILBNH2joryYhoY6bh9+ByPuHWk6jmU6zP9Q+1WUUwFif7kA+eXlpnOIiIjc EL/f/7HdzzMXRVf71eKVywwnsc6pEyc5tO8AQDOw1nAcMUwFiP0FCpBNm/D7/aaziIiIXLdt77/P mYsXAYiLi2f+Qvu0I3XF42mlqOBtALKW5RhOY52SvFAhWQzUGYwiYUAFiP3tAC6cu3SJPYcOmc4i IiJy3Tq2X82cnU5SUorBNH1j25YyamurGTzkNu4f86DpOJZR+5V0pALE/nxAAUBuWZnhKCIiItfH 7/ezen1o0jIZUdZ+lf3YEsNJrHPh3Hne37UbAlsEvG04joQBFSDRQfNAREQkouw+dIgTZ88C4HK5 Sc9YajhR7/N6vbZsvyotKA62gZcBlw3HkTCgAiQ6rAfatu3dG9pJVkREJJx1bL+aNmMe/QcMMpim b+zaUUFV1QX6DxzAw+MfMR3HMsW5oSdZar8SQAVItLgKVHp9PtZXVJjOIiIi0qOO7VfRtvpV1rIc HA6H4TTWuHr5Cju2bINAS/hqw3EkTKgAiR55APmaByIiImFu/5EjHD5xAgCny0VGFOx+7vf7KehQ gNhF6foSfF4fwBbgvOE4EiZUgESP0DwQr89nOouIiEiXOrZfTZw0ncGDhxpM0zf27t7OhfNnSElN ZcKUSabjWEbtV9IZFSDRYy9w+kpNDdvff990FhERkS69GcWbD6YvzsTptMfwrL6ujm3llQB+1H4l Hdjj/3C5Hn46bEooIiISjj44dox9hw8D4HA4yIyC9iuA/NzA+Dx7uX02W9xUVEprayvAbuC42TQS TlSARJc80H4gIiISvtYUF4eOH35kEsOGjzCYpm8cPLCH06eOkZScxJSZ00zHsUxxnjYflM6pAIku hUDL7kOHOHvxouksIiIinxKV7Ve5gfF5WlY6TpfLcBprNDU2UV6yMXiq9iv5GBUg0aUB2OT3+1m/ ebPpLCIiIh9z7PRpdh04EDpflLPKYJq+k7fubwBkr7DP7ucVpZtobmoGONj+j0iICpDoo13RRUQk LHVsvxr9wMOMuGe0wTR948jhAxw7+gHxCQlMnzvLdBzLFOdp9SvpmgqQ6JMLUFhRQavHYzqLiIhI SMf2q6zs6Hj6EVz9as6CubjdbsNprOHxeCgrLA2eqgCRT1EBEn0+AI7U1tdT8d57prOIiIgAcOr8 ebbu3Rs6j5b5HwXt8z+yH1tqOIl1tm6qpL6uDuAosMtwHAlDKkCiU2BXdLVhiYhImHinpAS/3w/A Pfc+wAMPPWI4Ue87cfwIhw7uJSY2llnz55iOY5mSa+1Xb5nMIeFLBUh0ygXI034gIiISJjq2Xy3M Wm4wSd8pzA+Mz2fMm0VcfLzhNNbwtnkpyS8Knqr9SjqlAiQ6lQKNB44c4cTZs6aziIhIlDt36RLl u6516kRN+1X7/I8cG7Vf7dq2g+orVwHOAlsMx5EwpQIkOjUDJaBd0UVExLx3S0vx+XwADBt2N4+M n2w4Ue87e/Yk7+/ZgdvtZu7C+abjWKY4N9R+tQbwGYwiYUwFSPTKA7VhiYiIeR9rv1q0AofDYTBN 3yjKX4Pf72fyzGkkJiWajmMJv99PiXY/l+ugAiR6vQtQsmULTS0tprOIiEiUulJTw8bt20Pn0dZ+ tXilfdqv3n9vDxfPXwC4RKDdW6RTKkCi10lgf1NLC2UdfvCLiIj0pbUbNuBpawPgtiF38OgU+2zG 15VLF8+xa0cFLpeLtKx003EsU5wbevqxFvAajCJhTgVIdNNqWCIiYlTH9qv0jKU4nfYfmhStfwef z8f4yRNJSU01HccyRevyg4dqv5Ju2f9vuXQnD2Ddxo2mc4iISBSqqa+neMu1hZIyoqT9an2o/WqZ 4STW+WD/Qc6cPA1QCxT18HaJcipAols5UHP8zBk+PH7cdBYREYky6zZupKW1FYB+/QcyfWaa2UB9 4OqVKrZWbsThcDB/0ULTcSzTYfWrdYAml0q3VIBENw/tdynyysoMRxERkWjzVof2qwULl+B2xxhM 0zdKit7F621j7IRxDBw8yHQcyxRr9Su5AW7TAcS4fGDV+ooKnv3iF01nERGRCOT1+aitrwegpbWV puZmABqammj1eACora/H6/Ph9/uprqvD7/dTWFERuka0rH4Var9aZZ/2q2NHjvLRB4cBGmifXyrS HRUgkgf4y3bscDQ0NZGUkGA6j4iIdFDf2BhaJaqmfeDu9XqpbWgAAgP+xs4G/HV1+Px+fD4fNe3F QavHQ0NjIwBNLS00ty/DXt/YSFv7Z1ytrQWgzeulrv0zmjsWFR3yBAuJW5WQmMTMOfZpR+pKQ0Md lZtLAEjLXGA4jXU6tF+tBxoNRpEIoQJEzgB7mltaJmzYupUlaWmm84iI9AlPWxv1wcF4c3NoLkJd QwNt3sAKosHB+CcH/B0H460digOfz4fP76emrg4IDPgbm5oAaOzwGbUNDXi93tDTAIC2DnmaW1oi cY+mzna9drT/0625aYuIj7f/DbDS4lxaWpoZ/eD93D58mOk4linJCxUgar+S66ICRCCwKeGEdRs3 qgARkZvW2YC+qbmZ5vZBd3fHLZ94vam5OXR3vuOd+uYOx8HXmzp5rav3RpiOjxYiYWvwbueVJiQm ERMTGzhOSCQ2Ng6AuLh4Vqx6uvfThYHQ5oOrlhtOYp0zJ09zYO9+gFYC+3+I9EgFiECgX/P7+Zs2 4ff7cTgi4fecSPTo2ELT2WC943FPA/vQ8ScG7l0N1js7tsHAPlKEfhjHxsYRn5AIBAbswacFcXHx xMXHd/F6wnW8Ht/t+2M/8b0dn1LEfuL7O/seuaapsYHSksD0iMyl2YbTWGdjYUnoEKgxGEUiiAoQ AdgGVJ2+cGHwvsOHeeT++03nEekzrR4PDe0tMjdz176zgT10fie+p4F9x/d+8nWxRvcD874fyHcc xHf3PRL5ykrzaWlu4p5R9zLsruGm41jizT+/wb+/9L+Cp6tNZpHIogJEALxAAfBUblmZChCxRMdV cUzdtdfAvvekpPYHArfo4+ITwmog3/mdeg3kxSw7tV9VXazihX/8HpuKS4MvvQP81VwiiTTqtZGg p4BXZ0+axIb//E/TWaQHwVVvehrYdzzuaWAPt37XXgP7G+NwOEhMSsFBYJAcFxeHw+HE4XAQFxdH XHwCTqczLAbyGsSL3LyWlmamT7idxsZ63t5UwIh7R5qOdNNWv/oa/8+LP6MhcIPpMvA14A2zqSTS 6AmIBOUB3srdu11XamoY2K+f6TxGdFx2ssuJsb0wibbjse7a3ziHw0FCQhI4ICYmlri4+PZB/LW7 8U6Hk/iEBOLiAoP6hIREDeRFpE9s3lREY2M9d464K2KLj6qLl/jhf/8e5SUbgy+tBf4LcMFcKolU KkAk6Aqw1evzzSyqrOSJRYss/4Dg4Lq37trfyCTaYB7dtf84p9NJbFxg0BwTE0tsbBwOh4PY2Dhi Y2MDg/r4eGJj43E6ncTHJxAbF4/L6cTpcpGQkERSUjKggbyISFBo88GVkbn54Ib8Il789g+4cvkK QD3wfwF/MJtKIpkKEOloJzDzN3/5CyfOnv3YhlUd16+vC65fD1S3r5H/seU3O25u1cl6+tHG6XQG lp50OHC1D/AdDkfoLrzD4cDhcJKcktreE+mgX/8BgSOnk/79BoLDgdvtIjV1AA6nk9jYOFJSUnG5 XAAkJiXjdscEjjssdRnfYanL+PgE4tqLi46D+piYWBITkwBwu2NIbC8gRETk1nnb2thQvA6A+Ysi a7PF2ppaXvz2Dyh8Nz/4UhnwDHDMWCixBc0BkY5mA5tMh+iK0+kMDbJdLldokO1yu0OD7JiYmFD7 jdsdQ3xCIk6nC7fbRWJiYJDudDpJSk4JFAJAckpq6E56auoA4tt3g09KSsHtDtToHQf4H1u/Pj4+ NKjveHc+JjaOhPYlM0VEJHpVlBfz5aeyuO32IRTuDNtfsZ+yvWIrzz/3T5w7fRagBfgO8Cs633BS 5IboCYh0VEHgh0sykAWEtmm9Y9hdDBx0G06nk+Tk1Pa79g769R8EgNPpYMCAwLHL7aZ//0Gh1p3U fgNCd/uTk1NxdRjUxwQH9YmJnW5QpTYbERGJZOvz3wIgZ8VSw0muT1NjEy+/8FPe/NPr+P1+gPeA p4H9ZpOJnagAkY58wDfajx0EfuD8GzD40sXzLFn+Ob7xzX8OFQciIiLSNa/Xy/rcwPyPSNh88MCe fXzv2W9z7PBHEFii/0fAjwGP0WBiO07TASRs+QlMMBsL/LGtzcMrv/kZSzLGU7m5pIdvFRERkZ3b N3P58kUG3TaYMePHmo7TJY/Hwy9+8jJPL30iWHx8SKAt+4eo+JBeoAJEenIB+CKQAxw/cfwIX34q i28/9wzVVy8bjiYiIhK+gqtfZS3PweEIz2m3x44c5ZkVn+P3v34Fr9frB34JTAC2GI4mNqYCRK5X HvAw8JLf7297+81XyVk4jjWr/2g6l4iISNjx+/2h+R8Zi61f2v5W+Xw+fv/rV3gyczn7d78PcJrA /M9ngSaj4cT2wrMcl3A3HvgtMBVg3vxs/vlHv2L4nSONhhIREQkXu9/bypMrZtF/QH9K9lbidIbP Pd9TJ07yg2e/w+7tu4Iv/Rb4NlBjLpVEk/D52yCRZA8wA/gqULdxQx45C8fxym9+hrd9zw8REZFo Fpx8nrE0O6yKj9WvvsZnMx8LFh9VwOMEfp+r+JA+oycgcquGE1i69zGABx8ax49e+i2PjJ9sNpWI iIghfr+f9NmjOXP6OL99/T+ZOmu66UhcunCRF/7xe5SXlAVfegf4rwTmeor0qfApySVSnQFWAsuA M4cO7uXJx2bz4x8+R0NDneFoIiIife/A/t2cOX2c5JQUJk+fYjoOJXmFPJGxPFh81AFfApaj4kMM UQEiVllLYMneX3q9bb4//P5XZC8YS2HBGtO5RERE+lRw9av0nEycLpexHDXVNXzrq8/yza98nauX rwCUAuMILLMvYowKELFSNYHVM+YBBy6cP8PX/+tn+Pu/W86F82cMRxMREekb+bmrAchYYm71q63l lTyZuZzCd/MBWoD/BiwAjhsLJdJOc0Ckt8QA3wReAOJSUvvzjeee5wvPfD2sJuOJiIhY6fCHB1iS MY7EpETKDmzH7Xb36ec3NTbx8gs/5c0/vY7f7wfYRWA/r/19GkSkGxoJSm/xAC8RaMsqrqut5scv fJMvPDGfI4cPGI4mIiLSO9bnBZ5+zMtY0OfFx3vbdvL4wqWsfvU1/H6/B/gnYBoqPiTMqACR3nYE yCAw4e3yzu2bWb7oUV7+1+/S2tpiOJqIiIi1Ctrnf2Quze6zz/R4PPziJy/zlc88zekTpwA+AGYT uBHY1mdBRK6TWrCkLw0Ffg48DTDintH8y0/+g+kz55tNJSIiYoFjRz9g0fyHiYuLo+zANuLi43v9 Mz88cIjv/d/f4vChDwF8BH7PvoB2M5cwpicg0pcuEOhDXQwcP3HsMM98PpNvP/cM1VcvG44mIiJy a4oK3gZg9oK5vV58+Lxefv/rV/jCkseDxccpIItA25WKDwlrKkDEhFzgYeAlv9/vffvNV8lZOI41 q/9oOpeIiMhNC7VfLcvp1c85dfwEX175FL/4ycu0trQC/BZ4BCjq1Q8WsYhasMS08cArwBSAefOz +eGP/51hw0eYTSUiInIDzp45wYJZo3C73Wzcv43EpETLP8Pv9/Pmn17n3/7lJRobGgCqgL8HVlv+ YSK9SE9AxLQ9wEwC65PXb9yQR3b6I7zym5/h9XoNRxMREbk+hflr8Pv9TJ87s1eKj0sXLvL1p/8L L37n+WDx8TaBbgIVHxJxVIBIOGgDfkHg8XFec1MjL//rd1m1ZCrv79lhOJqIiEjPerP9KvfNtaxM y2Hzhk0AV4EngBXARcs/TKQPqAVLwtFS4DfAcJfLzVNf/BrPfetFEpOSTecSERH5lIsXzjJv+kgc Dgel+7aQkppqyXVrqmv40XeeD+5mDrAB+DJwwpIPEDFET0AkHK0lsIHhL73eNt8ffv8rlmROYFNp gelcIiIin1K8/h18Ph+TZ061rPjYVFzKyrScYPHRCHwVSEfFh9iAChAJV9XAs8A84MCZ08f5ypcW 8+w/fJbLl/XEWUREwkew/Spr2eJbvlZjQyMvfud5vvGlv+fypSqAHQQWavkt4L/lDxAJA2rBkkgQ A3yTwMZKcSmp/fnGc8/zhWe+jtOpGlpERMy5cvkSs6bcCX4/JXsq6D9wwE1fa9fWHTz/3D8FdzP3 AD8A/g3tZi42o9GbRAIP8BKBSeoldbXV/PiFb/L0kwv46MhBw9FERCSalRStxef1Mn7yxJsuPjwe D7/4yct85TNPB4uPQ8AsAr/7VHyI7agAkUhyGFgIfAm4vGNbOcuyJvHyv36X1tYWw9FERCQaFeQG 2q8WLb+59qsP9h/kc4se4/e/fgWfz+cjUHRMBLZbFlIkzKgFSyLVUODnwNMAI+4Zzb/85D+YPnO+ 2VQiIhI1amuuMmPSMLzeNgp3lTN4yODr/l6f18t//u/f8R8v/xJPayvASeDvgOJeiisSNvQERCLV BeCLwGLgxIljh3nm85l8+7lnqL562XA0ERGJBqUlubS1eRgzbuwNFR8nj53gmcee4hc/eTlYfPyW QJuxig+JCipAJNLlAmOAl/x+v/ftN19lccZ41qz+o+lcIiJic8HVrxatuL72K7/fz5/+zx94ImMZ e3e+B3COwI20rwK1vRRTJOyoBUvsZAKBu0hTANIW5PDPP/oVw4aPMJtKRERsp7GhnumT7qClpZnc ymKG3TW82/dfPH+BH/7371JRWh586S3g79Fu5hKF9ARE7GQ3MBP4b0B9aUku2emP8MpvfobX6zUc TURE7KSsNJ+W5iZGP3h/j8XHutXvsGr+4mDxcRV4AliJig+JUipAxG7agF8Q6KXNb25q5OV//S6r lkzl/T07DEcTERG7CLVfdbP6Vc3Var711Wf53je+RV1tHUAJgaf1b/RFRpFwpRYssbvHgX8Hhrhc bp764td47lsvkpiUbDqXiIhEqObmJmZMvIPGxnreKV/P3fd8utW3rGgDL/zj94O7mTcQ2FD3FbSb uYiegIjtvQE8APzS623z/eH3v2Jp1kQ2lRaYziUiIhGqYlMRjY31jLjvnk8VH40Njbz4ned59pmv BYuP7QTmJv4WFR8igAoQiQ7VwLNAGnDw9KljfOVLi3n2Hz7L5ctqvxURkRsTbL/K/kT71c4t23l8 4VJWv/oafr+/FfgnAnMTD/Z5SJEwphYsiTYxBB6DvwDEpaT251v/46c88bmv4HDor4OIiHTP42ll xqRh1NVW80bxWkY/eD+tra38rx/9nL/+/lUCm5mzl8BGuXvNphUJT3oCItHGA7xEYJJ6SV1tNc// j6/xhSfm89ER3aASEZHuba0opa62mjvvvovRD97PoX0H+Hz2Sv78//0BX6D6eAmYhooPkS65TAcQ MeQK8EfgKDD37JmTia/9+f/Q1NTI5KmzcbnchuOJiEg4euV//5z9+3ax6qkn2b19J99/9jtUXawC OAIsA35PYEVGEemCek5E4HbgZwQelzPintG8+NPfMG1GmtFQIiISXrxtbcyacidXr1Qx+sH7OXzo w+CXfgt8C+1mLnJdVICIXLMY+DUwwuFwsOyxp/ju8/9G/wGDTOcSEZEwsG3LRp5+Mr3jS1eAfwBe M5NIJDJpDojINeuAMcBLfr/f+/abr7I4YzxrVv/RdC4REQkDBblvdjzNA8ai4kPkhukJiEjnZgP/ L4GChOwlj/P9H/5PBt92u9lUIiLXyev10lDffUdQQ0M9bW2eLr/u83qpr6/r9hqNjQ14PK09XKP7 HD1ew+ejvq6mh2s0dnsNv89HXQ/XaGpqpLW1pcuvV24uoab6CsDLwLfRvh4iN0UFiEjXYgms4f5d tGSvRKj6+lp8Xm+XX2/1tNLU2NDDNeq6vYanzUNjQ/0t5bieazQ01OFt63pub+Aa3f9ZerpGW1sb DQ3dD7ituEZjQ0O3A39vWxv1PV6j++JBek0VMBTwmQ4iEqk0ihLp2QMEnobMA5g8dTb/8tPfcN+o h8ymuk4tLc20NDd1+56amqvXcY3mbt9TW1uN39/1zcDrydHTNVpbW2huauzhGjW3fI26uprgWv69 dg2Pp5WmRiuu0f2AW6QHDUDXjw3AS88Tq/viGj6g+8cX0Ah0/fji1q4xCrgD2AQcAMp7uI6IdEMF iMj1cQB/B/wcGBAbG8ujU2Z3+ySkubmJlpYeBu011d1+/fqu0X3xINKDVgKDv+7UEhhEdsUDdP/4 AurofmnScLlGW/t7ulPf/lnhfo3rGfjL9XGjpXVFLKMCROTGDAX+J/A500EsVk33vczNQPePL/rm Gi0E7lB2p4buWyPC5RpWDPytuIaIiEifUgEicnNmAsN7eE8TgUF3d3p6fHE9g3YrriEiIiIiIiIi IiIiIiIiIiIiIiIiIiIiIiIiIiIiIiIiIiIiIiIiIiIiIiIiIiIiIiIiIiIiIiIiIiIiIiIiIiIi IiIiIiIiIiIiIiIiIiIiIiIiIiIiIiIiIiIiIiIiIiIiIiIiIiIiIiIiIiIiIiIiIiIiIiIiIiIi IiIiIiIiIiIiIiIiIiIiIiIiIiIiIiIiIiIiIiIiIiIiIiIiIiIiIiIiIiIiIiIiIiIiIiIiIiIi IiIiIiIiIiIiIiIiIiIiIiIiIiIiIiIiIiIiIiIiIiIiIiIiIiIiIiIiIiIiIiIiIiIiIiIiIiIi IiIiIiIiIiIiIiIiIiIiIiIiIiIiIiIiIiIiIiIiIiIiIiIiIiIiIiIiIiIiIiIiIiIiIiIiIiIi IiIiIiIiIiIiIiIiIiIiIiIiIiIiEuH+f4wuAp+Ps7tWAAAAAElFTkSuQmCC "
       preserveAspectRatio="none"
       height="347.34692"
       width="378.0647" />
    <path
       inkscape:connector-curvature="0"
       id="path5618"
       d="m 161.55476,134.56175 29.70657,-96.120359 28.22213,8.721856 -20.96877,67.848713 39.93054,12.31793 -8.69872,28.22872 z"
       style="fill:#174949;fill-opacity:1;stroke:none;stroke-width:0.84575462px;stroke-linecap:butt;stroke-linejoin:miter;stroke-opacity:1" />
    <path
       style="fill:url(#linearGradient6806);fill-opacity:1;stroke:none;stroke-width:0.26458332px;stroke-linecap:butt;stroke-linejoin:miter;stroke-opacity:1"
       d="M 76.681919,39.692711 217.57254,-63.164061 359.45535,39.598215 367.22833,74.364483 224.51785,-28.437499 85.993969,68.551373 Z"
       id="path6788"
       inkscape:connector-curvature="0"
       sodipodi:nodetypes="ccccccc" />
    <path
       style="fill:url(#linearGradient6814);stroke:none;stroke-width:0.26458332px;stroke-linecap:butt;stroke-linejoin:miter;stroke-opacity:1;fill-opacity:1"
       d="M 202.15599,-12.698564 224.51785,-28.437499 367.22833,74.36448 322.49409,214.24668 289.78698,237.0648 338.73072,86.458431 Z"
       id="path6790"
       inkscape:connector-curvature="0" />
    <path
       style="fill:url(#linearGradient6822);stroke:none;stroke-width:0.26458332px;stroke-linecap:butt;stroke-linejoin:miter;stroke-opacity:1;fill-opacity:1"
       d="m 315.51168,69.754084 23.21904,16.704344 -48.94374,150.606372 -181.4426,1.47 -33.843001,-21.4484 194.438581,-4.54358 z"
       id="path6794"
       inkscape:connector-curvature="0" />
    <path
       style="fill:url(#linearGradient6830);stroke:none;stroke-width:0.26458332px;stroke-linecap:butt;stroke-linejoin:miter;stroke-opacity:1;fill-opacity:1"
       d="M 74.501379,217.0864 268.93996,212.54282 277.8125,185.07179 91.021391,186.96169 44.600603,31.835221 30.710565,68.796875 Z"
       id="path6796"
       inkscape:connector-curvature="0"
       sodipodi:nodetypes="ccccccc" />
    <path
       style="fill:url(#linearGradient6838);stroke:none;stroke-width:0.26458332px;stroke-linecap:butt;stroke-linejoin:miter;stroke-opacity:1;fill-opacity:1"
       d="M 91.021391,186.96169 44.600603,31.835218 172.92411,-64.061753 217.57254,-63.164061 76.681919,39.692708 123.92894,186.5837 Z"
       id="path6798"
       inkscape:connector-curvature="0" />
    <path
       style="fill:#1f6161;fill-opacity:1;stroke:none;stroke-width:0.84575462px;stroke-linecap:butt;stroke-linejoin:miter;stroke-opacity:1"
       d="m -350.22501,134.56175 29.70657,-96.120359 28.22213,8.721856 -20.96877,67.848713 39.93054,12.31793 -8.69872,28.22872 z"
       id="path7565"
       inkscape:connector-curvature="0" />
    <path
       sodipodi:nodetypes="ccccccc"
       inkscape:connector-curvature="0"
       id="path7567"
       d="m -435.09785,39.692711 140.89062,-102.856772 141.88281,102.762276 7.77298,34.766268 -142.71048,-102.801982 -138.52388,96.988872 z"
       style="fill:url(#linearGradient7577);fill-opacity:1;stroke:none;stroke-width:0.26458332px;stroke-linecap:butt;stroke-linejoin:miter;stroke-opacity:1" />
    <path
       inkscape:connector-curvature="0"
       id="path7569"
       d="m -309.65922,-12.757623 22.3973,-15.679876 142.71048,102.801979 -44.73424,139.8822 -32.70711,22.81812 48.94374,-150.606369 z"
       style="fill:url(#linearGradient7579);fill-opacity:1;stroke:none;stroke-width:0.26458332px;stroke-linecap:butt;stroke-linejoin:miter;stroke-opacity:1"
       sodipodi:nodetypes="ccccccc" />
    <path
       inkscape:connector-curvature="0"
       id="path7571"
       d="m -196.26809,69.754084 23.21904,16.704344 -48.94374,150.606372 -181.4426,1.47 -33.843,-21.4484 194.43858,-4.54358 z"
       style="fill:url(#linearGradient7581);fill-opacity:1;stroke:none;stroke-width:0.26458332px;stroke-linecap:butt;stroke-linejoin:miter;stroke-opacity:1" />
    <path
       sodipodi:nodetypes="ccccccc"
       inkscape:connector-curvature="0"
       id="path7573"
       d="m -437.27839,217.0864 194.43858,-4.54358 8.87254,-27.47103 -186.79111,1.8899 -46.42079,-155.126469 -13.89004,36.961654 z"
       style="fill:url(#linearGradient7583);fill-opacity:1;stroke:none;stroke-width:0.26458332px;stroke-linecap:butt;stroke-linejoin:miter;stroke-opacity:1" />
    <path
       inkscape:connector-curvature="0"
       id="path7575"
       d="m -420.75838,186.96169 -46.42079,-155.126472 128.32351,-95.896971 44.64843,0.897692 -140.89062,102.856769 47.24702,146.890992 z"
       style="fill:url(#linearGradient7585);fill-opacity:1;stroke:none;stroke-width:0.26458332px;stroke-linecap:butt;stroke-linejoin:miter;stroke-opacity:1" />
  </g>
</svg>
